{
"type": "FeatureCollection",
"name": "FR_micro-regions_elevation",
"crs": { "type": "name", "properties": { "name": "urn:ogc:def:crs:OGC:1.3:CRS84" } },
"features": [
{ "type": "Feature", "properties": { "id": "FR-67", "elevation": "low_high", "threshold": null, "elevation line_visualization": 0 }, "geometry": { "type": "MultiPolygon", "coordinates": [ [ [ [ 0.368069450370274, 43.000414563845965 ], [ 0.47769722505642, 43.01566990443655 ], [ 0.550074042904505, 42.997909465164128 ], [ 0.637616757977969, 42.94974292025173 ], [ 0.60018665835796, 42.928041388553865 ], [ 0.562346070379462, 42.860778215994081 ], [ 0.477356809164996, 42.87826387743597 ], [ 0.460246500738674, 42.851775087882181 ], [ 0.451301547671665, 42.733163625438557 ], [ 0.505416631698722, 42.691661834716903 ], [ 0.432777762413139, 42.686660766601698 ], [ 0.329208792330577, 42.699893739199865 ], [ 0.269166618585643, 42.707565307617202 ], [ 0.267218233346553, 42.708160066896227 ], [ 0.192040596364894, 42.731108607191558 ], [ 0.211578424016413, 42.778029554852182 ], [ 0.31131665641921, 42.807883280979603 ], [ 0.368069450370274, 43.000414563845965 ] ] ] ] } },
{ "type": "Feature", "properties": { "id": "FR-22", "elevation": "low_high", "threshold": null, "elevation line_visualization": 0 }, "geometry": { "type": "MultiPolygon", "coordinates": [ [ [ [ 7.112660237483925, 44.089145698683637 ], [ 7.151304466848105, 43.994848383239294 ], [ 7.142976538437861, 43.946887086973874 ], [ 6.686627300468104, 43.979648886900833 ], [ 6.624534145192395, 44.028143970763239 ], [ 6.450422133631514, 44.112850667557346 ], [ 6.478557696250399, 44.148429812947242 ], [ 6.489813709193005, 44.219683311727735 ], [ 6.42878821409024, 44.321258838730394 ], [ 6.595634907944117, 44.292035722956413 ], [ 6.774081641647848, 44.309423583957432 ], [ 6.893062655696936, 44.263583754693158 ], [ 6.999802115126825, 44.191068177921323 ], [ 7.075133464758914, 44.168073935455574 ], [ 7.112660237483925, 44.089145698683637 ] ] ] ] } },
{ "type": "Feature", "properties": { "id": "FR-06", "elevation": "low_high", "threshold": null, "elevation line_visualization": 0 }, "geometry": { "type": "MultiPolygon", "coordinates": [ [ [ [ 7.083077656207487, 45.469925155082755 ], [ 7.044186653629996, 45.385379946444964 ], [ 6.923044567478386, 45.304554876162122 ], [ 6.920708964728292, 45.362773857372908 ], [ 6.875363507076334, 45.44153454238063 ], [ 6.738197257877711, 45.566028448247557 ], [ 6.788178692569494, 45.644385208541635 ], [ 6.723049299723847, 45.694509383264233 ], [ 6.738830809802593, 45.749810249055514 ], [ 6.801187578247072, 45.780998578127189 ], [ 6.806425644787285, 45.766786446304103 ], [ 6.805721596471569, 45.74818978687199 ], [ 6.809742405377631, 45.744131369400293 ], [ 6.817059418725391, 45.740060486569988 ], [ 6.80851780940589, 45.725254682799751 ], [ 6.827903185539254, 45.704796824653471 ], [ 6.840931562597623, 45.700403662410714 ], [ 6.847744912125139, 45.689389702734353 ], [ 6.878729632549386, 45.678963272806243 ], [ 6.89020068933288, 45.677750871410325 ], [ 6.90284186016445, 45.680849924409344 ], [ 6.907044223979323, 45.670919882399787 ], [ 6.902588943987781, 45.663860976330973 ], [ 6.926881706025488, 45.647418508830448 ], [ 6.939211008739869, 45.648067512555329 ], [ 6.961998655197122, 45.655257108590391 ], [ 6.970089423431702, 45.654336623074322 ], [ 6.993365169498588, 45.639548884239296 ], [ 7.001030800143497, 45.638639714917076 ], [ 6.998302323774846, 45.633038244446311 ], [ 6.984483666421687, 45.624176948163282 ], [ 6.98507443718008, 45.607039156457262 ], [ 6.978103963326216, 45.590619366224686 ], [ 6.980676803876976, 45.583278187363078 ], [ 6.995391570251884, 45.575511980392186 ], [ 6.989680518256701, 45.555732765812579 ], [ 6.996020845498332, 45.54335776732119 ], [ 6.992153528131591, 45.533827296707365 ], [ 7.005267732028844, 45.51712773074042 ], [ 7.001611043545073, 45.512110723497308 ], [ 7.001151156425281, 45.504474536279574 ], [ 7.018985514863773, 45.497819052087884 ], [ 7.044731060226757, 45.497461528929783 ], [ 7.04853585754464, 45.472580785585734 ], [ 7.07994045502429, 45.473551634401773 ], [ 7.099532990746966, 45.469872952634233 ], [ 7.10402947017239, 45.467126484322733 ], [ 7.083077656207487, 45.469925155082755 ] ] ] ] } },
{ "type": "Feature", "properties": { "id": "FR-41", "elevation": "low_high", "threshold": null, "elevation line_visualization": 0 }, "geometry": { "type": "MultiPolygon", "coordinates": [ [ [ [ 9.04201789990633, 42.076122252561596 ], [ 9.095861399883923, 42.097488353002205 ], [ 9.143025400302095, 42.144157353241326 ], [ 9.219893499785432, 42.170211753523347 ], [ 9.253752699627528, 42.158733353674705 ], [ 9.272834799886368, 42.130184153088919 ], [ 9.25558380025247, 41.965965252525436 ], [ 9.281644799668008, 41.864574351894376 ], [ 9.228379200439894, 41.700191451854359 ], [ 9.158772499651416, 41.761741552032497 ], [ 9.08313369966071, 41.780639552142958 ], [ 9.064907100182637, 41.853931352081879 ], [ 9.139600799937037, 41.931690152087974 ], [ 9.055257800007611, 41.916416152737938 ], [ 9.048584899673651, 41.926212251983252 ], [ 9.025867499585594, 41.973903652790469 ], [ 9.047556899931223, 42.01388925308779 ], [ 9.017392199590486, 42.052669452471854 ], [ 9.04201789990633, 42.076122252561596 ] ] ] ] } },
{ "type": "Feature", "properties": { "id": "FR-21", "elevation": "low_high", "threshold": null, "elevation line_visualization": 0 }, "geometry": { "type": "MultiPolygon", "coordinates": [ [ [ [ 6.42878821409024, 44.321258838730394 ], [ 6.259063787613025, 44.454873016338361 ], [ 6.33693266662561, 44.476151380641056 ], [ 6.557885249564741, 44.445269134746255 ], [ 6.577398119533429, 44.453772066360351 ], [ 6.638171356034541, 44.567215591941 ], [ 6.860052876442091, 44.655807497203433 ], [ 6.948154236856567, 44.653739924367763 ], [ 6.953759713449708, 44.646305594529174 ], [ 6.953066765615925, 44.640720292039383 ], [ 6.957098109065348, 44.634110139679443 ], [ 6.96871046814808, 44.625790885079326 ], [ 6.966511083312114, 44.619699346763689 ], [ 6.964399086586955, 44.618803310719144 ], [ 6.958195917716185, 44.621841457452398 ], [ 6.949722240795122, 44.619414715968475 ], [ 6.949346081151365, 44.609381127277977 ], [ 6.937558006209155, 44.604446351157122 ], [ 6.93852144216483, 44.59901673179683 ], [ 6.933374229435826, 44.595589062425518 ], [ 6.933202511977662, 44.57472707719009 ], [ 6.912639316946083, 44.568863356631852 ], [ 6.915901175201189, 44.562091763664768 ], [ 6.914102601576996, 44.559280441466242 ], [ 6.901846623847694, 44.55390718075212 ], [ 6.894780946540009, 44.555601875629556 ], [ 6.890241462965339, 44.552341518092668 ], [ 6.884000510953681, 44.551987586692825 ], [ 6.878274407685899, 44.554302322094706 ], [ 6.876779474509211, 44.547068985718589 ], [ 6.872468466647245, 44.545252221511909 ], [ 6.869294118673817, 44.536794454106158 ], [ 6.858270595378364, 44.534464141458699 ], [ 6.853299314104475, 44.528907870491594 ], [ 6.857834513613589, 44.521485940421449 ], [ 6.857983075198637, 44.507238100261226 ], [ 6.866384599436066, 44.494440474191272 ], [ 6.877042061948232, 44.488450207618207 ], [ 6.876438996846862, 44.481569041738204 ], [ 6.891284389043872, 44.472040832354743 ], [ 6.906334586345902, 44.467577718314423 ], [ 6.911976350384927, 44.451493305238117 ], [ 6.920784420678933, 44.445811281830956 ], [ 6.936542831784653, 44.440066609026999 ], [ 6.939562576104388, 44.433978740497622 ], [ 6.947850093352518, 44.430019639726488 ], [ 6.946357298166189, 44.427044762002453 ], [ 6.934477794490996, 44.429976138190689 ], [ 6.932324302786244, 44.42510805003414 ], [ 6.9249769335684, 44.422606440282365 ], [ 6.917551940926867, 44.427732211000048 ], [ 6.913832161964081, 44.424377083718639 ], [ 6.902953477635138, 44.420730205544231 ], [ 6.899384774641876, 44.422184863897165 ], [ 6.892312404885349, 44.420444583112186 ], [ 6.893929292446689, 44.410150129279522 ], [ 6.897739675489024, 44.405674151371997 ], [ 6.894267608762489, 44.39993879433419 ], [ 6.896870542875247, 44.394598839903502 ], [ 6.894198535503672, 44.389673332926471 ], [ 6.897165830787241, 44.375001995373104 ], [ 6.894299672329922, 44.369519897799989 ], [ 6.887968283325377, 44.367392097094061 ], [ 6.887392928555572, 44.361615975074024 ], [ 6.821133045830648, 44.355267940338827 ], [ 6.774081641647848, 44.309423583957432 ], [ 6.595634907944117, 44.292035722956413 ], [ 6.42878821409024, 44.321258838730394 ] ] ] ] } },
{ "type": "Feature", "properties": { "id": "FR-74", "elevation": "low_high", "threshold": null, "elevation line_visualization": 0 }, "geometry": { "type": "MultiPolygon", "coordinates": [ [ [ [ 1.954503773713528, 42.414017837249268 ], [ 1.941154201857202, 42.446718561283561 ], [ 2.409597988266724, 42.575670109412208 ], [ 2.491337732251531, 42.577398626834096 ], [ 2.589062932637747, 42.522484090471337 ], [ 2.67775138635456, 42.409354824409348 ], [ 2.652860288380038, 42.384447039179491 ], [ 2.669253276891387, 42.349436876485562 ], [ 2.642922795014366, 42.346222624565712 ], [ 2.533247610280475, 42.333495445272902 ], [ 2.530172608262123, 42.333914306280853 ], [ 2.47722196578985, 42.348190307617202 ], [ 2.475965986703861, 42.349235472869211 ], [ 2.464274363567584, 42.361253080040072 ], [ 2.462846382181689, 42.360152975333747 ], [ 2.44083309173595, 42.378471374511697 ], [ 2.33222198486328, 42.418052673339901 ], [ 2.314174494140361, 42.423420312297019 ], [ 2.27318358421326, 42.435611724853501 ], [ 2.269678058758823, 42.435167189468935 ], [ 2.238446458911377, 42.431206712949972 ], [ 2.14458298683172, 42.419303894042997 ], [ 2.140334766170624, 42.414596952490129 ], [ 2.12333321571356, 42.395759582519602 ], [ 2.09361076354986, 42.364166259765597 ], [ 2.06222200393688, 42.356941223144503 ], [ 2.02055525779724, 42.352634429931598 ], [ 2.007709490496191, 42.357846123955532 ], [ 1.99624991416937, 42.362495422363303 ], [ 1.97277760505682, 42.379440307617202 ], [ 1.95916652679449, 42.4108276367188 ], [ 1.954503773713528, 42.414017837249268 ] ] ] ] } },
{ "type": "Feature", "properties": { "id": "FR-05", "elevation": "low_high", "threshold": null, "elevation line_visualization": 0 }, "geometry": { "type": "MultiPolygon", "coordinates": [ [ [ [ 6.515663058340839, 45.819849936555272 ], [ 6.660836375050897, 45.792533884797827 ], [ 6.738830809802593, 45.749810249055514 ], [ 6.723049299723847, 45.694509383264233 ], [ 6.788178692569494, 45.644385208541635 ], [ 6.738197257877711, 45.566028448247557 ], [ 6.600583215832896, 45.532661231945035 ], [ 6.527304058174984, 45.45788253626322 ], [ 6.458241686900185, 45.544108311735471 ], [ 6.407739782024762, 45.656338610189898 ], [ 6.355231639063152, 45.667248209565713 ], [ 6.429085305804993, 45.753417491799269 ], [ 6.470919232888644, 45.764136830186239 ], [ 6.515663058340839, 45.819849936555272 ] ] ] ] } },
{ "type": "Feature", "properties": { "id": "FR-10", "elevation": "low_high", "threshold": null, "elevation line_visualization": 0 }, "geometry": { "type": "MultiPolygon", "coordinates": [ [ [ [ 6.34498502034689, 45.658699587016898 ], [ 6.355231639063152, 45.667248209565713 ], [ 6.407739782024762, 45.656338610189898 ], [ 6.458241686900185, 45.544108311735471 ], [ 6.527304058174984, 45.45788253626322 ], [ 6.600583215832896, 45.532661231945035 ], [ 6.738197257877711, 45.566028448247557 ], [ 6.875363507076334, 45.44153454238063 ], [ 6.920708964728292, 45.362773857372908 ], [ 6.923044567478386, 45.304554876162122 ], [ 6.794975093663401, 45.295132161298554 ], [ 6.730505655466589, 45.243927984045804 ], [ 6.613341264541161, 45.239895424526729 ], [ 6.506452871921692, 45.269149378629656 ], [ 6.349851816882578, 45.39991061827822 ], [ 6.373557532490278, 45.626370595697345 ], [ 6.34498502034689, 45.658699587016898 ] ] ] ] } },
{ "type": "Feature", "properties": { "id": "FR-66", "elevation": "low_high", "threshold": null, "elevation line_visualization": 0 }, "geometry": { "type": "MultiPolygon", "coordinates": [ [ [ [ -0.180000007152501, 42.784439086914098 ], [ -0.205555558204651, 42.794166564941499 ], [ -0.262500047683716, 42.817497253418097 ], [ -0.303194463253021, 42.841800689697401 ], [ -0.306382633811847, 42.84558425822798 ], [ -0.308739304542542, 42.848381042480597 ], [ -0.326858108028104, 42.916893394105891 ], [ -0.27922689360213, 42.939077919317732 ], [ -0.292237793941526, 42.992172366294106 ], [ -0.261444917444792, 43.012355161303859 ], [ -0.260126596955886, 43.037690679854578 ], [ -0.223935771443139, 43.033711423892747 ], [ -0.180992989351929, 43.052055504446436 ], [ -0.198996261104783, 43.066004792794146 ], [ -0.187324471791887, 43.08857514641506 ], [ -0.154470488175088, 43.094754163174713 ], [ -0.00504657665189, 43.05025004398717 ], [ 0.197171878354123, 43.035603273631672 ], [ 0.368069450370274, 43.000414563845965 ], [ 0.31131665641921, 42.807883280979603 ], [ 0.211578424016413, 42.778029554852182 ], [ 0.192040596364894, 42.731108607191558 ], [ 0.180902764201221, 42.734508514404297 ], [ 0.144166648387852, 42.722221374511697 ], [ 0.134856438449657, 42.718528972175129 ], [ 0.111944437027034, 42.709442138671903 ], [ 0.002777777379436, 42.686077117919901 ], [ -0.00484008535298, 42.687797886039235 ], [ -0.042763900027122, 42.696364342740694 ], [ -0.057916667312327, 42.699787139892599 ], [ -0.063917935470307, 42.705059251791909 ], [ -0.123611122369709, 42.757499694824197 ], [ -0.13813272221168, 42.767318384585259 ], [ -0.151944458484536, 42.776657104492202 ], [ -0.180000007152501, 42.784439086914098 ] ] ] ] } },
{ "type": "Feature", "properties": { "id": "FR-68", "elevation": "low_high", "threshold": null, "elevation line_visualization": 0 }, "geometry": { "type": "MultiPolygon", "coordinates": [ [ [ [ 0.64193798434345, 42.952844375773168 ], [ 0.641936416784138, 42.952789928307112 ], [ 0.641676126992139, 42.952186055989671 ], [ 0.641487707731099, 42.949987359846098 ], [ 0.643318220686484, 42.948049169658049 ], [ 0.645814597805727, 42.945656388931063 ], [ 0.647381823085358, 42.940242337965067 ], [ 0.650373798619199, 42.933403536744862 ], [ 0.652510924000514, 42.927989485778859 ], [ 0.656785174763144, 42.925852360397549 ], [ 0.662769125830826, 42.92642226049923 ], [ 0.677695610915948, 42.922858158691419 ], [ 0.685208942334633, 42.920353714885195 ], [ 0.694391902957471, 42.908388038922105 ], [ 0.706635850454588, 42.894752733754856 ], [ 0.711644738067045, 42.887239402336171 ], [ 0.725558314768314, 42.878056441713333 ], [ 0.735854361527254, 42.872491011032828 ], [ 0.747824334027529, 42.864849606787196 ], [ 0.748318307164852, 42.859251244564206 ], [ 0.742390629516974, 42.856616721165146 ], [ 0.735968978731773, 42.853488224628769 ], [ 0.735003508476718, 42.852250442250494 ], [ 0.734865125831072, 42.853387573992975 ], [ 0.734185126311749, 42.85461992762113 ], [ 0.732258857401501, 42.855204691614425 ], [ 0.731207050101446, 42.855028125478604 ], [ 0.729580891446307, 42.856085969823503 ], [ 0.727857482670981, 42.856908271308036 ], [ 0.726782826758269, 42.85735411535326 ], [ 0.725399460615844, 42.857560226724921 ], [ 0.723352973684453, 42.858531765975918 ], [ 0.721852372953873, 42.859046954709754 ], [ 0.720248853557264, 42.859482211104002 ], [ 0.718673959860846, 42.859139385564809 ], [ 0.716161624291408, 42.858388525474624 ], [ 0.715286897735642, 42.859149701082025 ], [ 0.713768993569196, 42.860131615590134 ], [ 0.712065381758682, 42.860409031872614 ], [ 0.710996305401022, 42.860699112132657 ], [ 0.709821460650339, 42.86098706642921 ], [ 0.70864372789592, 42.861352813678849 ], [ 0.70708037601554, 42.860698608002608 ], [ 0.705925681004098, 42.860441885534968 ], [ 0.705305544284886, 42.860040142116922 ], [ 0.704682533323191, 42.859716200611331 ], [ 0.702499164692351, 42.858660187369381 ], [ 0.701356075644414, 42.858092201866533 ], [ 0.698852680863176, 42.85710755666927 ], [ 0.697175121894194, 42.856684511283859 ], [ 0.695288981805906, 42.856179379721915 ], [ 0.693920033285964, 42.855996087546401 ], [ 0.692668430211072, 42.855503692531897 ], [ 0.690453526036006, 42.855303306557794 ], [ 0.688650017573902, 42.855422635529592 ], [ 0.687072518786135, 42.855157188025039 ], [ 0.685789028440543, 42.855520564977766 ], [ 0.683900116686098, 42.855093052749389 ], [ 0.681899665630175, 42.854818976649277 ], [ 0.679887581738145, 42.854856081112423 ], [ 0.677761004045962, 42.855124416180566 ], [ 0.678620724833044, 42.851949476075994 ], [ 0.678725633314077, 42.849148540414092 ], [ 0.675846718629153, 42.846909972805662 ], [ 0.672838917125306, 42.845291616201244 ], [ 0.668962061967267, 42.844278392784915 ], [ 0.666665357277734, 42.84345297914075 ], [ 0.664163131007403, 42.842467600853524 ], [ 0.660045792194725, 42.839424734792807 ], [ 0.659059115128536, 42.83753585550992 ], [ 0.659364528624854, 42.835050486641435 ], [ 0.659737449921284, 42.833578714182941 ], [ 0.660644749915366, 42.831962134507137 ], [ 0.661801542348018, 42.829338427356667 ], [ 0.663751053545219, 42.828132417417116 ], [ 0.665251342326955, 42.827617980424598 ], [ 0.666032219096108, 42.826543820245391 ], [ 0.667761395288982, 42.825566837837201 ], [ 0.669384823983501, 42.82458767641036 ], [ 0.669948361599092, 42.823664790281278 ], [ 0.670106653897789, 42.822266477589473 ], [ 0.669624970170935, 42.821010866736913 ], [ 0.667666639660433, 42.819647320823847 ], [ 0.666556780799187, 42.818223173164029 ], [ 0.66565833162624, 42.816803324949859 ], [ 0.664654245247326, 42.815381315015259 ], [ 0.665484729182147, 42.812984495515614 ], [ 0.666820090646684, 42.811220862702285 ], [ 0.668897969379749, 42.809394469385431 ], [ 0.669379073112384, 42.807846999888731 ], [ 0.670605626682757, 42.806158968990388 ], [ 0.670658182492914, 42.80475850058874 ], [ 0.670182448413507, 42.803347283991648 ], [ 0.669489583517427, 42.802087372636855 ], [ 0.667394026719594, 42.801577523375641 ], [ 0.666789344819537, 42.800786571409432 ], [ 0.665565398954431, 42.79959367671762 ], [ 0.664538162950743, 42.798794097392296 ], [ 0.662337113156575, 42.79828200415951 ], [ 0.660224156033609, 42.798238848108276 ], [ 0.658698120466818, 42.796650390871072 ], [ 0.657703307823842, 42.794994917682693 ], [ 0.656265434378798, 42.793875410728262 ], [ 0.6552325380182, 42.793231358697994 ], [ 0.654437387374269, 42.791891398254961 ], [ 0.652882470390374, 42.788277826243345 ], [ 0.652392550737311, 42.78725556029665 ], [ 0.650547158950304, 42.785738309387249 ], [ 0.647507593289338, 42.785052998858085 ], [ 0.646389948446056, 42.783862083392002 ], [ 0.646108461734566, 42.782921937786952 ], [ 0.647079675518001, 42.782396854337897 ], [ 0.648482183871465, 42.781647029880503 ], [ 0.649790815795674, 42.780583808355892 ], [ 0.651228549634319, 42.778900312596406 ], [ 0.653408422465034, 42.777154144812414 ], [ 0.654147701938869, 42.777169291660783 ], [ 0.656045773748265, 42.777286022165526 ], [ 0.657436327893594, 42.776847296041034 ], [ 0.659457595461766, 42.776499309656252 ], [ 0.660314200674642, 42.776205361380839 ], [ 0.662432261768131, 42.776092890084016 ], [ 0.664975681612118, 42.775911190305408 ], [ 0.667108334550908, 42.775409613192018 ], [ 0.668633576411464, 42.774194861620622 ], [ 0.666348203032265, 42.773136088571555 ], [ 0.66470530181727, 42.77185678347751 ], [ 0.662862971010107, 42.77026193142656 ], [ 0.660991451597122, 42.769445087214471 ], [ 0.658263478112293, 42.768922155617282 ], [ 0.656066470727232, 42.768332164784319 ], [ 0.654514824061893, 42.767443898261035 ], [ 0.653587969875019, 42.766802004272144 ], [ 0.65233554073691, 42.766387018858964 ], [ 0.650992239278198, 42.76558083903376 ], [ 0.650605164871507, 42.764638538292175 ], [ 0.65074898324748, 42.763629264881416 ], [ 0.650470450745907, 42.762611326689466 ], [ 0.639679368765103, 42.754603085530938 ], [ 0.647190129523018, 42.75156523469019 ], [ 0.660274710473545, 42.751989030334755 ], [ 0.661166083986688, 42.750761420637424 ], [ 0.662142512314856, 42.750080585101692 ], [ 0.663649666589913, 42.749332705769405 ], [ 0.663804917704281, 42.748012191381164 ], [ 0.663426513661984, 42.746836517234172 ], [ 0.662743142452079, 42.745343163679046 ], [ 0.662786996405034, 42.744176103807654 ], [ 0.662936401715647, 42.743011197677312 ], [ 0.664235187389755, 42.74218119318386 ], [ 0.666689167390358, 42.74153044219652 ], [ 0.666715432102225, 42.740830203837163 ], [ 0.666436721890465, 42.73981229685667 ], [ 0.666805892256158, 42.738418270947101 ], [ 0.66674703265968, 42.737171251728292 ], [ 0.668265477332933, 42.736112083476648 ], [ 0.668842746956504, 42.734800150314769 ], [ 0.669722037286225, 42.733883678404553 ], [ 0.670085266912957, 42.73264524703113 ], [ 0.67057440296201, 42.730864328101816 ], [ 0.672608647976178, 42.730127045312905 ], [ 0.674000931850373, 42.729610282125819 ], [ 0.675393193111634, 42.729093501388199 ], [ 0.677008109231013, 42.728269764068436 ], [ 0.677570599674668, 42.7273468041681 ], [ 0.678572592398669, 42.725965566504051 ], [ 0.678935593581637, 42.72472710000978 ], [ 0.679626746751716, 42.723183824658001 ], [ 0.677856101724152, 42.722525027399811 ], [ 0.676088399729839, 42.721788398537207 ], [ 0.674027446278608, 42.720422877964097 ], [ 0.672810697714647, 42.719074478557012 ], [ 0.673167953898668, 42.71799164442713 ], [ 0.674618081407075, 42.715918773077 ], [ 0.676826969806561, 42.713316228079243 ], [ 0.678798567038114, 42.711409604866581 ], [ 0.680301675674129, 42.710739281635597 ], [ 0.68116306397805, 42.710289540357095 ], [ 0.681921837141151, 42.709759851929007 ], [ 0.682486974188746, 42.708759057276318 ], [ 0.682533300214151, 42.707514172082902 ], [ 0.681638874650589, 42.706016657452551 ], [ 0.680519023364516, 42.704903890641425 ], [ 0.678555302803039, 42.703774012962775 ], [ 0.676890702606672, 42.703117352370683 ], [ 0.675357757909057, 42.701762564162287 ], [ 0.674475202630067, 42.699953778187115 ], [ 0.673598507654988, 42.697989376161217 ], [ 0.674002090418281, 42.695661652406244 ], [ 0.676072856376921, 42.693912811374936 ], [ 0.676201542479851, 42.693292509788044 ], [ 0.676341831788528, 42.6923609871411 ], [ 0.676493372146077, 42.690968038733125 ], [ 0.676502424525265, 42.690884827505279 ], [ 0.674826573464284, 42.690539365009634 ], [ 0.672406673750278, 42.69033448922147 ], [ 0.669479836938334, 42.689574200869416 ], [ 0.668009167487499, 42.689388541184613 ], [ 0.666286789093242, 42.690287831243729 ], [ 0.664359261767575, 42.691027184053453 ], [ 0.663287097158801, 42.691472500846075 ], [ 0.662126965359004, 42.691448828069049 ], [ 0.659827159987428, 42.69085681718164 ], [ 0.656492628077999, 42.69217974219638 ], [ 0.587989033793239, 42.695251989752592 ], [ 0.505416631698722, 42.691661834716903 ], [ 0.451301547671665, 42.733163625438557 ], [ 0.460246500738674, 42.851775087882181 ], [ 0.477356809164996, 42.87826387743597 ], [ 0.562346070379462, 42.860778215994081 ], [ 0.60018665835796, 42.928041388553865 ], [ 0.637616757977969, 42.94974292025173 ], [ 0.64193798434345, 42.952844375773168 ] ] ] ] } },
{ "type": "Feature", "properties": { "id": "FR-18", "elevation": "low_high", "threshold": null, "elevation line_visualization": 0 }, "geometry": { "type": "MultiPolygon", "coordinates": [ [ [ [ 5.993173765361481, 44.796284940913132 ], [ 6.056865902293752, 44.697684651257561 ], [ 6.182704726831619, 44.584177136882587 ], [ 6.116874466513195, 44.578752431343922 ], [ 6.039259368682739, 44.55019958453051 ], [ 5.90204747835122, 44.557462016179961 ], [ 5.794177274917232, 44.535412906198751 ], [ 5.66664071395014, 44.61194903279489 ], [ 5.626623694017941, 44.686681320008702 ], [ 5.622327202386754, 44.795886495210283 ], [ 5.621331685532766, 44.878126180013645 ], [ 5.813613363411561, 44.854087205710961 ], [ 5.959401281595168, 44.817166122215347 ], [ 5.993173765361481, 44.796284940913132 ] ] ] ] } },
{ "type": "Feature", "properties": { "id": "FR-40", "elevation": "low_high", "threshold": null, "elevation line_visualization": 0 }, "geometry": { "type": "MultiPolygon", "coordinates": [ [ [ [ 9.143025400302095, 42.144157353241326 ], [ 9.095861399883923, 42.097488353002205 ], [ 9.04201789990633, 42.076122252561596 ], [ 8.890946400256267, 42.205947852990633 ], [ 8.779278800376536, 42.269023853569024 ], [ 8.816974599798147, 42.443626354383802 ], [ 8.864116699925868, 42.504272454231646 ], [ 8.944001200195387, 42.552970854711369 ], [ 9.028078099724658, 42.549312554708074 ], [ 9.130187999876474, 42.519756254622635 ], [ 9.094768499666809, 42.465339654287824 ], [ 9.125186899655905, 42.439105954371414 ], [ 9.084488899743036, 42.379184654134917 ], [ 9.137806899768742, 42.350238753601026 ], [ 9.105699500131953, 42.291408453317011 ], [ 9.156110799573964, 42.275119753396446 ], [ 9.160024599655729, 42.261302853617849 ], [ 9.143025400302095, 42.144157353241326 ] ] ] ] } },
{ "type": "Feature", "properties": { "id": "FR-07", "elevation": "low_high", "threshold": null, "elevation line_visualization": 0 }, "geometry": { "type": "MultiPolygon", "coordinates": [ [ [ [ 5.592837524515785, 45.291601844980548 ], [ 5.600157194077137, 45.344301148279619 ], [ 5.767266604773036, 45.482197317943324 ], [ 5.787435213949924, 45.572138953431676 ], [ 5.891450119440736, 45.595172203191467 ], [ 5.997394486958807, 45.452825662825866 ], [ 5.965397441844903, 45.358783266791256 ], [ 5.915187093075318, 45.286407867716662 ], [ 5.837507519784471, 45.221108541836891 ], [ 5.729965975854861, 45.179890890726995 ], [ 5.7129651516833, 45.176831459607364 ], [ 5.592837524515785, 45.291601844980548 ] ] ] ] } },
{ "type": "Feature", "properties": { "id": "FR-11", "elevation": "low_high", "threshold": null, "elevation line_visualization": 0 }, "geometry": { "type": "MultiPolygon", "coordinates": [ [ [ [ 6.750763277345201, 45.143245895225192 ], [ 6.739209222517683, 45.137130041721512 ], [ 6.726944195160188, 45.138513462066342 ], [ 6.711540450606738, 45.144879714006443 ], [ 6.69170476878439, 45.139246573098525 ], [ 6.680339445506461, 45.140274661956191 ], [ 6.672573187380055, 45.124414686517959 ], [ 6.662694386352824, 45.120644039160993 ], [ 6.658708424893266, 45.122145131158561 ], [ 6.649118526552994, 45.114993460892379 ], [ 6.633063314772333, 45.115989599492963 ], [ 6.613341264541161, 45.239895424526729 ], [ 6.730505655466589, 45.243927984045804 ], [ 6.794975093663401, 45.295132161298554 ], [ 6.923044567478386, 45.304554876162122 ], [ 7.044186653629996, 45.385379946444964 ], [ 7.083077656207487, 45.469925155082755 ], [ 7.10402947017239, 45.467126484322733 ], [ 7.100027889705, 45.46445564645245 ], [ 7.100324950891332, 45.454420741953165 ], [ 7.11477800388803, 45.441475854325695 ], [ 7.115858032184449, 45.433896985961866 ], [ 7.122330091972605, 45.433103466480866 ], [ 7.135464401064231, 45.426928993378787 ], [ 7.152275626004837, 45.424242557487716 ], [ 7.160746881966221, 45.415042031865248 ], [ 7.184333777498054, 45.407558915339891 ], [ 7.185407091786067, 45.403457159663553 ], [ 7.178033996615114, 45.39668657415109 ], [ 7.175579315965268, 45.387773565902798 ], [ 7.160627257811407, 45.382755043880856 ], [ 7.156485179935244, 45.370907328547609 ], [ 7.161122059751351, 45.360879169301349 ], [ 7.15755211798136, 45.359946971455315 ], [ 7.157134873888084, 45.357175732023137 ], [ 7.152898932844503, 45.35691978551592 ], [ 7.151541626959228, 45.354058506667059 ], [ 7.138198881772248, 45.351555413234308 ], [ 7.132650092466811, 45.346052605160857 ], [ 7.130746441107201, 45.338426142514344 ], [ 7.134000462459763, 45.334609890124277 ], [ 7.132927633262049, 45.330075540783362 ], [ 7.124894271865682, 45.326765431064153 ], [ 7.112794252449497, 45.3306294756973 ], [ 7.106860195481633, 45.329843823187836 ], [ 7.112027994902019, 45.324172062483399 ], [ 7.109709616528566, 45.317931569465358 ], [ 7.117881483768673, 45.311533555015785 ], [ 7.120832661479421, 45.292802448128242 ], [ 7.12517772177886, 45.291470909804588 ], [ 7.128439400370914, 45.286164478436568 ], [ 7.13482681640143, 45.282439489481931 ], [ 7.133902501178053, 45.276545704381313 ], [ 7.129293381100817, 45.273078530164355 ], [ 7.131876543294194, 45.261338386484312 ], [ 7.13542488417488, 45.26020860650668 ], [ 7.136257285575008, 45.255902066361138 ], [ 7.129522659009098, 45.251220916327313 ], [ 7.129268659464195, 45.247468006449061 ], [ 7.125304588151476, 45.244224569458673 ], [ 7.110313961729199, 45.24668529894457 ], [ 7.105393277165393, 45.237138818146377 ], [ 7.09808736340127, 45.234589643415219 ], [ 7.095517126168231, 45.23082669746325 ], [ 7.083283964748841, 45.224410349536775 ], [ 7.082001160641644, 45.216043592467926 ], [ 7.067017172769318, 45.210606511009345 ], [ 7.05134218640741, 45.225520776823309 ], [ 7.046843131512077, 45.226258260726695 ], [ 7.041756146331271, 45.225405897423045 ], [ 7.027600129368087, 45.215885365010273 ], [ 7.023319623801599, 45.218652116912146 ], [ 7.019706376946696, 45.214720563082096 ], [ 7.006802251265159, 45.217018830527245 ], [ 7.002719837693549, 45.220362910942676 ], [ 6.998455154154137, 45.215380672032694 ], [ 6.994580961082246, 45.215889702268818 ], [ 6.993136809668544, 45.210521017754346 ], [ 6.986198680554804, 45.211685532314149 ], [ 6.977122109212254, 45.20827032737305 ], [ 6.965586550696405, 45.208153956197592 ], [ 6.960728433792137, 45.203499918435277 ], [ 6.96785690154154, 45.196335698792716 ], [ 6.954158063277599, 45.190686086663277 ], [ 6.954313432295885, 45.179709302918866 ], [ 6.95016223292633, 45.18044086084123 ], [ 6.942746218047754, 45.176054786165672 ], [ 6.947338728275357, 45.170604144965928 ], [ 6.930933854456856, 45.17115463426903 ], [ 6.918685758545854, 45.167007115180191 ], [ 6.913731043104138, 45.168721233216012 ], [ 6.909864117402865, 45.165844152495133 ], [ 6.89325013644751, 45.169131084663057 ], [ 6.891954928402859, 45.162420605613534 ], [ 6.883998425065589, 45.156580795051589 ], [ 6.889995244627428, 45.150111666492606 ], [ 6.889105448067116, 45.146746561256734 ], [ 6.898284263858672, 45.141763837727453 ], [ 6.893260343105765, 45.136835882270823 ], [ 6.880229544189389, 45.134801521917616 ], [ 6.874045964880023, 45.136215068757764 ], [ 6.8672064968356, 45.131815974717064 ], [ 6.847769816119772, 45.127354071090814 ], [ 6.845294109502364, 45.130692252009922 ], [ 6.846975213131815, 45.135743670266443 ], [ 6.836078850856392, 45.135235765284776 ], [ 6.829084729751002, 45.141100286367546 ], [ 6.813156259477126, 45.148519630554553 ], [ 6.800675640943061, 45.150526858838717 ], [ 6.795595719215333, 45.153391528016954 ], [ 6.787164976374946, 45.1535684376083 ], [ 6.779157025623041, 45.158276747878787 ], [ 6.768179002895038, 45.159939286889454 ], [ 6.760883250873414, 45.152767871667542 ], [ 6.754442165894575, 45.150104778662154 ], [ 6.750763277345201, 45.143245895225192 ] ] ] ] } },
{ "type": "Feature", "properties": { "id": "FR-04", "elevation": "low_high", "threshold": null, "elevation line_visualization": 0 }, "geometry": { "type": "MultiPolygon", "coordinates": [ [ [ [ 6.34498502034689, 45.658699587016898 ], [ 6.284320475573437, 45.603844720553873 ], [ 6.16216494369193, 45.539506516883762 ], [ 6.07760041034299, 45.482393287223452 ], [ 5.997394486958807, 45.452825662825866 ], [ 5.891450119440736, 45.595172203191467 ], [ 5.920343574844499, 45.664179217943598 ], [ 6.027009886837567, 45.770772268585972 ], [ 6.075579700278475, 45.851139347973984 ], [ 6.17095213649861, 45.87002992870287 ], [ 6.212911025465619, 45.781084093177668 ], [ 6.34498502034689, 45.658699587016898 ] ] ] ] } },
{ "type": "Feature", "properties": { "id": "FR-19", "elevation": "low_high", "threshold": null, "elevation line_visualization": 0 }, "geometry": { "type": "MultiPolygon", "coordinates": [ [ [ [ 6.222943563107786, 44.550494123852381 ], [ 6.182704726831619, 44.584177136882587 ], [ 6.056865902293752, 44.697684651257561 ], [ 5.993173765361481, 44.796284940913132 ], [ 6.079048004243689, 44.779329331580556 ], [ 6.146430192855493, 44.810914799743216 ], [ 6.267399648216465, 44.830419521140819 ], [ 6.319241514204686, 44.877068962048909 ], [ 6.436686212779787, 44.618399380595292 ], [ 6.311446564539658, 44.592424976421398 ], [ 6.222943563107786, 44.550494123852381 ] ] ] ] } },
{ "type": "Feature", "properties": { "id": "FR-12", "elevation": "low_high", "threshold": null, "elevation line_visualization": 0 }, "geometry": { "type": "MultiPolygon", "coordinates": [ [ [ [ 6.426738126929661, 45.033755525741313 ], [ 6.424521814188071, 45.025988845125063 ], [ 6.102510681289499, 45.043019784987244 ], [ 6.04510932407844, 45.027169678292047 ], [ 5.998092907555513, 45.114219429066004 ], [ 6.022143626135233, 45.114848929070369 ], [ 6.048808673768065, 45.144355273356929 ], [ 6.028864140156553, 45.19433837407437 ], [ 6.107703972295123, 45.20538586486542 ], [ 6.199745030958302, 45.279645906752869 ], [ 6.213480113367067, 45.209563388566842 ], [ 6.257082146267432, 45.171173106789489 ], [ 6.387491446907367, 45.140740596998562 ], [ 6.496592514018252, 45.156278038702943 ], [ 6.426738126929661, 45.033755525741313 ] ] ] ] } },
{ "type": "Feature", "properties": { "id": "FR-64", "elevation": "low_high", "threshold": null, "elevation line_visualization": 0 }, "geometry": { "type": "MultiPolygon", "coordinates": [ [ [ [ -0.680212003266863, 43.064973889410275 ], [ -0.697617908692107, 43.006816210287198 ], [ -0.751733064700546, 42.96170617474769 ], [ -0.754097282886505, 42.964370727539198 ], [ -0.756201335505631, 42.963784725340801 ], [ -0.788750052451974, 42.954719543457003 ], [ -0.818611145019474, 42.9461059570313 ], [ -0.940277814864999, 42.9541625976563 ], [ -0.941081343472929, 42.954493181035318 ], [ -0.956873498138755, 42.960990303601832 ], [ -1.014704078247768, 42.984172696614586 ], [ -1.045146628362899, 42.995816886426724 ], [ -1.07277798652649, 43.006385803222699 ], [ -1.10110986998006, 43.015131640984841 ], [ -1.112392705157402, 43.021657629057209 ], [ -1.116200733832189, 43.019790076318223 ], [ -1.191818644757596, 43.043132752492561 ], [ -1.212385128660712, 43.051416409276491 ], [ -1.218424653340034, 43.050458769041377 ], [ -1.3002779483794, 43.071662902832003 ], [ -1.304365034267034, 43.068640293374962 ], [ -1.308450275020322, 43.07103015993723 ], [ -1.293543504383663, 43.099773921379992 ], [ -1.248635124008202, 43.126732345218691 ], [ -1.166095225429076, 43.130887013348328 ], [ -1.146107368179087, 43.119653105895907 ], [ -1.042758144710683, 43.157136254445476 ], [ -0.91803529778295, 43.126986382396574 ], [ -0.833747247333117, 43.044366337136566 ], [ -0.778582153779866, 43.034849225126962 ], [ -0.680212003266863, 43.064973889410275 ] ] ] ] } },
{ "type": "Feature", "properties": { "id": "FR-72", "elevation": "low_high", "threshold": null, "elevation line_visualization": 0 }, "geometry": { "type": "MultiPolygon", "coordinates": [ [ [ [ 1.604479877292797, 42.835783624484968 ], [ 1.666611481281958, 42.904309601947439 ], [ 1.75849485175088, 42.900846421922473 ], [ 1.844560477229576, 42.854243903681116 ], [ 1.912550052962093, 42.843971538108157 ], [ 1.99569862141336, 42.782900143866726 ], [ 2.08558338609082, 42.744590560463983 ], [ 2.091406434161037, 42.665258167182778 ], [ 1.997941215146082, 42.660915717357433 ], [ 1.973264490234523, 42.618395968826881 ], [ 1.933605094374401, 42.60559162824746 ], [ 1.900287490754976, 42.614920073556355 ], [ 1.874468798149488, 42.581429505436191 ], [ 1.786109088587172, 42.573638922008378 ], [ 1.835979275495283, 42.657463478326513 ], [ 1.821260048464753, 42.722479552080308 ], [ 1.652540157793044, 42.795265053806503 ], [ 1.604479877292797, 42.835783624484968 ] ] ] ] } },
{ "type": "Feature", "properties": { "id": "FR-13", "elevation": "low_high", "threshold": null, "elevation line_visualization": 0 }, "geometry": { "type": "MultiPolygon", "coordinates": [ [ [ [ 6.623751811623358, 44.88647717621317 ], [ 6.426738126929661, 45.033755525741313 ], [ 6.496592514018252, 45.156278038702943 ], [ 6.584727889127169, 45.147779473536119 ], [ 6.626592715644857, 45.102873256697727 ], [ 6.631579229650995, 45.098770081139399 ], [ 6.631487398472777, 45.095718204121262 ], [ 6.641078711659645, 45.089682553116361 ], [ 6.641518090241502, 45.086683853126623 ], [ 6.647863392353192, 45.084479854562957 ], [ 6.645552981137963, 45.075591633017453 ], [ 6.654953864060998, 45.071118364628845 ], [ 6.662025075889166, 45.072026026388961 ], [ 6.664155135039697, 45.057522798273773 ], [ 6.658096140382153, 45.052695972974767 ], [ 6.670167221469774, 45.044187553094993 ], [ 6.670631716048678, 45.041917206346717 ], [ 6.666182496092056, 45.040670585724364 ], [ 6.664466037467974, 45.034268238052078 ], [ 6.667922318998347, 45.029224715560581 ], [ 6.671127894207644, 45.029091489489595 ], [ 6.673358550297002, 45.0200815578686 ], [ 6.68327587018531, 45.022420872608365 ], [ 6.693232507536945, 45.02066346780019 ], [ 6.722934740959304, 45.022137011554719 ], [ 6.746178885192834, 45.013981830594084 ], [ 6.745133605528237, 45.01088023323188 ], [ 6.751752686290721, 44.996919635623833 ], [ 6.748905985342465, 44.995817849396161 ], [ 6.749962296318751, 44.97790187944949 ], [ 6.762941166323515, 44.971851390251203 ], [ 6.765663788371449, 44.963062661364141 ], [ 6.758237458138437, 44.948207965416316 ], [ 6.74890985258977, 44.94008084254105 ], [ 6.74928382932738, 44.936358364536872 ], [ 6.752566557243188, 44.938184061723774 ], [ 6.757388869995211, 44.937379232649491 ], [ 6.761045164118523, 44.930963585552632 ], [ 6.754174676349061, 44.932097689642603 ], [ 6.748944610204731, 44.922988433808086 ], [ 6.751865370959959, 44.919396835741466 ], [ 6.751699816964105, 44.917029810913682 ], [ 6.623751811623358, 44.88647717621317 ] ] ] ] } },
{ "type": "Feature", "properties": { "id": "FR-01", "elevation": "low_high", "threshold": null, "elevation line_visualization": 0 }, "geometry": { "type": "MultiPolygon", "coordinates": [ [ [ [ 6.802730635842051, 46.389930025578082 ], [ 6.803042284165443, 46.389174055592136 ], [ 6.8022, 46.3874 ], [ 6.8058, 46.38 ], [ 6.8009, 46.3751 ], [ 6.7918, 46.3676 ], [ 6.7798, 46.366 ], [ 6.7726, 46.3618 ], [ 6.7708, 46.3547 ], [ 6.7747, 46.3473 ], [ 6.7791, 46.3441 ], [ 6.7854, 46.3331 ], [ 6.7969, 46.3317 ], [ 6.8006, 46.3205 ], [ 6.8079, 46.32 ], [ 6.8193, 46.3153 ], [ 6.8214, 46.3131 ], [ 6.8248, 46.3119 ], [ 6.83, 46.3061 ], [ 6.8282, 46.3028 ], [ 6.8287, 46.3011 ], [ 6.8305, 46.2998 ], [ 6.8343, 46.2998 ], [ 6.836, 46.2975 ], [ 6.8398, 46.295 ], [ 6.8435, 46.2943 ], [ 6.8453, 46.2912 ], [ 6.8471, 46.29 ], [ 6.8509, 46.2902 ], [ 6.8545, 46.2918 ], [ 6.8589, 46.2904 ], [ 6.8642, 46.2803 ], [ 6.8594, 46.2735 ], [ 6.8594, 46.2654 ], [ 6.8545, 46.2589 ], [ 6.8534, 46.2534 ], [ 6.8401, 46.2477 ], [ 6.8323, 46.236 ], [ 6.8207, 46.23 ], [ 6.8217, 46.2235 ], [ 6.8197, 46.2213 ], [ 6.8166, 46.2199 ], [ 6.8133, 46.2151 ], [ 6.8101, 46.2139 ], [ 6.8101, 46.2122 ], [ 6.8084, 46.2111 ], [ 6.8036, 46.2031 ], [ 6.807, 46.1965 ], [ 6.8124, 46.1814 ], [ 6.8073, 46.1778 ], [ 6.8056, 46.1728 ], [ 6.7923, 46.1632 ], [ 6.7928, 46.1598 ], [ 6.7904, 46.1543 ], [ 6.7983, 46.1371 ], [ 6.8072, 46.1358 ], [ 6.8152, 46.1293 ], [ 6.8193, 46.1311 ], [ 6.8391, 46.1326 ], [ 6.8415, 46.132 ], [ 6.8445, 46.1287 ], [ 6.8527, 46.1265 ], [ 6.8757, 46.1255 ], [ 6.8824, 46.1234 ], [ 6.89, 46.125 ], [ 6.8995, 46.1241 ], [ 6.894, 46.1135 ], [ 6.8944, 46.1074 ], [ 6.8935, 46.1062 ], [ 6.8836, 46.0949 ], [ 6.8912, 46.0848 ], [ 6.889, 46.0784 ], [ 6.8915, 46.0739 ], [ 6.8879, 46.0732 ], [ 6.8843, 46.0706 ], [ 6.8808, 46.0695 ], [ 6.8731, 46.0556 ], [ 6.8726, 46.052 ], [ 6.8779, 46.0468 ], [ 6.878278745342667, 46.046041586152604 ], [ 6.87818450617571, 46.044986964599808 ], [ 6.808698383580001, 45.941149254484841 ], [ 6.72931343325253, 45.935228581434444 ], [ 6.691005493621562, 45.907137398402497 ], [ 6.665553221913537, 45.915460867337622 ], [ 6.603966643249867, 46.029815909784759 ], [ 6.564169831635462, 46.067191720618617 ], [ 6.33887517347582, 46.153897520545961 ], [ 6.319351890382897, 46.186669094441449 ], [ 6.325514860868119, 46.225284814874655 ], [ 6.597894334952687, 46.385482213705082 ], [ 6.713303526937136, 46.404362601026961 ], [ 6.802730635842051, 46.389930025578082 ] ] ] ] } },
{ "type": "Feature", "properties": { "id": "FR-02", "elevation": "low_high", "threshold": null, "elevation line_visualization": 0 }, "geometry": { "type": "MultiPolygon", "coordinates": [ [ [ [ 6.355231639063152, 45.667248209565713 ], [ 6.34498502034689, 45.658699587016898 ], [ 6.212911025465619, 45.781084093177668 ], [ 6.17095213649861, 45.87002992870287 ], [ 6.172627642726917, 45.938548575457133 ], [ 6.194341316934342, 45.977488537346602 ], [ 6.233854335572305, 46.001028896881323 ], [ 6.399216496461365, 46.05387784280493 ], [ 6.564169831635462, 46.067191720618617 ], [ 6.603966643249867, 46.029815909784759 ], [ 6.665553221913537, 45.915460867337622 ], [ 6.599120115344656, 45.852156557143765 ], [ 6.515663058340839, 45.819849936555272 ], [ 6.470919232888644, 45.764136830186239 ], [ 6.429085305804993, 45.753417491799269 ], [ 6.355231639063152, 45.667248209565713 ] ] ] ] } },
{ "type": "Feature", "properties": { "id": "FR-65", "elevation": "low_high", "threshold": null, "elevation line_visualization": 0 }, "geometry": { "type": "MultiPolygon", "coordinates": [ [ [ [ -0.680212003266863, 43.064973889410275 ], [ -0.648142369276566, 43.106629550369199 ], [ -0.567652613109258, 43.117341541224214 ], [ -0.417812819954244, 43.083709095364469 ], [ -0.266405266003084, 43.074284201382767 ], [ -0.260126596955886, 43.037690679854578 ], [ -0.261444917444792, 43.012355161303859 ], [ -0.292237793941526, 42.992172366294106 ], [ -0.27922689360213, 42.939077919317732 ], [ -0.326858108028104, 42.916893394105891 ], [ -0.308739304542542, 42.848381042480597 ], [ -0.31784725189209, 42.832355499267599 ], [ -0.391944468021393, 42.79638671875 ], [ -0.445374886841458, 42.791043987781116 ], [ -0.555833399295807, 42.779998779296903 ], [ -0.562804631152381, 42.784555512935007 ], [ -0.566717199713329, 42.78711295660348 ], [ -0.595745949368482, 42.806087548576201 ], [ -0.600501163917743, 42.809195786336588 ], [ -0.715833425521851, 42.8845825195313 ], [ -0.720092429133903, 42.889320912689378 ], [ -0.722887640521299, 42.892430750510592 ], [ -0.730625092983132, 42.901039123535298 ], [ -0.725563806589098, 42.913449576071336 ], [ -0.723322510719242, 42.918945312500099 ], [ -0.72347229719162, 42.929855346679801 ], [ -0.742719629456917, 42.951547732442286 ], [ -0.751733064700546, 42.96170617474769 ], [ -0.697617908692107, 43.006816210287198 ], [ -0.680212003266863, 43.064973889410275 ] ] ] ] } },
{ "type": "Feature", "properties": { "id": "FR-09", "elevation": "low_high", "threshold": null, "elevation line_visualization": 0 }, "geometry": { "type": "MultiPolygon", "coordinates": [ [ [ [ 6.496592514018252, 45.156278038702943 ], [ 6.387491446907367, 45.140740596998562 ], [ 6.257082146267432, 45.171173106789489 ], [ 6.213480113367067, 45.209563388566842 ], [ 6.199745030958302, 45.279645906752869 ], [ 6.227210713246778, 45.513147616284485 ], [ 6.16216494369193, 45.539506516883762 ], [ 6.284320475573437, 45.603844720553873 ], [ 6.34498502034689, 45.658699587016898 ], [ 6.373557532490278, 45.626370595697345 ], [ 6.349851816882578, 45.39991061827822 ], [ 6.506452871921692, 45.269149378629656 ], [ 6.613341264541161, 45.239895424526729 ], [ 6.633063314772333, 45.115989599492963 ], [ 6.632870733043418, 45.110767656906198 ], [ 6.626592715644857, 45.102873256697727 ], [ 6.584727889127169, 45.147779473536119 ], [ 6.496592514018252, 45.156278038702943 ] ] ] ] } },
{ "type": "Feature", "properties": { "id": "FR-17", "elevation": "low_high", "threshold": null, "elevation line_visualization": 0 }, "geometry": { "type": "MultiPolygon", "coordinates": [ [ [ [ 6.568559855695826, 44.754940781483334 ], [ 6.568867078808847, 44.844428245087251 ], [ 6.623751811623358, 44.88647717621317 ], [ 6.751699816964105, 44.917029810913682 ], [ 6.750937822699862, 44.906132737180258 ], [ 6.760644944896538, 44.902807864561765 ], [ 6.771717799175831, 44.903453383079942 ], [ 6.776757628194102, 44.900340453495602 ], [ 6.779647095238077, 44.893166214190977 ], [ 6.783833260631755, 44.89368535946366 ], [ 6.784740764782917, 44.888309472316976 ], [ 6.801658575730301, 44.891071314870516 ], [ 6.800035032550998, 44.887215739748903 ], [ 6.802630408238978, 44.879820556512513 ], [ 6.810048893484573, 44.875039577547803 ], [ 6.830631651128109, 44.867840421434444 ], [ 6.833152413646905, 44.863939330808222 ], [ 6.841043931059884, 44.859764328592327 ], [ 6.854548884139388, 44.858050967231108 ], [ 6.863517303711621, 44.850475065832867 ], [ 6.918358955937086, 44.849057192788081 ], [ 6.931330834353974, 44.863741395975858 ], [ 6.965104378171019, 44.849316816630285 ], [ 6.998915674586216, 44.849060704522437 ], [ 6.99891874053631, 44.842724803446629 ], [ 7.006501856430766, 44.839915251258134 ], [ 7.009371578504805, 44.826368561183031 ], [ 7.024154100310055, 44.822995316022862 ], [ 7.019770525641126, 44.819163242741602 ], [ 7.019183783826781, 44.812756771531475 ], [ 7.009364056910941, 44.801903428044433 ], [ 7.009497540273943, 44.798514634308411 ], [ 7.001194254897661, 44.79591469781122 ], [ 6.999347156078456, 44.789827127476187 ], [ 7.01110438556873, 44.783906135643697 ], [ 7.024353836221887, 44.768996271712439 ], [ 7.021184022045743, 44.765678761678068 ], [ 7.024918633990502, 44.759842388212093 ], [ 7.021595840314683, 44.749569220311088 ], [ 7.026302691704939, 44.745171358360871 ], [ 7.023326768103049, 44.739916658368159 ], [ 7.029604617516651, 44.734129389176992 ], [ 7.029614038149046, 44.729972496355501 ], [ 7.041825995734481, 44.718947139186739 ], [ 7.065237143965836, 44.713663634538314 ], [ 7.067201570846009, 44.70302047869766 ], [ 7.070725424550383, 44.701124007801646 ], [ 7.075252542815175, 44.690387406449183 ], [ 7.076267695680113, 44.677718919824862 ], [ 7.048497886655896, 44.683052908408591 ], [ 7.037854573507813, 44.68919604190468 ], [ 7.028724866816214, 44.691679512806267 ], [ 7.0113121569108, 44.687949590609016 ], [ 7.008119267709946, 44.68952120769741 ], [ 7.002815899038432, 44.685379427200338 ], [ 6.999107783801326, 44.690651380190182 ], [ 6.991436680619699, 44.689859255465421 ], [ 6.977160526563691, 44.683480664869734 ], [ 6.970734431772017, 44.677907706673395 ], [ 6.962751542219904, 44.678907175900228 ], [ 6.95788272638057, 44.670951553136483 ], [ 6.958584324092205, 44.666194247454754 ], [ 6.948154236856567, 44.653739924367763 ], [ 6.860052876442091, 44.655807497203433 ], [ 6.618781466186568, 44.676153678366404 ], [ 6.568559855695826, 44.754940781483334 ] ] ] ] } },
{ "type": "Feature", "properties": { "id": "FR-20", "elevation": "low_high", "threshold": null, "elevation line_visualization": 0 }, "geometry": { "type": "MultiPolygon", "coordinates": [ [ [ [ 6.259063787613025, 44.454873016338361 ], [ 6.222943563107786, 44.550494123852381 ], [ 6.311446564539658, 44.592424976421398 ], [ 6.436686212779787, 44.618399380595292 ], [ 6.568559855695826, 44.754940781483334 ], [ 6.618781466186568, 44.676153678366404 ], [ 6.860052876442091, 44.655807497203433 ], [ 6.638171356034541, 44.567215591941 ], [ 6.577398119533429, 44.453772066360351 ], [ 6.557885249564741, 44.445269134746255 ], [ 6.33693266662561, 44.476151380641056 ], [ 6.259063787613025, 44.454873016338361 ] ] ] ] } },
{ "type": "Feature", "properties": { "id": "FR-14", "elevation": "low_high", "threshold": null, "elevation line_visualization": 0 }, "geometry": { "type": "MultiPolygon", "coordinates": [ [ [ [ 5.729965975854861, 45.179890890726995 ], [ 5.715197881681317, 45.119810297987513 ], [ 5.653211333236066, 45.033038528103788 ], [ 5.621331685532766, 44.878126180013645 ], [ 5.622327202386754, 44.795886495210283 ], [ 5.525748414814436, 44.721943217358785 ], [ 5.466555073987647, 44.709881043454928 ], [ 5.408761153810975, 44.816434911187216 ], [ 5.327435772456104, 44.82480377179342 ], [ 5.321597319411565, 44.858921856887754 ], [ 5.256885707613582, 44.852917242279801 ], [ 5.252819395608095, 44.869316340970848 ], [ 5.264128077243122, 44.956618114718687 ], [ 5.315039694737612, 45.092785498925934 ], [ 5.360673284287849, 45.139732455662042 ], [ 5.464223378835251, 45.198955200416201 ], [ 5.542182669483855, 45.281923853308363 ], [ 5.592837524515785, 45.291601844980548 ], [ 5.7129651516833, 45.176831459607364 ], [ 5.729965975854861, 45.179890890726995 ] ] ] ] } },
{ "type": "Feature", "properties": { "id": "FR-70", "elevation": "low_high", "threshold": null, "elevation line_visualization": 0 }, "geometry": { "type": "MultiPolygon", "coordinates": [ [ [ [ 1.786109088587172, 42.573638922008378 ], [ 1.786100375900224, 42.573660778137295 ], [ 1.780340351412428, 42.571446987113745 ], [ 1.774455404484301, 42.577784637289064 ], [ 1.7386109828949, 42.616386413574297 ], [ 1.69833326339727, 42.626106262207003 ], [ 1.55972218513489, 42.6559677124025 ], [ 1.494473274815522, 42.651016446556199 ], [ 1.48652768135071, 42.6504135131837 ], [ 1.480065175838852, 42.642716284250028 ], [ 1.447396185706277, 42.603805571428047 ], [ 1.44583320617687, 42.601943969726598 ], [ 1.4172220230102, 42.650833129882798 ], [ 1.39027762413031, 42.688331604003999 ], [ 1.381225434271608, 42.696170004455503 ], [ 1.445221384494757, 42.728946887538626 ], [ 1.465752800048164, 42.758750606570928 ], [ 1.570369228247329, 42.791213464708136 ], [ 1.604479877292797, 42.835783624484968 ], [ 1.652540157793044, 42.795265053806503 ], [ 1.821260048464753, 42.722479552080308 ], [ 1.835979275495283, 42.657463478326513 ], [ 1.786109088587172, 42.573638922008378 ] ] ] ] } },
{ "type": "Feature", "properties": { "id": "FR-16", "elevation": "low_high", "threshold": null, "elevation line_visualization": 0 }, "geometry": { "type": "MultiPolygon", "coordinates": [ [ [ [ 6.424521814188071, 45.025988845125063 ], [ 6.426738126929661, 45.033755525741313 ], [ 6.623751811623358, 44.88647717621317 ], [ 6.568867078808847, 44.844428245087251 ], [ 6.568559855695826, 44.754940781483334 ], [ 6.436686212779787, 44.618399380595292 ], [ 6.319241514204686, 44.877068962048909 ], [ 6.424521814188071, 45.025988845125063 ] ] ] ] } },
{ "type": "Feature", "properties": { "id": "FR-03", "elevation": "low_high", "threshold": null, "elevation line_visualization": 0 }, "geometry": { "type": "MultiPolygon", "coordinates": [ [ [ [ 6.87818450617571, 46.044986964599808 ], [ 6.878278745342667, 46.046041586152604 ], [ 6.8779, 46.0468 ], [ 6.8903, 46.0433 ], [ 6.8948, 46.0478 ], [ 6.9091, 46.0512 ], [ 6.9235, 46.064 ], [ 6.933, 46.0661 ], [ 6.9368, 46.0639 ], [ 6.9363, 46.0553 ], [ 6.943, 46.0514 ], [ 6.9497, 46.0517 ], [ 6.9629, 46.0305 ], [ 6.9669, 46.0303 ], [ 6.9803, 46.0202 ], [ 6.9863, 46.0046 ], [ 6.9971, 45.9999 ], [ 7.0051, 46.0007 ], [ 7.0088, 45.9985 ], [ 7.0126, 45.9879 ], [ 7.0222, 45.9805 ], [ 7.0217, 45.9772 ], [ 7.0112, 45.9731 ], [ 7.0097, 45.9692 ], [ 7.0189, 45.9602 ], [ 7.0367, 45.9545 ], [ 7.0361, 45.9383 ], [ 7.0449, 45.9224 ], [ 7.040786177826802, 45.922716757652836 ], [ 7.018716994950621, 45.914627190650641 ], [ 7.003633821392841, 45.899464495298091 ], [ 7.003836819087501, 45.890790988311515 ], [ 7.006662393456885, 45.887530325035932 ], [ 6.998524177107316, 45.873244352301526 ], [ 6.989929456693289, 45.868161983024685 ], [ 6.974884871166827, 45.868314591626969 ], [ 6.9530823918103, 45.861213823992543 ], [ 6.942039515210347, 45.848599143763963 ], [ 6.934516723882143, 45.846805417923193 ], [ 6.922710928772623, 45.847357881619381 ], [ 6.914903298735828, 45.841696399025864 ], [ 6.895893835209518, 45.842463666616737 ], [ 6.888502015554799, 45.845714666935159 ], [ 6.873918811046502, 45.845072459476626 ], [ 6.864178320030276, 45.832583459337464 ], [ 6.849607935379389, 45.83866386074795 ], [ 6.836581071982296, 45.839166871209862 ], [ 6.818191348983976, 45.836001738750433 ], [ 6.817709203408072, 45.83179539399768 ], [ 6.807562522068153, 45.818738443267364 ], [ 6.812344747500601, 45.806057050487986 ], [ 6.812356563041558, 45.795893308841222 ], [ 6.805226843040634, 45.792631670862136 ], [ 6.801187578247072, 45.780998578127189 ], [ 6.738830809802593, 45.749810249055514 ], [ 6.660836375050897, 45.792533884797827 ], [ 6.515663058340839, 45.819849936555272 ], [ 6.599120115344656, 45.852156557143765 ], [ 6.665553221913537, 45.915460867337622 ], [ 6.691005493621562, 45.907137398402497 ], [ 6.72931343325253, 45.935228581434444 ], [ 6.808698383580001, 45.941149254484841 ], [ 6.87818450617571, 46.044986964599808 ] ] ] ] } },
{ "type": "Feature", "properties": { "id": "FR-15", "elevation": "low_high", "threshold": null, "elevation line_visualization": 0 }, "geometry": { "type": "MultiPolygon", "coordinates": [ [ [ [ 6.424521814188071, 45.025988845125063 ], [ 6.319241514204686, 44.877068962048909 ], [ 6.267399648216465, 44.830419521140819 ], [ 6.146430192855493, 44.810914799743216 ], [ 6.079048004243689, 44.779329331580556 ], [ 5.993173765361481, 44.796284940913132 ], [ 5.959401281595168, 44.817166122215347 ], [ 5.813613363411561, 44.854087205710961 ], [ 5.621331685532766, 44.878126180013645 ], [ 5.653211333236066, 45.033038528103788 ], [ 5.715197881681317, 45.119810297987513 ], [ 5.762620400711456, 45.046623027045399 ], [ 5.826677010107532, 45.040805926548614 ], [ 5.95168393401527, 45.112807832124297 ], [ 5.998092907555513, 45.114219429066004 ], [ 6.04510932407844, 45.027169678292047 ], [ 6.102510681289499, 45.043019784987244 ], [ 6.424521814188071, 45.025988845125063 ] ] ] ] } },
{ "type": "Feature", "properties": { "id": "FR-73", "elevation": "low_high", "threshold": null, "elevation line_visualization": 0 }, "geometry": { "type": "MultiPolygon", "coordinates": [ [ [ [ 1.941154201857202, 42.446718561283561 ], [ 1.901210494883118, 42.449108289825396 ], [ 1.85138869285589, 42.4699935913087 ], [ 1.84838153313953, 42.470765864102468 ], [ 1.847920877702769, 42.47101344286807 ], [ 1.847892477486472, 42.470891459152654 ], [ 1.77999997138988, 42.488327026367102 ], [ 1.773791693265152, 42.490651235938152 ], [ 1.72571947333609, 42.508648160595222 ], [ 1.72361087799072, 42.509437561035199 ], [ 1.724039121865982, 42.51996240511285 ], [ 1.724055664093453, 42.520368959356546 ], [ 1.72409701347357, 42.521385192871101 ], [ 1.74187481403357, 42.560623168945298 ], [ 1.77138876914989, 42.5711059570312 ], [ 1.777648753143407, 42.570412506079926 ], [ 1.78171968460083, 42.569961547851499 ], [ 1.780340351412428, 42.571446987113745 ], [ 1.786109088587172, 42.573638922008378 ], [ 1.874468798149488, 42.581429505436191 ], [ 1.900287490754976, 42.614920073556355 ], [ 1.933605094374401, 42.60559162824746 ], [ 1.973264490234523, 42.618395968826881 ], [ 1.997941215146082, 42.660915717357433 ], [ 2.091406434161037, 42.665258167182778 ], [ 2.132914403428563, 42.715981304786979 ], [ 2.168919522743211, 42.73367739371249 ], [ 2.382671148313762, 42.649783990100147 ], [ 2.406713150248474, 42.627483955615901 ], [ 2.409597988266724, 42.575670109412208 ], [ 1.941154201857202, 42.446718561283561 ] ] ] ] } },
{ "type": "Feature", "properties": { "id": "FR-08", "elevation": "low_high", "threshold": null, "elevation line_visualization": 0 }, "geometry": { "type": "MultiPolygon", "coordinates": [ [ [ [ 5.729965975854861, 45.179890890726995 ], [ 5.837507519784471, 45.221108541836891 ], [ 5.915187093075318, 45.286407867716662 ], [ 5.965397441844903, 45.358783266791256 ], [ 5.997394486958807, 45.452825662825866 ], [ 6.07760041034299, 45.482393287223452 ], [ 6.16216494369193, 45.539506516883762 ], [ 6.227210713246778, 45.513147616284485 ], [ 6.199745030958302, 45.279645906752869 ], [ 6.107703972295123, 45.20538586486542 ], [ 6.028864140156553, 45.19433837407437 ], [ 6.048808673768065, 45.144355273356929 ], [ 6.022143626135233, 45.114848929070369 ], [ 5.998092907555513, 45.114219429066004 ], [ 5.95168393401527, 45.112807832124297 ], [ 5.826677010107532, 45.040805926548614 ], [ 5.762620400711456, 45.046623027045399 ], [ 5.715197881681317, 45.119810297987513 ], [ 5.729965975854861, 45.179890890726995 ] ] ] ] } },
{ "type": "Feature", "properties": { "id": "FR-23", "elevation": "low_high", "threshold": null, "elevation line_visualization": 0 }, "geometry": { "type": "MultiPolygon", "coordinates": [ [ [ [ 6.887392928555572, 44.361615975074024 ], [ 6.900283294741902, 44.357466304812981 ], [ 6.905982961489204, 44.358279951056204 ], [ 6.910257283951571, 44.353859850656264 ], [ 6.921834248513833, 44.351644967309184 ], [ 6.921435601343569, 44.343225528524258 ], [ 6.92708630990786, 44.332714413013925 ], [ 6.935133537698957, 44.330089918778711 ], [ 6.938286959417801, 44.32486388544401 ], [ 6.94305657160537, 44.323937967500733 ], [ 6.945295971895676, 44.321085418191871 ], [ 6.952610265144758, 44.319520681219878 ], [ 6.954529296560341, 44.314866553447594 ], [ 6.959942745685074, 44.311594887972703 ], [ 6.956963405790155, 44.29562673784659 ], [ 6.962741976060446, 44.293523924900207 ], [ 6.966520754574465, 44.295495254447488 ], [ 6.97104073392769, 44.293721275140278 ], [ 6.968784342902116, 44.286673665292533 ], [ 6.97164716501645, 44.283927323913261 ], [ 6.981501998991889, 44.286995373068756 ], [ 6.995570980882125, 44.280313777998153 ], [ 6.997432898310283, 44.273262094008963 ], [ 6.995339059231954, 44.265056772692368 ], [ 6.998429477608368, 44.259009380272246 ], [ 6.996489684329935, 44.251814495878833 ], [ 7.008501768561281, 44.235420820136682 ], [ 7.019318397270432, 44.23228839542972 ], [ 7.018863791346142, 44.226930937557867 ], [ 7.03363377536497, 44.223274317810777 ], [ 7.056056277320508, 44.229452323634249 ], [ 7.06366691310371, 44.227133408191683 ], [ 7.0686151786417, 44.232526866641962 ], [ 7.076693442327549, 44.232201630813435 ], [ 7.086597856120158, 44.228928587008305 ], [ 7.091747287687927, 44.220732861053655 ], [ 7.100107360963221, 44.22131853647825 ], [ 7.114596498386558, 44.217337099990864 ], [ 7.143002599397852, 44.200254180730433 ], [ 7.148261189747384, 44.200245142707722 ], [ 7.16337625259946, 44.208139360688847 ], [ 7.167370671697424, 44.202461800857897 ], [ 7.174877143331858, 44.200399651230775 ], [ 7.177611701294992, 44.197205383959506 ], [ 7.187175598797677, 44.201216995909618 ], [ 7.193689193989628, 44.187083009907568 ], [ 7.201114418396513, 44.186930996705875 ], [ 7.204932955446669, 44.179172813317294 ], [ 7.214186491306929, 44.175000617962716 ], [ 7.218885203960682, 44.168672293976698 ], [ 7.228984513542395, 44.168525144582951 ], [ 7.235182999495597, 44.175427410743147 ], [ 7.241815657395311, 44.173162352211556 ], [ 7.248478237278778, 44.158413449197539 ], [ 7.256632362792043, 44.155581068493333 ], [ 7.262770348109163, 44.148012432427372 ], [ 7.272545504213881, 44.14744431773407 ], [ 7.280607627868982, 44.140907156189293 ], [ 7.288155634008914, 44.145298619709521 ], [ 7.295452434364449, 44.144196019896512 ], [ 7.303505614392614, 44.146133963737171 ], [ 7.308157299342919, 44.143754703977635 ], [ 7.310472019776558, 44.147607397108921 ], [ 7.320724668184019, 44.143018756044697 ], [ 7.327548216284947, 44.144920390077338 ], [ 7.344506903272688, 44.145093253894998 ], [ 7.345981383607027, 44.136502874837916 ], [ 7.357576567799853, 44.116177216069715 ], [ 7.368793584614241, 44.116547041375711 ], [ 7.392783906353696, 44.125310409693533 ], [ 7.405181379520013, 44.118198273367142 ], [ 7.414597650583891, 44.118988601384061 ], [ 7.42480481369522, 44.112184334356328 ], [ 7.427207411821517, 44.113302401426587 ], [ 7.426278402900772, 44.120970824249568 ], [ 7.429652972774596, 44.123941553145755 ], [ 7.42991066798859, 44.130169085184697 ], [ 7.443160839090587, 44.127774873920266 ], [ 7.448476968330705, 44.129111702813873 ], [ 7.459567295740607, 44.125939418264608 ], [ 7.471525715515182, 44.132863724904496 ], [ 7.483238287057783, 44.133522069218117 ], [ 7.49091938489525, 44.136715845152452 ], [ 7.49355376633113, 44.140624454577988 ], [ 7.508176749138568, 44.14464994508338 ], [ 7.513745762215992, 44.139419807914429 ], [ 7.521730897556316, 44.137919913253391 ], [ 7.526580480465392, 44.140055947092669 ], [ 7.53397511903347, 44.148405191606564 ], [ 7.542927585424582, 44.145370388540258 ], [ 7.561407412140801, 44.14932970087402 ], [ 7.565146184183653, 44.151875111932689 ], [ 7.563908859982671, 44.156798297605242 ], [ 7.572249075100297, 44.15198838478846 ], [ 7.576496981703415, 44.153894265323594 ], [ 7.589124054374906, 44.1503619142823 ], [ 7.597648208530105, 44.152895988078313 ], [ 7.603408221403257, 44.149942052835648 ], [ 7.618134106226473, 44.149140299551611 ], [ 7.62723952876097, 44.158085700515343 ], [ 7.626843478620215, 44.164310715114659 ], [ 7.631536847196335, 44.168124105255174 ], [ 7.629901372593418, 44.170609559122859 ], [ 7.632507790372852, 44.173667448471072 ], [ 7.636121089330054, 44.177073775811294 ], [ 7.64554076680546, 44.177790236235396 ], [ 7.683027130336812, 44.175407555309867 ], [ 7.681077246282783, 44.164441636136566 ], [ 7.672230887096426, 44.159804322227153 ], [ 7.670473332344731, 44.155125257769996 ], [ 7.679156799122308, 44.147040300837524 ], [ 7.666512935141539, 44.1305367364332 ], [ 7.673709520342281, 44.118820130287943 ], [ 7.689784841808898, 44.108768491191 ], [ 7.69904528571367, 44.095746613613002 ], [ 7.718938677106487, 44.082829798682887 ], [ 7.715248974637755, 44.081189395523204 ], [ 7.706093434765051, 44.075602109717614 ], [ 7.675762328585174, 44.031653488708031 ], [ 7.669459106584728, 44.022519983142956 ], [ 7.65861129760742, 44.006801605224602 ], [ 7.626088102127391, 43.984097730822597 ], [ 7.491024644356059, 43.995315186648014 ], [ 7.209378257746502, 44.045968337829514 ], [ 7.112660237483925, 44.089145698683637 ], [ 7.075133464758914, 44.168073935455574 ], [ 6.999802115126825, 44.191068177921323 ], [ 6.893062655696936, 44.263583754693158 ], [ 6.774081641647848, 44.309423583957432 ], [ 6.821133045830648, 44.355267940338827 ], [ 6.887392928555572, 44.361615975074024 ] ] ] ] } },
{ "type": "Feature", "properties": { "id": "FR-69", "elevation": "low_high", "threshold": null, "elevation line_visualization": 0 }, "geometry": { "type": "MultiPolygon", "coordinates": [ [ [ [ 0.735003508476718, 42.852250442250494 ], [ 0.735968978731773, 42.853488224628769 ], [ 0.742390629516974, 42.856616721165146 ], [ 0.748318307164852, 42.859251244564206 ], [ 0.747824334027529, 42.864849606787196 ], [ 0.735854361527254, 42.872491011032828 ], [ 0.725558314768314, 42.878056441713333 ], [ 0.711644738067045, 42.887239402336171 ], [ 0.706635850454588, 42.894752733754856 ], [ 0.694391902957471, 42.908388038922105 ], [ 0.685208942334633, 42.920353714885195 ], [ 0.677695610915948, 42.922858158691419 ], [ 0.662769125830826, 42.92642226049923 ], [ 0.656785174763144, 42.925852360397549 ], [ 0.652510924000514, 42.927989485778859 ], [ 0.650373798619199, 42.933403536744862 ], [ 0.647381823085358, 42.940242337965067 ], [ 0.645814597805727, 42.945656388931063 ], [ 0.643318220686484, 42.948049169658049 ], [ 0.641487707731099, 42.949987359846098 ], [ 0.641676126992139, 42.952186055989671 ], [ 0.641936416784138, 42.952789928307112 ], [ 0.64193798434345, 42.952844375773168 ], [ 0.673295749656497, 42.97535065203467 ], [ 0.931946171867431, 42.968371508930353 ], [ 0.998956424301113, 42.983374774514516 ], [ 1.174229261738328, 42.939191256866494 ], [ 1.555733248021374, 42.923874095290714 ], [ 1.608140284982382, 42.911289995872409 ], [ 1.619160891473306, 42.892358098421461 ], [ 1.604479877292797, 42.835783624484968 ], [ 1.570369228247329, 42.791213464708136 ], [ 1.465752800048164, 42.758750606570928 ], [ 1.445221384494757, 42.728946887538626 ], [ 1.381225434271608, 42.696170004455503 ], [ 1.35916662216192, 42.715270996093899 ], [ 1.347936615633625, 42.716001973867954 ], [ 1.32499980926514, 42.717494964599602 ], [ 1.17388868331921, 42.709716796875099 ], [ 1.171691478068355, 42.711439711155393 ], [ 1.14381921291351, 42.733295440673899 ], [ 1.12666654586803, 42.764717102050803 ], [ 1.08833312988293, 42.784854888916001 ], [ 1.081461651707401, 42.785867160625955 ], [ 1.037534537307803, 42.78625242196857 ], [ 1.036369866702169, 42.786310301045425 ], [ 1.034986497987137, 42.786598008006429 ], [ 1.033391804275042, 42.786882065354177 ], [ 1.032784975653256, 42.786015111743673 ], [ 1.032593383271745, 42.785388893366004 ], [ 1.031654828538251, 42.784983420540705 ], [ 1.030470440358382, 42.785663823714607 ], [ 1.028863405720394, 42.786336932541587 ], [ 1.027266222542204, 42.786698726936926 ], [ 1.025364422025738, 42.786665914154533 ], [ 1.023563327951081, 42.786790540533119 ], [ 1.021342083848028, 42.786830006576409 ], [ 1.019634230027965, 42.78734551062206 ], [ 1.017425385236258, 42.78699578839025 ], [ 1.01592383784657, 42.787670542991705 ], [ 1.01463854831911, 42.788193300557346 ], [ 1.013373149066211, 42.788093466352969 ], [ 1.011478795654708, 42.787826955921147 ], [ 1.010407274762881, 42.788275516301013 ], [ 1.009539573353712, 42.78896120921349 ], [ 1.006953834262673, 42.790473493287607 ], [ 1.00557024939671, 42.790760839897352 ], [ 1.003575195550206, 42.790336712221496 ], [ 1.001796496185532, 42.789760598720882 ], [ 1.000334805118336, 42.789189999582646 ], [ 0.998878155528296, 42.78846373940695 ], [ 0.996888243858546, 42.787883854622557 ], [ 0.995107167999311, 42.787385460878319 ], [ 0.99374371023601, 42.787050095086634 ], [ 0.99195262280163, 42.786862937824793 ], [ 0.990166582781828, 42.786520110658095 ], [ 0.98846605654188, 42.786801681572371 ], [ 0.986986910508102, 42.786775662021618 ], [ 0.984873848148023, 42.786738458113796 ], [ 0.984031149802894, 42.786645744889562 ], [ 0.983384601702938, 42.787023675064951 ], [ 0.982627337197836, 42.787555379540265 ], [ 0.981120359615189, 42.788385317231821 ], [ 0.979286246990715, 42.78952092264727 ], [ 0.977763977272195, 42.790817739805377 ], [ 0.978156215840552, 42.79175905282699 ], [ 0.978540867175216, 42.792933825864431 ], [ 0.978510471826756, 42.793867670758281 ], [ 0.977846078993542, 42.794790313668599 ], [ 0.976547661263485, 42.795701742956105 ], [ 0.97492712341379, 42.796763187314362 ], [ 0.973633700763377, 42.797518941150521 ], [ 0.971399372617175, 42.797946543462572 ], [ 0.96968573956488, 42.798616936953024 ], [ 0.968598470598785, 42.799532020878878 ], [ 0.967500980074302, 42.800758372705879 ], [ 0.9667204781194, 42.801990346628109 ], [ 0.966043074603891, 42.803302012468983 ], [ 0.965705636745129, 42.803918933731033 ], [ 0.963780415149696, 42.804585475387313 ], [ 0.962383566843058, 42.805261394461247 ], [ 0.960138661413675, 42.806000046148782 ], [ 0.958798035365385, 42.80496389529646 ], [ 0.957568254252011, 42.803773977436705 ], [ 0.955787071092114, 42.803274981358328 ], [ 0.953485222933613, 42.802533052029936 ], [ 0.95149532454283, 42.801952391341032 ], [ 0.94886112987355, 42.801671608443016 ], [ 0.946324914627535, 42.801626118151134 ], [ 0.945239741666951, 42.799270689864152 ], [ 0.944296427868471, 42.799020152405411 ], [ 0.942422716490564, 42.798129961877663 ], [ 0.940863482159457, 42.797323265063618 ], [ 0.938252792600906, 42.796341877300868 ], [ 0.937850800981225, 42.795711714293084 ], [ 0.937147334779089, 42.794608925905457 ], [ 0.936021248715908, 42.793498511101056 ], [ 0.935621883786135, 42.792790522576311 ], [ 0.934498445009171, 42.791602275508353 ], [ 0.933686838138207, 42.790575378523982 ], [ 0.932988680291557, 42.789316930114282 ], [ 0.930891160312762, 42.788811833079826 ], [ 0.929612953495791, 42.789100173844488 ], [ 0.9279173129183, 42.789225212406983 ], [ 0.926113416793508, 42.789426131358297 ], [ 0.92450782119528, 42.79001994968651 ], [ 0.92321655838063, 42.79069731361048 ], [ 0.921925267709994, 42.791374662243228 ], [ 0.920945711077633, 42.792213388341672 ], [ 0.91983961882291, 42.793672725211344 ], [ 0.917401616912134, 42.793861988065132 ], [ 0.916831554835128, 42.795097451968559 ], [ 0.916161027455997, 42.796175354132608 ], [ 0.915199603744396, 42.796469306261315 ], [ 0.913503747459004, 42.796594135393953 ], [ 0.911493508978045, 42.796635338742909 ], [ 0.909699836311588, 42.796524732318289 ], [ 0.90852704983928, 42.796814768089682 ], [ 0.907555094481281, 42.797419922202479 ], [ 0.906905365188664, 42.797875231256455 ], [ 0.90676822206109, 42.798807099945684 ], [ 0.90685290530411, 42.799431566245019 ], [ 0.906617957126408, 42.800128051826128 ], [ 0.906277332306423, 42.80082260383049 ], [ 0.905199619540459, 42.801425802572453 ], [ 0.904335858501281, 42.801955043810565 ], [ 0.903155061727394, 42.802478470918722 ], [ 0.90239694343133, 42.80300963254799 ], [ 0.901113066040322, 42.803453284566359 ], [ 0.900140934598728, 42.804058370973792 ], [ 0.899166151120337, 42.804741264890183 ], [ 0.898608791814971, 42.805587543934308 ], [ 0.897948371803673, 42.806354062815046 ], [ 0.895065994316718, 42.807157600800096 ], [ 0.893361894750268, 42.807515571408217 ], [ 0.89228658489628, 42.808040826382268 ], [ 0.891731744725321, 42.808809252775234 ], [ 0.891274644910536, 42.809813070591773 ], [ 0.889874283146858, 42.810565906637713 ], [ 0.888370847371302, 42.811238959220589 ], [ 0.887089352648, 42.811604631441931 ], [ 0.886323036886681, 42.812369126528239 ], [ 0.885340018343173, 42.813285341518366 ], [ 0.883429623786169, 42.813483622184094 ], [ 0.882253746939121, 42.813851192845263 ], [ 0.881172922292354, 42.814531968524491 ], [ 0.880306119384983, 42.815138833375272 ], [ 0.879249183393022, 42.815119253799125 ], [ 0.876842193346435, 42.814373849132217 ], [ 0.874683052153329, 42.815657469268778 ], [ 0.872872917505446, 42.81601316330265 ], [ 0.871295506610006, 42.815750242891454 ], [ 0.869252596076601, 42.816724471347555 ], [ 0.867740780700103, 42.817630693261762 ], [ 0.866337295054928, 42.818461049756941 ], [ 0.86514517060741, 42.819295330595217 ], [ 0.862237677912897, 42.820798355676359 ], [ 0.860500840053839, 42.822089598637511 ], [ 0.859181383111836, 42.823544349249019 ], [ 0.858065220856697, 42.825236480408527 ], [ 0.85729569577469, 42.826078583977107 ], [ 0.855894569204598, 42.826830989628853 ], [ 0.85452032105442, 42.826805241054636 ], [ 0.852937345492268, 42.826697697145285 ], [ 0.848874463676046, 42.82794510859155 ], [ 0.84747589619079, 42.828619594220555 ], [ 0.845676058539161, 42.828663599467191 ], [ 0.84428555399256, 42.829104605576951 ], [ 0.843111872051481, 42.829393952409959 ], [ 0.841753823030312, 42.828901171640616 ], [ 0.839533831180882, 42.828859293698628 ], [ 0.837752972535308, 42.828358484816604 ], [ 0.836703985893069, 42.828105073643542 ], [ 0.835543866281674, 42.828005279427408 ], [ 0.834261739062774, 42.828370348668955 ], [ 0.832543150365436, 42.829116459422011 ], [ 0.83061309125157, 42.829858536494093 ], [ 0.829108574342263, 42.830530788018997 ], [ 0.82718388347852, 42.831117180743611 ], [ 0.825467864547282, 42.831785368966621 ], [ 0.823670663757576, 42.83175121349516 ], [ 0.822588903713593, 42.832431415637664 ], [ 0.821921803253997, 42.83335309058748 ], [ 0.82028131050965, 42.834879140574067 ], [ 0.818278055452259, 42.834685248226599 ], [ 0.817630032449821, 42.835062214212542 ], [ 0.817071292602438, 42.835908062142622 ], [ 0.816303825705686, 42.836672061560165 ], [ 0.815118916675205, 42.8372723617425 ], [ 0.813096403624458, 42.837623063376732 ], [ 0.811797484675548, 42.838454744733177 ], [ 0.810398296711548, 42.839128765844599 ], [ 0.80827547019593, 42.839321735553469 ], [ 0.806060667416227, 42.839123584564696 ], [ 0.804238485937957, 42.839789422711618 ], [ 0.801244952805747, 42.8406663311006 ], [ 0.80019040484673, 42.840568208443301 ], [ 0.798509765901461, 42.840224446843536 ], [ 0.796403464597182, 42.839950331586742 ], [ 0.794516943289836, 42.839446820974473 ], [ 0.792894526770467, 42.837468961978381 ], [ 0.790693711687777, 42.836881465141516 ], [ 0.789433348972043, 42.836623544176753 ], [ 0.787763984910841, 42.835968388282396 ], [ 0.785972269585217, 42.835778023814939 ], [ 0.784689715697496, 42.836142530603723 ], [ 0.782981475575577, 42.836576643527117 ], [ 0.781295482715138, 42.836388253120681 ], [ 0.779718008563497, 42.836124078997457 ], [ 0.777809445274567, 42.836242774794691 ], [ 0.77567268766361, 42.836824186579136 ], [ 0.77395319870481, 42.837569399805631 ], [ 0.772022219461612, 42.83831047108778 ], [ 0.769682284306135, 42.838654225189053 ], [ 0.767876555021603, 42.838852621549613 ], [ 0.765408422075429, 42.839816696056793 ], [ 0.762389108804287, 42.841392852090209 ], [ 0.761601250621725, 42.84270112785444 ], [ 0.759989978768564, 42.843370381388262 ], [ 0.757632915083041, 42.844180737108559 ], [ 0.754112710237974, 42.844968232647389 ], [ 0.751229656636663, 42.845690272808163 ], [ 0.74791793864065, 42.846559534893785 ], [ 0.744077440696442, 42.847418282147444 ], [ 0.741314079885619, 42.847753113170114 ], [ 0.738124897702279, 42.848157328277225 ], [ 0.736204550350784, 42.848586551004203 ], [ 0.735693481284886, 42.850990202844422 ], [ 0.735016369906478, 42.852144756021083 ], [ 0.735003508476718, 42.852250442250494 ] ] ] ] } }
]
}
