{
"type": "FeatureCollection",
"name": "PL_micro-regions_elevation",
"crs": { "type": "name", "properties": { "name": "urn:ogc:def:crs:OGC:1.3:CRS84" } },
"features": [
{ "type": "Feature", "properties": { "id": "PL-1", "elevation": "low_high", "elevation line_visualization": 0 }, "geometry": { "type": "MultiPolygon", "coordinates": [ [ [ [ 15.7603362, 50.74303350000001 ], [ 15.7779048, 50.7414538 ], [ 15.779915833405058, 50.745363196867906 ], [ 15.779915833405047, 50.745363196867913 ], [ 15.779915833405058, 50.745363196867913 ], [ 15.780112512080297, 50.749001752361529 ], [ 15.780284395573767, 50.752439422232762 ], [ 15.776331075223744, 50.755189558129821 ], [ 15.769799502471558, 50.759142878481683 ], [ 15.765851654827122, 50.761329933783045 ], [ 15.754390187819739, 50.764838546133852 ], [ 15.746203425671595, 50.770218418405264 ], [ 15.739420108463156, 50.770218418405271 ], [ 15.735677588624011, 50.769282788444961 ], [ 15.730063808865278, 50.767645436014597 ], [ 15.724450029106574, 50.772323585815762 ], [ 15.721409231737272, 50.782381607888176 ], [ 15.715484318532216, 50.785956703477126 ], [ 15.70190552254739, 50.788706839374136 ], [ 15.696920901236485, 50.785612936490047 ], [ 15.690650396809302, 50.786124127729174 ], [ 15.679773698526787, 50.792205722470698 ], [ 15.668966118488703, 50.79407698239109 ], [ 15.658590882190694, 50.798160431519989 ], [ 15.647446629413613, 50.798521224702206 ], [ 15.635565182926888, 50.804602819443701 ], [ 15.626910605798862, 50.809047061754796 ], [ 15.61919165863063, 50.811152229165295 ], [ 15.609133636562929, 50.809514876734958 ], [ 15.607262376643355, 50.806240171874165 ], [ 15.603519856804205, 50.806240171874158 ], [ 15.604455486763991, 50.809280969244895 ], [ 15.593929649716403, 50.816999916416847 ], [ 15.589719314897367, 50.815362563986376 ], [ 15.585976795058222, 50.816766008926713 ], [ 15.580129107809556, 50.816064286456495 ], [ 15.568901548292123, 50.813725211555919 ], [ 15.560480878654053, 50.813959119045997 ], [ 15.554633191405385, 50.813023489085793 ], [ 15.548083781686879, 50.812789581595688 ], [ 15.539663112048805, 50.814660841516172 ], [ 15.534049332290088, 50.816766008926713 ], [ 15.529605089981102, 50.817467731396874 ], [ 15.526798200101741, 50.813257396575871 ], [ 15.519313160423453, 50.813257396575871 ], [ 15.512295935725071, 50.813725211555933 ], [ 15.507149970946246, 50.813491304065877 ], [ 15.503875266086986, 50.814193026536145 ], [ 15.502471821147308, 50.816298193946579 ], [ 15.498261486328277, 50.814426934026102 ], [ 15.497559763858421, 50.811152229165273 ], [ 15.493583336529339, 50.804368911953624 ], [ 15.485864389361106, 50.800626392112733 ], [ 15.481654054542062, 50.796416057291715 ], [ 15.481420147052127, 50.790334462550163 ], [ 15.476989618697491, 50.794830091568528 ], [ 15.470715228043062, 50.797592452907374 ], [ 15.465075730928486, 50.800002902035253 ], [ 15.46086891370796, 50.801011303646078 ], [ 15.4792496, 50.7900014 ], [ 15.5097202, 50.7899789 ], [ 15.5230245, 50.7761735 ], [ 15.5339712, 50.7785441 ], [ 15.6072061, 50.7752687 ], [ 15.6217157, 50.7648996 ], [ 15.6788077, 50.7540183 ], [ 15.6871729, 50.742867 ], [ 15.687806295172761, 50.742713167503666 ], [ 15.687757210860498, 50.742649021069774 ], [ 15.7043988, 50.7364404 ], [ 15.723491967900337, 50.738686188367744 ], [ 15.738092, 50.7352182 ], [ 15.7603362, 50.74303350000001 ] ] ] ] } },
{ "type": "Feature", "properties": { "id": "PL-2", "elevation": "low_high", "elevation line_visualization": 0 }, "geometry": { "type": "MultiPolygon", "coordinates": [ [ [ [ 19.521431589792762, 49.572947692674902 ], [ 19.520980834960898, 49.574165344238303 ], [ 19.514540786043078, 49.577827757008862 ], [ 19.514408210848678, 49.577947074683884 ], [ 19.512219472203046, 49.580135813330649 ], [ 19.510229709797915, 49.581130694533734 ], [ 19.50873284451237, 49.581130694533734 ], [ 19.479877414615263, 49.597540584629854 ], [ 19.486352560936357, 49.599635484911325 ], [ 19.488939252063023, 49.604410914686163 ], [ 19.494112634316348, 49.605206819648608 ], [ 19.500081921531738, 49.608987368220397 ], [ 19.507841994911768, 49.60361500972364 ], [ 19.513612305886646, 49.602620128520613 ], [ 19.519979545583055, 49.607793510776617 ], [ 19.529530405127673, 49.609982249423432 ], [ 19.536494573545649, 49.610181225664022 ], [ 19.539877169634359, 49.612568940551547 ], [ 19.547438266773881, 49.611773035589017 ], [ 19.553606530229771, 49.611574059348392 ], [ 19.55957581744515, 49.610977130626537 ], [ 19.561963532331319, 49.607992487017263 ], [ 19.564749199698497, 49.605007843407954 ], [ 19.57370313052159, 49.59883957994878 ], [ 19.577682655331852, 49.594462102655221 ], [ 19.578279584053384, 49.596053912580132 ], [ 19.585641704952373, 49.59565596009891 ], [ 19.586437609914423, 49.592273364008364 ], [ 19.583850918787757, 49.589487696639708 ], [ 19.583651942547242, 49.586901005511706 ], [ 19.589223277281612, 49.585707148067989 ], [ 19.599570041788283, 49.577748098443266 ], [ 19.600166970509818, 49.57416652611203 ], [ 19.601559804193421, 49.570783930021619 ], [ 19.595789493218525, 49.564416690321693 ], [ 19.589024301041082, 49.56322283287804 ], [ 19.583651942547231, 49.563023856637372 ], [ 19.578478560293906, 49.561233070471808 ], [ 19.571912344356971, 49.559840236787515 ], [ 19.567932819546698, 49.557850474381304 ], [ 19.568330772027739, 49.556258664456379 ], [ 19.565545104660551, 49.55526378325321 ], [ 19.56395329473645, 49.551881187162742 ], [ 19.560172746166707, 49.551483234681534 ], [ 19.554999363913364, 49.548498591072189 ], [ 19.552412672786691, 49.545513947462887 ], [ 19.548234171735913, 49.544121113778509 ], [ 19.542264884520517, 49.544519066259831 ], [ 19.538683312191292, 49.543126232575524 ], [ 19.532105775370862, 49.544112863099073 ], [ 19.530724262570761, 49.547844828021013 ], [ 19.530724262570761, 49.548697567312828 ], [ 19.530326310089748, 49.553870949568946 ], [ 19.528734500165623, 49.558447403103202 ], [ 19.528734500165626, 49.562028975434366 ], [ 19.530724262570757, 49.567003381449787 ], [ 19.53211709625436, 49.570584953780973 ], [ 19.530724262570761, 49.571977787465286 ], [ 19.528734500165633, 49.57277369242771 ], [ 19.526580610877335, 49.571779589678776 ], [ 19.526580610501032, 49.571779591539254 ], [ 19.526641343421552, 49.571807622338007 ], [ 19.52143159505756, 49.572947691522813 ], [ 19.521431589792762, 49.572947692674902 ] ] ] ] } },
{ "type": "Feature", "properties": { "id": "PL-3", "elevation": "low_high", "elevation line_visualization": 0 }, "geometry": { "type": "MultiPolygon", "coordinates": [ [ [ [ 22.789915588755363, 49.042983324732049 ], [ 22.789915617411033, 49.042983363627677 ], [ 22.800558728494146, 49.037568328295102 ], [ 22.800558849856277, 49.037568378837214 ], [ 22.8108048, 49.0323553 ], [ 22.811674, 49.0247949 ], [ 22.821649106403179, 49.022512030630878 ], [ 22.8315755, 49.0257043 ], [ 22.845225, 49.0021366 ], [ 22.862775899174796, 49.002492118064971 ], [ 22.8676525, 49.0025909 ], [ 22.8899563, 49.007372 ], [ 22.889598, 49.0175893 ], [ 22.87409, 49.0296358 ], [ 22.8774363, 49.0377542 ], [ 22.8668281, 49.0395133 ], [ 22.8741421, 49.0542019 ], [ 22.866557, 49.057513299999982 ], [ 22.866322188582995, 49.057968062095505 ], [ 22.865821561300741, 49.058937632974356 ], [ 22.86493850232441, 49.060647863914845 ], [ 22.864938491807958, 49.060647862654449 ], [ 22.864524260417124, 49.061450099426125 ], [ 22.855875054996059, 49.064044861053894 ], [ 22.855361660601641, 49.064044861053894 ], [ 22.847159956062207, 49.064044861053894 ], [ 22.838393254678557, 49.064044861053894 ], [ 22.826581227437035, 49.06498982323378 ], [ 22.813824238016142, 49.072077039582602 ], [ 22.796814918788325, 49.078691774841573 ], [ 22.781695523919154, 49.090503802089685 ], [ 22.77224590212592, 49.089558839909813 ], [ 22.753346658539453, 49.102788310427719 ], [ 22.737282301490943, 49.113182894406016 ], [ 22.726887717518391, 49.124994921654014 ], [ 22.720745463352781, 49.124049959474227 ], [ 22.704208625214619, 49.123104997294348 ], [ 22.69003419252476, 49.131137175823106 ], [ 22.667355100221002, 49.141531759801374 ], [ 22.652235705351821, 49.142004240891282 ], [ 22.643258564648256, 49.150508900509934 ], [ 22.629084131958393, 49.150508900509934 ], [ 22.613964737089216, 49.158068597948663 ], [ 22.616327142537521, 49.163738371027797 ], [ 22.603097672026998, 49.170825587376513 ], [ 22.585615871709511, 49.176495360455576 ], [ 22.574748806647289, 49.178385284815306 ], [ 22.559629411778111, 49.182637614624603 ], [ 22.552542195433183, 49.193032198602893 ], [ 22.533170470757042, 49.20437174476104 ], [ 22.523248367874153, 49.206261669120742 ], [ 22.521830924605162, 49.211458961109884 ], [ 22.514743708260237, 49.213348885469522 ], [ 22.50340416210835, 49.214766328739323 ], [ 22.499624313391067, 49.210986480019969 ], [ 22.487812286149524, 49.20437174476104 ], [ 22.475055296728662, 49.200119414951686 ], [ 22.468440561473386, 49.200119414951686 ], [ 22.457573496411161, 49.199174452771857 ], [ 22.44812387461792, 49.19633956623241 ], [ 22.450958761155889, 49.193032198602857 ], [ 22.449541317886915, 49.190669793153297 ], [ 22.450013798976574, 49.178857765905263 ], [ 22.453793647693864, 49.17696784154554 ], [ 22.465133193845737, 49.175550398275746 ], [ 22.481197550894258, 49.168935663016903 ], [ 22.484977399611548, 49.159958522308386 ], [ 22.492064615956462, 49.161848446668053 ], [ 22.488284767239172, 49.154288749229295 ], [ 22.492064615956473, 49.150981381599799 ], [ 22.501514237749706, 49.150981381599799 ], [ 22.503404162108357, 49.146256570700601 ], [ 22.494899502494455, 49.144366646340885 ], [ 22.483559956342571, 49.142476721981254 ], [ 22.486867323970188, 49.12688484601378 ], [ 22.500569275570371, 49.116017780945548 ], [ 22.518523556977531, 49.111292970046321 ], [ 22.536477838384684, 49.109875526776527 ], [ 22.543565054729608, 49.105150715877279 ], [ 22.551124752164192, 49.100425904978067 ], [ 22.553972875644181, 49.098627090147602 ], [ 22.553972875644185, 49.098627090147595 ], [ 22.553972995858562, 49.09862708436706 ], [ 22.55397299585858, 49.098627084367067 ], [ 22.56010189286777, 49.09475613189899 ], [ 22.568060130952745, 49.089892764177677 ], [ 22.575989078231952, 49.094441184246961 ], [ 22.579000629286476, 49.096168643512065 ], [ 22.5803522, 49.0969439 ], [ 22.597946426402739, 49.091723657695184 ], [ 22.5987949, 49.0914719 ], [ 22.600769517205503, 49.088968278224975 ], [ 22.602978722014832, 49.088808599974499 ], [ 22.614149061648046, 49.085363136904924 ], [ 22.614149061648057, 49.085363136904931 ], [ 22.683967246341879, 49.063821965633394 ], [ 22.715168747304059, 49.054193011443473 ], [ 22.7157202, 49.0524178 ], [ 22.724673861493674, 49.04979664697187 ], [ 22.7498872, 49.0424149 ], [ 22.750327530692264, 49.042792125082634 ], [ 22.750327531635072, 49.042792125890323 ], [ 22.7621465, 49.0529162 ], [ 22.765004254131398, 49.052338085162837 ], [ 22.765004255492322, 49.052338084887516 ], [ 22.775834, 49.0501472 ], [ 22.780541372397177, 49.047752626964325 ], [ 22.775834, 49.0501472 ], [ 22.779866695526273, 49.04809565791696 ], [ 22.779866713080665, 49.048095662286329 ], [ 22.781671814576669, 49.04717735609244 ], [ 22.781671872558235, 49.047177384893573 ], [ 22.783605587623239, 49.046193591040904 ], [ 22.785999675605346, 49.044975578582829 ], [ 22.789915588755363, 49.042983324732049 ] ] ] ] } }
]
}
