{
  "type": "FeatureCollection",
  "name": "AD_outline",
  "crs": {
    "type": "name",
    "properties": { "name": "urn:ogc:def:crs:OGC:1.3:CRS84" }
  },
  "features": [
    {
      "type": "Feature",
      "properties": {
        "id": "AD",
        "aws": [
          {
            "name": "SMA",
            "url": [{ "fr": "http://www.meteo.ad/fr/etatneige" }]
          }
        ]
      },
      "geometry": {
        "type": "MultiPolygon",
        "coordinates": [
          [
            [
              [1.446797217477599, 42.454387604755851],
              [1.443789159537571, 42.461520342842135],
              [1.443508874760787, 42.460046368596117],
              [1.440271255343875, 42.465617844948419],
              [1.426822510242122, 42.488761196792403],
              [1.4241664409638, 42.493331909179702],
              [1.42159104515073, 42.542008437494964],
              [1.421422883573752, 42.545186792341148],
              [1.42138886451727, 42.545829772949297],
              [1.43444442749035, 42.576385498046903],
              [1.436865451239736, 42.581818711619469],
              [1.44583320617687, 42.601943969726598],
              [1.447396185706277, 42.603805571428047],
              [1.480065175838852, 42.642716284250028],
              [1.48652768135071, 42.6504135131837],
              [1.494473274815522, 42.651016446556199],
              [1.55972218513489, 42.6559677124025],
              [1.69833326339727, 42.626106262207003],
              [1.7386109828949, 42.616386413574297],
              [1.774455404484301, 42.577784637289064],
              [1.780340351412428, 42.571446987113745],
              [1.78171968460083, 42.569961547851499],
              [1.777648753143407, 42.570412506079926],
              [1.77138876914989, 42.5711059570312],
              [1.74187481403357, 42.560623168945298],
              [1.724055664093453, 42.520368959356546],
              [1.724039121865982, 42.51996240511285],
              [1.72361087799072, 42.509437561035199],
              [1.71888875961298, 42.5030517578125],
              [1.69904647472107, 42.492183048123287],
              [1.6577775478363, 42.469577789306598],
              [1.551103901966564, 42.440383844949295],
              [1.53749990463251, 42.436660766601598],
              [1.51222205162054, 42.436386108398501],
              [1.45152771472942, 42.446247100830199],
              [1.446797217477599, 42.454387604755851]
            ]
          ]
        ]
      }
    }
  ]
}
