{
  "type": "FeatureCollection",
  "name": "IT-34_outline",
  "crs": {
    "type": "name",
    "properties": { "name": "urn:ogc:def:crs:OGC:1.3:CRS84" }
  },
  "features": [
    {
      "type": "Feature",
      "properties": {
        "id": "IT-34",
        "aws": [
          {
            "name": "AINEVA Veneto",
            "url": [
              {
                "en": "https://bollettini-en.aineva.it"
              },
              {
                "it": "https://bollettini.aineva.it"
              },
              {
                "de": "https://bollettini-de.aineva.it"
              },
              {
                "es": "https://bollettini-es.aineva.it"
              },
              {
                "fr": "https://bollettini-fr.aineva.it"
              },
              {
                "oc": "https://bollettini-oc.aineva.it"
              },
              {
                "ca": "https://bollettini-ca.aineva.it"
              }
            ]
          },
          {
            "name": "METEOMONT Carabinieri",
            "url": [
              {
                "it": "https://meteomont.carabinieri.it/home?lang=en"
              }
            ]
          },
          {
            "name": "METEOMONT Esercito",
            "url": [
              {
                "it": "https://www.meteomont.org/BOLLETTINI/"
              }
            ]
          }
        ]
      },
      "geometry": {
        "type": "MultiPolygon",
        "coordinates": [
          [
            [
              [12.054454732020606, 46.618011470911561],
              [12.065577746080793, 46.622601912791005],
              [12.06905028971584, 46.640202603593437],
              [12.072847649985594, 46.64411462722822],
              [12.067876560359426, 46.65328632948799],
              [12.070712055477692, 46.661354822122199],
              [12.068786190694647, 46.669667652058109],
              [12.073031971860676, 46.672989364673676],
              [12.097935451142815, 46.661953774146575],
              [12.125981255650071, 46.645291071970902],
              [12.139874839474945, 46.642462379141747],
              [12.14512855000012, 46.634059749999949],
              [12.161997050000073, 46.636745750000031],
              [12.174653911078885, 46.633002497123762],
              [12.182201550000093, 46.621002250000032],
              [12.195435550000093, 46.62193725000003],
              [12.194638653032197, 46.607608264555928],
              [12.19224455, 46.59453975],
              [12.202262141201917, 46.594290874289655],
              [12.214476695353776, 46.608997471034023],
              [12.242837154773252, 46.616121191533153],
              [12.244413334634453, 46.623577562633535],
              [12.26170255000012, 46.629326250000034],
              [12.271702009496915, 46.619968374877708],
              [12.283803050000031, 46.61801175],
              [12.311017146562479, 46.619736357726907],
              [12.315896050000086, 46.629981749999928],
              [12.334588050000026, 46.628437249999948],
              [12.343234279852711, 46.629548322438843],
              [12.351584000625575, 46.621882663036402],
              [12.360024550000141, 46.619575249999976],
              [12.385269289779748, 46.622468516314619],
              [12.389499446756078, 46.627563851804439],
              [12.378092828143339, 46.637289912421402],
              [12.379775050000022, 46.64290275],
              [12.405453550000104, 46.643078249999959],
              [12.425728191670691, 46.656732018028258],
              [12.440219819306778, 46.669050760667119],
              [12.479931117430375, 46.67724280857982],
              [12.49597404744646, 46.676822056127705],
              [12.502265742901804, 46.680745268651897],
              [12.506348302111682, 46.677869187491375],
              [12.520264838751775, 46.677195642144063],
              [12.551243955735579, 46.658881208156934],
              [12.56920971578403, 46.651410821186879],
              [12.576595558254505, 46.656668481759866],
              [12.601354099531305, 46.656596483621897],
              [12.612571341520777, 46.657972291339931],
              [12.618766256716293, 46.661780378860477],
              [12.631118371904478, 46.661425461386955],
              [12.632427447442076, 46.656171140039149],
              [12.641925854716693, 46.652055126796256],
              [12.658881474031304, 46.657392256105254],
              [12.690602425411496, 46.657431668908849],
              [12.7006, 46.6513],
              [12.7153, 46.6489],
              [12.731, 46.6345],
              [12.711264204268517, 46.625702500460164],
              [12.704901493705041, 46.619373390088981],
              [12.708651191956621, 46.60219676835473],
              [12.687853461177385, 46.600494565757799],
              [12.664429935958086, 46.579093297339064],
              [12.664579183856018, 46.582702896928886],
              [12.655480119597044, 46.570961302064475],
              [12.648908584865902, 46.571884701698181],
              [12.645435123055773, 46.576510111360086],
              [12.637428926713666, 46.573449693954032],
              [12.619809211729073, 46.543960454452744],
              [12.622560410982803, 46.527363057558389],
              [12.625937192508882, 46.52084780751337],
              [12.629813501113238, 46.520418696666681],
              [12.63161935109129, 46.513042879377913],
              [12.631019032517566, 46.501583028757793],
              [12.639074952407304, 46.496127476736554],
              [12.644663802082874, 46.490415414880964],
              [12.655059745252832, 46.485263609046626],
              [12.663359154398673, 46.468844565349059],
              [12.661247021129624, 46.468146309701787],
              [12.655770804919364, 46.466335872329985],
              [12.650044575887453, 46.467441532349703],
              [12.643348153772225, 46.473208473661323],
              [12.621749189539928, 46.476244425335025],
              [12.617772787951649, 46.474529899931042],
              [12.612254535598158, 46.4690792726363],
              [12.607000072109026, 46.465044415845789],
              [12.605513706761133, 46.465900406265632],
              [12.595782047762679, 46.471642203440624],
              [12.575676584792587, 46.472795291111161],
              [12.568829532792716, 46.475995559377033],
              [12.566991543268298, 46.474362915781349],
              [12.565676211685147, 46.472394804313943],
              [12.544275248717915, 46.460196530165319],
              [12.541496698836475, 46.457526518796207],
              [12.531877455751331, 46.465811435064531],
              [12.528486631760757, 46.458572080589654],
              [12.529107697843154, 46.455613054067896],
              [12.529881202458993, 46.449669274837021],
              [12.530669637614146, 46.447924929307597],
              [12.514338590040639, 46.445701869161496],
              [12.500147099505241, 46.434719142897379],
              [12.499554063195768, 46.433931675436455],
              [12.500133532249544, 46.431158752389294],
              [12.494696451144602, 46.426046604635999],
              [12.493654986625044, 46.421858215946102],
              [12.498764910286633, 46.412929016343298],
              [12.497021345424809, 46.412062092566003],
              [12.493818859614963, 46.410583149391336],
              [12.488114058476608, 46.406586626294292],
              [12.488023169631111, 46.406513466432322],
              [12.486300140729124, 46.403693557483514],
              [12.481264368502647, 46.403119014739623],
              [12.479345716176038, 46.400215744825339],
              [12.478392438369609, 46.398773205189727],
              [12.478363587177629, 46.398735619522959],
              [12.475277595698911, 46.396884168454193],
              [12.474429283338528, 46.395624308194158],
              [12.474375308962991, 46.395543246186939],
              [12.472852284569004, 46.393449645445259],
              [12.470384608890278, 46.390958018210434],
              [12.46522896187906, 46.389272078472437],
              [12.45608343316035, 46.392549135560685],
              [12.464142455642127, 46.370029384570721],
              [12.46293156635401, 46.370252215508884],
              [12.452774937070634, 46.371302283854575],
              [12.456376336943615, 46.365823590041643],
              [12.454834875904618, 46.364672549958634],
              [12.450261759926097, 46.361149460761546],
              [12.443650110925967, 46.361058740383292],
              [12.429701677556993, 46.35247820668625],
              [12.418410479663089, 46.355736418938442],
              [12.418994476603688, 46.353755160306797],
              [12.422249399487088, 46.34346074407685],
              [12.419410840868455, 46.339954470795995],
              [12.418767833076279, 46.339261002248264],
              [12.416645721321137, 46.33770393789284],
              [12.416048207808162, 46.336887057209772],
              [12.414640857676686, 46.334962971356134],
              [12.411788016743502, 46.328167659006368],
              [12.410568145011865, 46.331524820465923],
              [12.400210411682442, 46.32949359650307],
              [12.386491188848167, 46.329779699765062],
              [12.380104973865137, 46.332648699811145],
              [12.371830776836134, 46.325574857534818],
              [12.364947078442023, 46.32529238858362],
              [12.35473695538186, 46.318772986106225],
              [12.357564002090021, 46.311774745273112],
              [12.355892225668098, 46.309661800749303],
              [12.355919153567058, 46.308679938931476],
              [12.352110666868295, 46.306808214753687],
              [12.356511064287568, 46.293196542084559],
              [12.346055831410512, 46.292337899713552],
              [12.345082374747815, 46.288887818240504],
              [12.341313091426384, 46.285897561575325],
              [12.3381668723994, 46.287249598953053],
              [12.330365448822985, 46.283298076224277],
              [12.329779672697487, 46.283065515496538],
              [12.328607435032104, 46.280631274240243],
              [12.323576062753942, 46.271689795674334],
              [12.321770926038321, 46.267551039153538],
              [12.324715334943305, 46.255047980426475],
              [12.335628917024524, 46.24925779864828],
              [12.336333304005077, 46.247998521833658],
              [12.334706423584493, 46.247082496960665],
              [12.338376740409361, 46.237697861186781],
              [12.343351271787983, 46.239806804878221],
              [12.354230642429775, 46.235602797772607],
              [12.354839018371084, 46.230464608368109],
              [12.360981892320039, 46.227798646898407],
              [12.366067294669326, 46.228536561272975],
              [12.373690913803312, 46.222832765749956],
              [12.377374410710061, 46.222284318971248],
              [12.38992585421785, 46.22737772975583],
              [12.394683251114088, 46.226409357753404],
              [12.402115276666033, 46.228359893734897],
              [12.40941423926655, 46.22066141963171],
              [12.402599154571625, 46.212927384884701],
              [12.400631062565131, 46.210601098776813],
              [12.406198095755652, 46.206409021636162],
              [12.426315000567573, 46.208682451118413],
              [12.446498027672614, 46.207211482996904],
              [12.442561649623478, 46.197118118909408],
              [12.447436150001913, 46.188199397896518],
              [12.447548093561045, 46.186223855265474],
              [12.444078764001166, 46.184960164823245],
              [12.448742638191577, 46.182591451004818],
              [12.447919360081446, 46.18089041076859],
              [12.447365947560776, 46.17933460592792],
              [12.455820714046805, 46.175062116320014],
              [12.457001886356021, 46.170244006769472],
              [12.46494585909338, 46.165392639070063],
              [12.473010729796636, 46.16433433944745],
              [12.491832809246237, 46.156401325549652],
              [12.496397706160328, 46.151436949386195],
              [12.496496072582254, 46.151083367931022],
              [12.494895922431274, 46.147445351372106],
              [12.498404150839603, 46.14400280904767],
              [12.49623959368717, 46.14038700736635],
              [12.498824137489418, 46.136014104557212],
              [12.497112110254644, 46.129274722688841],
              [12.494106943795344, 46.127973377669065],
              [12.493839449758246, 46.127496882286195],
              [12.492958290499393, 46.125881596295422],
              [12.491760886531331, 46.124701905424985],
              [12.493981326080927, 46.120074863482074],
              [12.492048894496243, 46.117825608088403],
              [12.484530911849768, 46.103641596049471],
              [12.470529962070946, 46.098228765495989],
              [12.467996500967315, 46.097613448137089],
              [12.471164404426899, 46.095958128135777],
              [12.442867603232848, 46.083261529471478],
              [12.437523366605815, 46.084224583596075],
              [12.427101480090412, 46.073447587877041],
              [12.422032003972799, 46.065295986953529],
              [12.41713455074053, 46.060010152768122],
              [12.410364414669754, 46.058361820504182],
              [12.407115774225707, 46.049526094064312],
              [12.406027870399202, 46.045453387886596],
              [12.406075985064138, 46.043629309074113],
              [12.406035963321585, 46.043622855538366],
              [12.402965502815871, 46.041203501557305],
              [12.402965502815885, 46.041203501557291],
              [12.39875808507921, 46.040222049085351],
              [12.41575618475173, 46.025911295240448],
              [12.419040374226491, 46.006734737174966],
              [12.424161652593291, 45.997432112917146],
              [12.428368240286616, 45.994917794107423],
              [12.426246448331607, 45.978500570992317],
              [12.42809471136745, 45.968663569826781],
              [12.423287334005403, 45.957057867473026],
              [12.426833306028676, 45.948245110308108],
              [12.435751460369122, 45.946143256108613],
              [12.445088356294505, 45.948571029842689],
              [12.45149914918362, 45.945215761817622],
              [12.455246095895525, 45.948005131289761],
              [12.457606768749253, 45.94317463057164],
              [12.465718014080702, 45.941821553804331],
              [12.463691693277482, 45.934507005824869],
              [12.480559573166397, 45.927166857891969],
              [12.487329729898439, 45.926684215692418],
              [12.474754702021254, 45.913806335080643],
              [12.461509074597975, 45.917696589102221],
              [12.459742659762608, 45.923659100589298],
              [12.448676468287786, 45.929781440579298],
              [12.44544310100018, 45.936089554612607],
              [12.434855460043488, 45.940521965836766],
              [12.4210580325755, 45.937903111603084],
              [12.41517024872619, 45.94054560795157],
              [12.413767172778902, 45.93933648756812],
              [12.411928852296601, 45.942172655494105],
              [12.403393932731051, 45.935946985660237],
              [12.392098173192123, 45.93792134786603],
              [12.376649472450262, 45.931646909855658],
              [12.372430069391113, 45.942887449844861],
              [12.37466946429147, 45.943010279043378],
              [12.377572749221162, 45.955325035679216],
              [12.36177314676647, 45.958016842408369],
              [12.359224703560475, 45.962394162917235],
              [12.347465218400494, 45.963855689374313],
              [12.342438995265493, 45.967405200274335],
              [12.342742626729857, 45.963445042242398],
              [12.336433756692855, 45.963267336675173],
              [12.332712142471967, 45.958943250094656],
              [12.335300668505845, 45.95412657314008],
              [12.319193434388842, 45.944303851397393],
              [12.310727694083262, 45.942317541591471],
              [12.301856862991915, 45.947614821505859],
              [12.292478681394465, 45.94481648811189],
              [12.286583304984386, 45.93872194394676],
              [12.278121049243888, 45.936760114945635],
              [12.277945637014954, 45.930669480560546],
              [12.285013620297995, 45.92706181228553],
              [12.277694364755247, 45.923181421351011],
              [12.278891196496531, 45.920021578713843],
              [12.275922632791792, 45.914123634067387],
              [12.253132040758656, 45.935404836826613],
              [12.238183296489922, 45.941635248257818],
              [12.22559981277092, 45.939993362721268],
              [12.217481495901557, 45.942823633924604],
              [12.214793767114145, 45.946094564354468],
              [12.191549133298832, 45.940563370453418],
              [12.181273875193959, 45.940679157662856],
              [12.169201860756788, 45.937792713083773],
              [12.166305939317462, 45.932247701002233],
              [12.168237570503273, 45.92789182555007],
              [12.158808452632535, 45.920385599912613],
              [12.154953342472151, 45.921536275445533],
              [12.156790854470698, 45.923690625910858],
              [12.154898614410151, 45.926254101371754],
              [12.1478981152662, 45.929264533543574],
              [12.123954744873409, 45.9305612713272],
              [12.122506410903789, 45.92636161917342],
              [12.102145368252133, 45.919266200875583],
              [12.102990120589087, 45.915453994466795],
              [12.097790484875066, 45.911463930127056],
              [12.093237282229357, 45.911434379172945],
              [12.069331556636827, 45.901143869139844],
              [12.061778757086586, 45.902813776043494],
              [12.064935645404095, 45.898336774632575],
              [12.059909459100037, 45.895780420796186],
              [12.052410427312802, 45.89583715923505],
              [12.043300992902202, 45.892138090342776],
              [12.036267436654164, 45.892685391892826],
              [12.035731640994507, 45.88758729700762],
              [12.029474770836085, 45.880962541350186],
              [12.032377160145407, 45.87710972764043],
              [12.03595110121511, 45.876483704438002],
              [12.036329844413551, 45.873503426338189],
              [12.028331657450467, 45.861240998801399],
              [12.035841169882142, 45.857086892442453],
              [12.03772770653902, 45.846203302023454],
              [12.033247213532377, 45.844688819649377],
              [12.033260071119031, 45.841965779363534],
              [12.029445684285459, 45.841029739740918],
              [12.01901483348183, 45.844062518281],
              [12.01780786694756, 45.841511242976338],
              [12.013793910390484, 45.843489417261857],
              [12.008899209596262, 45.84227743361788],
              [12.004279867589489, 45.84820450911851],
              [11.999176885210073, 45.850560964742129],
              [11.990138366502968, 45.844957137961451],
              [11.982075534077092, 45.843980334089117],
              [11.969793746851352, 45.851068968347441],
              [11.95981996425418, 45.847097686413115],
              [11.957551304936713, 45.850702730033596],
              [11.951515022384477, 45.852731076854781],
              [11.939308658608308, 45.849877773345924],
              [11.938035467373018, 45.85895617026074],
              [11.933943896375395, 45.855866171980615],
              [11.935559927842235, 45.843502772765014],
              [11.931907112894047, 45.839915380154778],
              [11.92798929403868, 45.842554106041938],
              [11.922427005749427, 45.84158954768688],
              [11.918820251019115, 45.844769032868584],
              [11.903783585040163, 45.841903246043671],
              [11.893207753336206, 45.845564980554386],
              [11.881777378556967, 45.845179024409113],
              [11.870647069828781, 45.841112124796382],
              [11.863911407505285, 45.833072715484839],
              [11.877398050224418, 45.818953625228609],
              [11.870829846446345, 45.813133544499941],
              [11.859494387660019, 45.813211008807784],
              [11.848514909661244, 45.808157092229244],
              [11.839428221492025, 45.806628319620913],
              [11.806852992534703, 45.808117885058458],
              [11.805310954399451, 45.800991267151744],
              [11.79564895637613, 45.80000417973455],
              [11.794397427115555, 45.80218822498712],
              [11.78020830364091, 45.792784673979817],
              [11.78020830364091, 45.792784673979774],
              [11.78297434935137, 45.790197096887105],
              [11.782530172867583, 45.785023539306437],
              [11.789528490901978, 45.778966318649765],
              [11.790806169222172, 45.770161675145189],
              [11.797418467704269, 45.766338812805024],
              [11.798822980956047, 45.759776630787158],
              [11.801347475076483, 45.759667459393228],
              [11.801030191016455, 45.756155967816738],
              [11.80933464869419, 45.744854028838247],
              [11.798691716431771, 45.743594315142026],
              [11.798012995217157, 45.745381843818819],
              [11.793925082159383, 45.744161105849514],
              [11.793372011896842, 45.746215553095233],
              [11.78145982122339, 45.747867759901645],
              [11.774865401012066, 45.75708519686286],
              [11.774683258605085, 45.762874823174542],
              [11.769978991667912, 45.77045063029437],
              [11.758716229944298, 45.775151670547238],
              [11.7528830340199, 45.781417429255725],
              [11.73437447648592, 45.79145691048776],
              [11.727491694373482, 45.78624197897819],
              [11.718033377662723, 45.791365566863306],
              [11.715144005840175, 45.804980278895449],
              [11.719948750240194, 45.811679393845857],
              [11.718320278004919, 45.816695520185831],
              [11.702841171087337, 45.831301954850488],
              [11.682870343120396, 45.842519652855465],
              [11.675162105381554, 45.839145279943722],
              [11.669270898951067, 45.833090750854424],
              [11.666311223177747, 45.838515248740237],
              [11.659884274088226, 45.833354802642212],
              [11.654302433068555, 45.83321467806438],
              [11.649343873735694, 45.835624985448213],
              [11.643178655092402, 45.830241510594838],
              [11.640174467796761, 45.832327144526985],
              [11.629170561012131, 45.832698056664682],
              [11.615036497077883, 45.843481289564856],
              [11.600887876842799, 45.845231024918107],
              [11.593590268901805, 45.842557335772767],
              [11.585107178534859, 45.835405242074224],
              [11.576146815952425, 45.83459968252469],
              [11.568685397524419, 45.837260929057912],
              [11.546367415450534, 45.835222634944436],
              [11.52782073072094, 45.830846411862986],
              [11.532696035091574, 45.825644062264438],
              [11.526850919421697, 45.81625094949807],
              [11.496751779764082, 45.812394747981834],
              [11.494768728113156, 45.820727618420484],
              [11.469016436402395, 45.823265205447484],
              [11.468313009720845, 45.812815003646932],
              [11.463810755924781, 45.811706157060094],
              [11.456857687827878, 45.818660395643555],
              [11.452429377956094, 45.819826651672898],
              [11.448571244964837, 45.835462395788419],
              [11.43699677592245, 45.8275284947768],
              [11.439036770880948, 45.82294866382496],
              [11.436900485507142, 45.820015087749546],
              [11.422931164511192, 45.827962806081068],
              [11.425288423766782, 45.830657932953478],
              [11.423671304440058, 45.832258359412442],
              [11.412742195877575, 45.83707106494456],
              [11.408174760324519, 45.83745549080156],
              [11.404876187025407, 45.831728659357111],
              [11.399582898349722, 45.834387159095343],
              [11.395370232655171, 45.83403457430407],
              [11.389429096962878, 45.82939775572504],
              [11.383658676208848, 45.841696062342685],
              [11.396836719780071, 45.845992502442961],
              [11.399231923873257, 45.844790140109147],
              [11.40575470972888, 45.85061125705132],
              [11.40376801720608, 45.854644817205759],
              [11.394780359313744, 45.849914864986125],
              [11.376075607925078, 45.846651364243172],
              [11.367325820326691, 45.817923379119961],
              [11.370738305393708, 45.814621388856722],
              [11.371242379744061, 45.806789438029917],
              [11.378325777219017, 45.801772825901871],
              [11.371034584147468, 45.80250048274457],
              [11.368314887014083, 45.800270774553184],
              [11.359244918288899, 45.798793412309152],
              [11.343411358618058, 45.802629651460535],
              [11.336158974563434, 45.807683550440913],
              [11.325032673219672, 45.807208576906717],
              [11.32178294491584, 45.810145870180293],
              [11.320174335329821, 45.785670021591713],
              [11.303879169163737, 45.774848207399117],
              [11.3040419654528, 45.772243750812343],
              [11.29619672744662, 45.772563780561988],
              [11.292662709304787, 45.759142879947497],
              [11.283458899687091, 45.74786950445236],
              [11.272945236790694, 45.740014690547596],
              [11.271441513598941, 45.736534362575277],
              [11.276250737897287, 45.730894202646482],
              [11.259898153214861, 45.722173341225364],
              [11.263229832127111, 45.720352228500126],
              [11.271643921100443, 45.705317168366292],
              [11.27622509458917, 45.708123034111665],
              [11.284526897745243, 45.70756121543382],
              [11.290142657353423, 45.699429112450346],
              [11.290337841501737, 45.69068551928941],
              [11.282321823878563, 45.685346589768663],
              [11.269961829324185, 45.684314867214461],
              [11.270231730846271, 45.678450036634906],
              [11.26686153936113, 45.675517502842141],
              [11.249675494164842, 45.674460029711867],
              [11.246057413475389, 45.670593438939541],
              [11.232546029356735, 45.666497556745213],
              [11.227943811934162, 45.662937648881275],
              [11.231949005425646, 45.639691502954982],
              [11.234555211202665, 45.637309330941363],
              [11.228137229096312, 45.622758981528939],
              [11.229877152613945, 45.61763056807866],
              [11.226176496986936, 45.618391339332945],
              [11.218126395485251, 45.609529206276775],
              [11.213020287867005, 45.618602079254394],
              [11.214775709119889, 45.626371725146427],
              [11.204365238395107, 45.627176229648249],
              [11.193922794832762, 45.620923786915867],
              [11.192211967747184, 45.614548083145984],
              [11.19873684757574, 45.603639664401292],
              [11.198195738381184, 45.595369333004527],
              [11.194220244989628, 45.593699639809643],
              [11.185695804271855, 45.592080972533822],
              [11.182904833905502, 45.595815699630471],
              [11.180402149083525, 45.594756416568366],
              [11.179255154077619, 45.59692050827794],
              [11.170881141644063, 45.598538157277247],
              [11.171494607439794, 45.600812698240773],
              [11.162901279414468, 45.602082898378249],
              [11.157788321243846, 45.605509932615789],
              [11.145006041250818, 45.603221542418659],
              [11.136846704610624, 45.604886661771225],
              [11.13414005101516, 45.601057935697355],
              [11.135402431026042, 45.595804864423506],
              [11.132105524101789, 45.593724279858364],
              [11.132088513603584, 45.583121628143182],
              [11.12887263561627, 45.583838691919773],
              [11.121468727332751, 45.573342005637514],
              [11.115743838587241, 45.582057526527102],
              [11.11360187406421, 45.594653339901612],
              [11.107606516061384, 45.596492313242358],
              [11.103477980288124, 45.592716094569134],
              [11.093979587037621, 45.563457952803702],
              [11.096245895463957, 45.552390315181079],
              [11.106370578859186, 45.540151814424753],
              [11.092723978527328, 45.536892400388389],
              [11.083602443809893, 45.538904397575315],
              [11.074812859047793, 45.534987050196492],
              [11.077697302712732, 45.542711364811652],
              [11.07325579928437, 45.542450063485319],
              [11.070313862542969, 45.560001128925514],
              [11.067528216491306, 45.565794144678513],
              [11.059062309997435, 45.572922772524521],
              [11.052457155816821, 45.585444827125279],
              [11.045923163478042, 45.584130954595608],
              [11.043615855043813, 45.579784834662682],
              [11.034844502488744, 45.5893513689537],
              [11.023662546919867, 45.587119864356325],
              [11.018413152623889, 45.588013845543223],
              [11.011496036901287, 45.592825323117665],
              [10.998444472528806, 45.59245143014536],
              [10.996415630154567, 45.594890131710216],
              [11.000987655200422, 45.605206021518235],
              [10.990610941367397, 45.60766457901952],
              [10.983921530602993, 45.616520742850902],
              [10.977938043836643, 45.609765951647454],
              [10.982055883369787, 45.606526278420958],
              [10.985202438366619, 45.596849778447499],
              [10.98530769396846, 45.594381729991696],
              [10.979599320749424, 45.593562749964207],
              [10.986839811109704, 45.589116616343745],
              [10.985064518224419, 45.580578719181176],
              [10.978065960339828, 45.586046648560803],
              [10.968389609933228, 45.586465878624338],
              [10.963195548265498, 45.594115966486193],
              [10.953814487567517, 45.596806082015554],
              [10.947366618511662, 45.595359084167441],
              [10.949018358011093, 45.591964607204446],
              [10.942221010173734, 45.588543106238738],
              [10.941993151603603, 45.584910656717589],
              [10.941427698963174, 45.588214565763579],
              [10.943834696139426, 45.592953042900724],
              [10.937277176923331, 45.588672088656473],
              [10.927502578672438, 45.59073666344657],
              [10.922633777206155, 45.589315608266809],
              [10.908515898218383, 45.590344501251288],
              [10.913016411977742, 45.594139537130914],
              [10.918813600730605, 45.60962262522694],
              [10.927772505347317, 45.614710184751672],
              [10.933015056277473, 45.631785997164449],
              [10.93131987784413, 45.636963099683996],
              [10.927107642442621, 45.633856999960763],
              [10.916231746484298, 45.631330791987793],
              [10.906630535659648, 45.637611993397293],
              [10.901669443077699, 45.634706471611224],
              [10.901744945579013, 45.63087090134556],
              [10.893990229007384, 45.629550657185781],
              [10.893641343113968, 45.624525028176627],
              [10.884041601933101, 45.616727144266548],
              [10.880868933809278, 45.601244120359688],
              [10.870303512681151, 45.595846164917546],
              [10.861843135317883, 45.5858135217198],
              [10.865803422028298, 45.583084648195452],
              [10.859575019481186, 45.580792028081838],
              [10.851634710971856, 45.582502943414667],
              [10.846596620193642, 45.579796523653833],
              [10.837520922013569, 45.578979833872424],
              [10.837720955267775, 45.57686142525327],
              [10.832893868868345, 45.575039833189457],
              [10.82816437364475, 45.564368669527049],
              [10.833302041773898, 45.559227839243952],
              [10.831053855061777, 45.55391741288998],
              [10.841059858431544, 45.552748439278091],
              [10.840330232384739, 45.543741349575548],
              [10.8381909520278, 45.543343764902176],
              [10.83709960316216, 45.546016578894829],
              [10.831135434665988, 45.543808153747229],
              [10.826350416371298, 45.535675998761633],
              [10.825553646646908, 45.527281925742791],
              [10.819496937303414, 45.526892543885445],
              [10.814512908037313, 45.529096054594035],
              [10.809082938894525, 45.527589052305608],
              [10.806448318506748, 45.529691960233215],
              [10.814790162269977, 45.541395831224932],
              [10.831451024503387, 45.557466374516132],
              [10.826089046149503, 45.564779909490497],
              [10.826378943271459, 45.569374692868067],
              [10.82281589517296, 45.567775471555585],
              [10.820261812343658, 45.568842304590675],
              [10.823258754726536, 45.580270527139902],
              [10.825650134691575, 45.582473520837759],
              [10.838404013548573, 45.583259003038293],
              [10.844325574052521, 45.586376805464148],
              [10.844453951391451, 45.59733769039876],
              [10.852520096804094, 45.606147144971928],
              [10.84746021199879, 45.609629152526132],
              [10.850374749225727, 45.614802404972835],
              [10.844620765844761, 45.616506626715832],
              [10.841575193163969, 45.614368596313049],
              [10.841127565352839, 45.608921354346258],
              [10.833927160515474, 45.600864515655239],
              [10.833429030317383, 45.596201111195676],
              [10.824457134265016, 45.587983071107658],
              [10.814480910945225, 45.589087100422432],
              [10.808970174275212, 45.585547208409942],
              [10.805676729458098, 45.593970061850648],
              [10.802725743088498, 45.593899673395455],
              [10.792127979915195, 45.588413982707458],
              [10.785734635902136, 45.588928170447844],
              [10.781417800668905, 45.584576203518608],
              [10.761686587524233, 45.583640179140914],
              [10.755709036825277, 45.590491823432046],
              [10.751601482103792, 45.589087771181873],
              [10.742742661487807, 45.59735100241727],
              [10.748580011222069, 45.615623317545136],
              [10.746003668140032, 45.621045176877757],
              [10.737741566926282, 45.624726480999776],
              [10.644102648472723, 45.620592818725918],
              [10.6932568593732, 45.663303593740565],
              [10.715348639553188, 45.686377230817442],
              [10.750111900712062, 45.727888319756097],
              [10.77352040951205, 45.754808104876084],
              [10.794588067432041, 45.778216613676072],
              [10.814875441725365, 45.805916682422726],
              [10.834382532392022, 45.820742071329384],
              [10.842575510472019, 45.831275900289377],
              [10.854779057589974, 45.82796498505791],
              [10.887777946781508, 45.812498475033486],
              [10.878451377037681, 45.803992975137113],
              [10.873724670706832, 45.789250640163715],
              [10.878109436558677, 45.787687738518578],
              [10.884929083824465, 45.77516245448011],
              [10.878184926204064, 45.771693626449228],
              [10.876149188963971, 45.764254327766963],
              [10.867198457017894, 45.761943151467698],
              [10.865065565494039, 45.751936122509989],
              [10.862171107764249, 45.744477454487068],
              [10.849860065440387, 45.735601071402399],
              [10.843425296875987, 45.720819226261753],
              [10.852803421483129, 45.718313154407824],
              [10.884797237274334, 45.715855295832732],
              [10.895854519912781, 45.709459345127684],
              [10.924656989446957, 45.699945444430803],
              [10.923530542893682, 45.698006414098536],
              [10.921262001323569, 45.695790989841527],
              [10.918313738861249, 45.694219246845684],
              [10.913892895927631, 45.691520873774223],
              [10.912181601888729, 45.690021720998551],
              [10.911306940491146, 45.688795717110608],
              [10.92260141728344, 45.679412150723458],
              [10.943197550000086, 45.673301249999959],
              [10.949984410831968, 45.68332412445038],
              [10.960626733482103, 45.686117670277177],
              [10.972433049999987, 45.70186225],
              [10.977103623081938, 45.698389730861997],
              [10.970410557481616, 45.683912404530375],
              [10.97367601169177, 45.683076622101908],
              [10.997391733836372, 45.697310169866292],
              [10.993893862428319, 45.708553350702957],
              [11.006733987099764, 45.71048333887844],
              [11.011114385925515, 45.718874237354093],
              [11.016241739775648, 45.719376714425749],
              [11.017230028956998, 45.706779897269094],
              [11.0414580500001, 45.70582625000003],
              [11.051583317575925, 45.714433114357149],
              [11.059249018292688, 45.716552146530717],
              [11.07333388352216, 45.704165455987699],
              [11.094647550000133, 45.69252375],
              [11.113454050000065, 45.69636175],
              [11.121716238790901, 45.695333580120781],
              [11.123996140755752, 45.692210463843601],
              [11.13815805, 45.697002749999974],
              [11.136890138650504, 45.703481252449741],
              [11.146691591538126, 45.716801930527573],
              [11.177547952034098, 45.737171795628754],
              [11.177410908341097, 45.751503160407871],
              [11.180863835823871, 45.762283024912058],
              [11.173878550000115, 45.78594925000003],
              [11.179226063783156, 45.787298326728717],
              [11.197943617746075, 45.782982404823258],
              [11.202418550000074, 45.783553749999975],
              [11.193368416260324, 45.795116082761822],
              [11.196459243516626, 45.798796866750536],
              [11.195502107439134, 45.801192629855947],
              [11.189808194895617, 45.803346190253635],
              [11.189583548192207, 45.814507506217112],
              [11.196149079152619, 45.817651748187167],
              [11.199949984685695, 45.82526916150799],
              [11.218191642076722, 45.833464000584939],
              [11.222397721260608, 45.847425576678567],
              [11.239367132893355, 45.85529085715887],
              [11.243744966339547, 45.876195643919978],
              [11.236487359940282, 45.879529477108399],
              [11.246651550000111, 45.886463249999949],
              [11.254969550000078, 45.884353250000075],
              [11.256695997873285, 45.887754750561164],
              [11.250029191159364, 45.898192261559174],
              [11.250806173912919, 45.900470131498615],
              [11.260135722822707, 45.905170992110477],
              [11.261630309003145, 45.916968112939045],
              [11.264159384573816, 45.91867493138259],
              [11.270338050000136, 45.916747749999985],
              [11.301357886332358, 45.918304018329387],
              [11.297534182351635, 45.933775520875642],
              [11.301173974039958, 45.934747338319212],
              [11.306625467690303, 45.927755020901976],
              [11.313703550000096, 45.930073249999971],
              [11.318357814587722, 45.920423692792156],
              [11.346365943960162, 45.911270583611561],
              [11.349357044989086, 45.912229247883872],
              [11.345957015709763, 45.922428717630844],
              [11.357276263542071, 45.926251446385564],
              [11.360863873164105, 45.934613698081428],
              [11.35909849011893, 45.941523099312477],
              [11.360750743746079, 45.943664765797202],
              [11.381898050000025, 45.942683749999944],
              [11.382926020414471, 45.952504856792117],
              [11.373137341861318, 45.971948051395529],
              [11.374718366830605, 45.982085183888749],
              [11.38182906712184, 45.982964360838466],
              [11.446592550000146, 45.980632749999955],
              [11.465366607447947, 45.995712040563838],
              [11.484926716076176, 45.999810139493839],
              [11.492418918940858, 46.008685218525898],
              [11.539399050000087, 46.013519750000022],
              [11.576285353912922, 46.006568212645064],
              [11.588488771286297, 45.970549601305969],
              [11.597862050000067, 45.972072749999953],
              [11.611808050000061, 45.966408249999922],
              [11.620918050000027, 45.97156125],
              [11.629636829519347, 45.969375902187153],
              [11.628562280055252, 45.962268416481997],
              [11.63333840624399, 45.961737909740421],
              [11.652315050000079, 45.965438749999919],
              [11.673222550000073, 45.964355250000025],
              [11.685559376237768, 45.969600997196949],
              [11.685597348738582, 45.969962866524149],
              [11.685369176200069, 45.97107658535262],
              [11.684855787988438, 45.97203118355128],
              [11.683829011565079, 45.973144860519845],
              [11.681946588122372, 45.975014196188262],
              [11.681760902884159, 45.975159845354042],
              [11.685026917392316, 45.978871986035031],
              [11.68379527933504, 45.982885669142675],
              [11.684404550000133, 45.983913749999971],
              [11.688829362088327, 45.989954110327282],
              [11.672761184107953, 46.012634959075491],
              [11.668353882985398, 46.017034015408761],
              [11.679974747512347, 46.028220023104161],
              [11.678629684301654, 46.030283642005678],
              [11.672658806166451, 46.029897252461723],
              [11.667767969450672, 46.036075048868803],
              [11.679892827566979, 46.044887357841688],
              [11.705510677732921, 46.045859362110114],
              [11.705268931337132, 46.053892429534933],
              [11.687840788106628, 46.064649987010917],
              [11.683076953482617, 46.078331569877342],
              [11.684204761607178, 46.079901284489033],
              [11.68163782054893, 46.087740790476595],
              [11.68391954593403, 46.092999577465356],
              [11.693616878820855, 46.094686251305973],
              [11.70214355000007, 46.09082825],
              [11.716648424795553, 46.102277641783161],
              [11.739336050000091, 46.105060250000058],
              [11.751678049223049, 46.104267453609005],
              [11.755570976569954, 46.096036600422664],
              [11.759877783320109, 46.095207846545854],
              [11.760176021292477, 46.095726561620047],
              [11.76136441993058, 46.096656672764794],
              [11.765820914823353, 46.099343571822693],
              [11.771462491222145, 46.104073016749275],
              [11.814693808814445, 46.103373673336037],
              [11.823439479164108, 46.108832333892224],
              [11.886101170782922, 46.11799573314898],
              [11.904953804570127, 46.133418106299608],
              [11.904835770850379, 46.13788124213594],
              [11.920765963804689, 46.150882339614121],
              [11.919753929942978, 46.156822411047017],
              [11.929269172877106, 46.16974096670473],
              [11.928610050000051, 46.175953249999978],
              [11.946790295676703, 46.17144778760219],
              [11.951027481348378, 46.173286094255175],
              [11.949612892014251, 46.178328525640474],
              [11.962198703508204, 46.188901000381051],
              [11.961971844135507, 46.197827507617241],
              [11.938732928085207, 46.201409650442613],
              [11.925894255922936, 46.217024160659776],
              [11.9145537008043, 46.224322182062586],
              [11.915098092061482, 46.236235020475753],
              [11.928127296811626, 46.246519338542427],
              [11.926334091334761, 46.249473311425689],
              [11.918590332204205, 46.250268706120757],
              [11.905386050000086, 46.256152749999934],
              [11.89241905, 46.252368750000052],
              [11.884434486214678, 46.259952208514662],
              [11.889828010116609, 46.266867845606079],
              [11.885676550000035, 46.277775249999941],
              [11.880545367564036, 46.276868070541902],
              [11.865234900406522, 46.271608385858926],
              [11.838573550000058, 46.270164749999978],
              [11.827539566832405, 46.284205037115065],
              [11.829402981522119, 46.294350438045662],
              [11.841984053519981, 46.305234223692203],
              [11.834899279622597, 46.312878882690121],
              [11.830306196281928, 46.323533155307203],
              [11.806843949028439, 46.332741429901688],
              [11.802622471008405, 46.34518573941132],
              [11.781801655824093, 46.351746020896094],
              [11.774745314390499, 46.35789920635797],
              [11.791215859010798, 46.368247370753529],
              [11.804979271124184, 46.368137969469458],
              [11.818894050000097, 46.376762249999956],
              [11.828190848507584, 46.368451645102148],
              [11.836057550000035, 46.365665249999935],
              [11.834273635833487, 46.381630195633747],
              [11.8365385929269, 46.392971602021852],
              [11.842502393090703, 46.410613058902925],
              [11.838465190848185, 46.416512680197187],
              [11.845159376785128, 46.423447824083908],
              [11.843753017430561, 46.427596483446301],
              [11.849755050000054, 46.433967749999972],
              [11.870875550000079, 46.433201249999968],
              [11.886823355946827, 46.442744618551771],
              [11.888607403016293, 46.456460009257327],
              [11.887497906601171, 46.465673279622209],
              [11.877423955028693, 46.471794222316596],
              [11.845007770563415, 46.475537184490619],
              [11.816058167379525, 46.478424680961211],
              [11.813677069648419, 46.486429585881282],
              [11.815891603555741, 46.49955691432038],
              [11.82814605, 46.50882725],
              [11.853334682521522, 46.517320352618626],
              [11.888983281743899, 46.522546115949332],
              [11.91188355000004, 46.532943250000045],
              [11.933884550000025, 46.527877749999945],
              [11.943978235520856, 46.530382229077766],
              [11.949375915567472, 46.538485558553255],
              [11.965194511021881, 46.544036764255367],
              [11.987559550000041, 46.545280749999961],
              [11.995606263003895, 46.535472415614848],
              [12.001650495299272, 46.535246411261561],
              [12.025612188891662, 46.560828063498683],
              [12.033857975360895, 46.576699283242363],
              [12.046201029635133, 46.583984703766212],
              [12.052304969898362, 46.599532367723626],
              [12.045211310542451, 46.607190604904112],
              [12.053308528289117, 46.611747677245148],
              [12.054454732020606, 46.618011470911561]
            ]
          ]
        ]
      }
    }
  ]
}
