{
  "type": "FeatureCollection",
  "name": "IT-52_outline",
  "crs": {
    "type": "name",
    "properties": { "name": "urn:ogc:def:crs:OGC:1.3:CRS84" }
  },
  "features": [
    {
      "type": "Feature",
      "properties": {
        "id": "IT-52",
        "aws": [
          {
            "name": "METEOMONT Carabinieri",
            "url": [
              {
                "it": "https://meteomont.carabinieri.it/home?lang=en"
              }
            ]
          }
        ]
      },
      "geometry": {
        "type": "MultiPolygon",
        "coordinates": [
          [
            [
              [11.533871850065296, 42.965772102028119],
              [11.566955945212689, 42.955802614801115],
              [11.629231889019634, 42.967196182618281],
              [11.645773936593342, 42.943694637175092],
              [11.699292325802405, 42.945119228755516],
              [11.717780496620096, 42.91305794470091],
              [11.720699681486026, 42.89024865650449],
              [11.664262107410995, 42.849598710403811],
              [11.709996003644227, 42.796071153923045],
              [11.665235169032973, 42.761074788424907],
              [11.690534771204579, 42.728203058372756],
              [11.61755514955582, 42.72963262645996],
              [11.5727943149446, 42.763217991460387],
              [11.532898788443267, 42.838896906694785],
              [11.461865290038512, 42.859585387905113],
              [11.465757536526446, 42.893100279002709],
              [11.533871850065296, 42.965772102028119]
            ]
          ],
          [
            [
              [12.283877529941284, 43.762997414331906],
              [12.28649080995118, 43.763995878067803],
              [12.294275554507788, 43.761275861119785],
              [12.303440155358306, 43.755880253921276],
              [12.315156524079571, 43.759528571445642],
              [12.321929700049292, 43.757953932461675],
              [12.370426406745983, 43.707693423801082],
              [12.334311383527858, 43.707231605983296],
              [12.330272187006242, 43.708351902203098],
              [12.328571843260056, 43.701370557829264],
              [12.336442705709709, 43.679171997374347],
              [12.31571892753237, 43.677919075651857],
              [12.316519658234416, 43.700862936425509],
              [12.314597784549282, 43.721102292585371],
              [12.308604106395993, 43.729640406833489],
              [12.304571313964052, 43.727375498872959],
              [12.301056634753701, 43.719913551992526],
              [12.305450859848616, 43.713026944175247],
              [12.302423114234635, 43.700287767383131],
              [12.297210786807122, 43.685950233994312],
              [12.245070692569254, 43.681476304606811],
              [12.232656485132251, 43.655595871005147],
              [12.186277953611571, 43.642507569088096],
              [12.21383457626728, 43.61088373453638],
              [12.162662184634613, 43.561366621530368],
              [12.153237649315853, 43.528712760827105],
              [12.102727692492513, 43.529932831295426],
              [12.090892296859352, 43.51122991319955],
              [12.143244283316713, 43.47029252667879],
              [12.025210456317886, 43.415573859486521],
              [12.032936004757877, 43.400224886250818],
              [12.077306107325127, 43.402144434240789],
              [12.076994480259264, 43.365832999823795],
              [12.102570277418229, 43.372450714675665],
              [12.124873720170498, 43.357922842672586],
              [12.132523236121513, 43.293069672615665],
              [12.177042441060312, 43.281781833026976],
              [12.193818427023865, 43.313071488372266],
              [12.223707911309607, 43.296262829743611],
              [12.097227716542669, 43.240115734038852],
              [11.95976875873704, 43.317049107197121],
              [11.872193212758539, 43.430218578884656],
              [11.869760558703582, 43.444349913055767],
              [11.903817715473007, 43.446116097779914],
              [11.94274018035232, 43.479663809678357],
              [11.874625866813506, 43.546703382144102],
              [11.843001364099042, 43.559044654092084],
              [11.740829893790799, 43.557281769972825],
              [11.63379311537267, 43.585481726516051],
              [11.521891028844612, 43.673521481398375],
              [11.499997142349955, 43.768459559254993],
              [11.4805359099103, 43.771972895181847],
              [11.436748136921064, 43.745617845277927],
              [11.324846050392983, 43.766702813899265],
              [11.249433774689336, 43.810605969018631],
              [11.198348039535176, 43.872016207742696],
              [11.137531688161268, 43.865001094003425],
              [11.120503109776553, 43.903574002146122],
              [11.088878607062107, 43.905326722707443],
              [11.071850028677391, 43.931611338472202],
              [11.00373571513858, 43.936866868257376],
              [10.908862206995192, 43.968390293127392],
              [10.933188747544769, 44.034884832741604],
              [10.927180645090271, 44.075707253082562],
              [11.006952850024613, 44.138545684236767],
              [11.002009019916434, 44.110892463719878],
              [11.049427128498808, 44.090246041400363],
              [11.15920238487193, 44.112421990620625],
              [11.248036195242918, 44.097572260960433],
              [11.260226123504296, 44.115841883684254],
              [11.195730599430323, 44.15141452717296],
              [11.280713653565769, 44.15533919091223],
              [11.342809365390291, 44.205819182749153],
              [11.380545127404179, 44.200000734991548],
              [11.421064893564781, 44.23924424035495],
              [11.451297227596188, 44.220568307801763],
              [11.447627004684863, 44.199485264706645],
              [11.516132499646968, 44.157552346712961],
              [11.544415747795213, 44.152527592221269],
              [11.565172906168812, 44.167242002035131],
              [11.615364491489586, 44.158254352856133],
              [11.584574209530128, 44.112205126591391],
              [11.616166472660977, 44.118490877479417],
              [11.652556286476296, 44.101155031146128],
              [11.680340554236047, 44.122928297859659],
              [11.752882577834583, 44.120988378256435],
              [11.645549050912219, 43.989849287525047],
              [11.690884753981614, 43.956858045564573],
              [11.684205203410743, 43.935126365920013],
              [11.717031653912029, 43.921817578309302],
              [11.710166740227896, 43.877445918744314],
              [11.732021562063068, 43.863385030141778],
              [11.841674555463058, 43.808024236363266],
              [11.909747639978661, 43.812719076041816],
              [11.953380474185732, 43.776088668484675],
              [12.053002579133917, 43.756965603176852],
              [12.07054291867022, 43.740730579436146],
              [12.163669515182875, 43.762361980605149],
              [12.194632649708932, 43.731924287419027],
              [12.209310650537899, 43.757072780921725],
              [12.24591024257429, 43.751194424304231],
              [12.283877529941284, 43.762997414331906]
            ]
          ],
          [
            [
              [9.686700448591345, 44.365939537622353],
              [9.76047516556102, 44.390049876345067],
              [9.756464975111586, 44.406173502881252],
              [9.819936688079274, 44.466422875852935],
              [9.924305944889946, 44.472368895366607],
              [10.000387826978855, 44.443873486182412],
              [9.989284720088492, 44.404331139485564],
              [10.010043161079073, 44.389159810640031],
              [10.098272854462342, 44.346293284637824],
              [10.14168745272498, 44.353871790855422],
              [10.253856663104285, 44.268580660563963],
              [10.307116009131114, 44.28432388241508],
              [10.371588787979579, 44.269379182235802],
              [10.430263427472219, 44.227434865708929],
              [10.48839327600392, 44.220867171832928],
              [10.52512166832827, 44.156235914192187],
              [10.592534202285494, 44.115612119795578],
              [10.624055850627954, 44.120366069886167],
              [10.641209711772968, 44.159835053040638],
              [10.743933574360874, 44.156237653210027],
              [10.848664830564141, 44.098058503209074],
              [10.892075317925011, 44.092433174726274],
              [10.900947199786836, 44.064439111050461],
              [10.922284419659283, 44.068290799461458],
              [10.836174653996903, 43.915004705806297],
              [10.679331536260936, 43.899494940315741],
              [10.537865194773614, 43.923865614482217],
              [10.516337708025521, 43.912789272447405],
              [10.510186997526082, 43.870680368553785],
              [10.442529182032157, 43.866246120437111],
              [10.436378471532725, 43.844069931674134],
              [10.390248142786838, 43.824104310784989],
              [10.347193169290691, 43.883981133595491],
              [10.227254314551441, 43.974790229875843],
              [10.208802183053098, 44.007978428342021],
              [10.178048630555857, 44.01019031503094],
              [10.055346200718514, 44.077219263557957],
              [10.071019413563144, 44.093665540075861],
              [10.04738456586591, 44.115123289079904],
              [10.017885463973887, 44.119281021841154],
              [9.993322038355133, 44.092675687775014],
              [9.983451606983131, 44.0988780535057],
              [9.995353698657146, 44.117893315530239],
              [9.974028992795729, 44.166928345881288],
              [9.892627253513837, 44.167083071799077],
              [9.934010411227378, 44.196622102224111],
              [9.897147992549231, 44.209917644625747],
              [9.864956784626829, 44.180707795094214],
              [9.857550415554559, 44.193507543456413],
              [9.87535673371781, 44.223942432141293],
              [9.857027383161208, 44.234029794165892],
              [9.854430124252357, 44.268058138888733],
              [9.765416146396504, 44.304327539594993],
              [9.710363957776474, 44.364012250742242],
              [9.686700448591345, 44.365939537622353]
            ]
          ]
        ]
      }
    }
  ]
}
