{
  "type": "FeatureCollection",
  "name": "IT-77_outline",
  "crs": {
    "type": "name",
    "properties": { "name": "urn:ogc:def:crs:OGC:1.3:CRS84" }
  },
  "features": [
    {
      "type": "Feature",
      "properties": {
        "id": "IT-77",
        "aws": [
          {
            "name": "METEOMONT Carabinieri",
            "url": [
              {
                "it": "https://meteomont.carabinieri.it/home?lang=en"
              }
            ]
          }
        ]
      },
      "geometry": {
        "type": "MultiPolygon",
        "coordinates": [
          [
            [
              [16.593786374544791, 40.130329064483306],
              [16.573548991669558, 39.976803671230428],
              [16.592128262500061, 39.959004209036742],
              [16.588476062376149, 39.951273353384266],
              [16.549784289678566, 39.926354601741949],
              [16.513223209692413, 39.864644105879243],
              [16.456553535713926, 39.863240948884538],
              [16.315793377767296, 39.790237249444417],
              [16.297512837774232, 39.825344864155419],
              [16.182345435817908, 39.881479751512714],
              [16.151268517829696, 39.866047234178666],
              [16.235359001797825, 39.795855672532369],
              [16.218906515804044, 39.760732999684663],
              [16.15126851782971, 39.762138250740001],
              [16.100210920577886, 39.71036265951399],
              [16.104424682126734, 39.666988121683659],
              [16.04367652100845, 39.627521455302798],
              [16.057484595351639, 39.589233079957403],
              [16.092313776352078, 39.584850878096304],
              [16.170463084822394, 39.535699891998824],
              [16.201311496060722, 39.480164987195451],
              [16.217763982054482, 39.438881758468547],
              [16.201311496060722, 39.310111714018518],
              [16.25272551479123, 39.27031992039651],
              [16.275347683032638, 39.340338352912852],
              [16.254782075540419, 39.402341571489821],
              [16.271234561534193, 39.553144551422179],
              [16.295913290524844, 39.583265906125632],
              [16.425476617725703, 39.633967026582724],
              [16.460438150462426, 39.629215373798544],
              [16.472777514957762, 39.61178985481768],
              [16.55503994492657, 39.610205499173411],
              [16.604397402907832, 39.57851077270869],
              [16.64552861789225, 39.588020713283136],
              [16.733960730108713, 39.537285951333189],
              [16.805940356331412, 39.516664353416388],
              [16.882033104052539, 39.511904653461251],
              [17.032162038745604, 39.421408406805035],
              [17.081519496726894, 39.370551926888737],
              [17.009539870504184, 39.343519344414283],
              [17.021879234999513, 39.29897229107668],
              [17.005426749005764, 39.271912026261035],
              [16.935503683532268, 39.29260611056057],
              [16.95812585177368, 39.25758177128408],
              [16.931390562033815, 39.195450148587298],
              [16.896429029297099, 39.166755466651196],
              [16.904655272293954, 39.117309395977408],
              [16.812110038579061, 39.122096017393716],
              [16.787431309588413, 38.991144697130167],
              [16.750413216102462, 38.968762889004715],
              [16.740130412356372, 38.931977418248344],
              [16.682546711378205, 38.930377616908849],
              [16.649641739390685, 38.912777420755383],
              [16.567379309421888, 38.928777779485706],
              [16.561209627174225, 38.907976609580658],
              [16.501569365446858, 38.869558432072886],
              [16.499512804697634, 38.750971632507706],
              [16.452211907465564, 38.693209398137498],
              [16.515965290691387, 38.651463197115888],
              [16.534474337434368, 38.593620583640501],
              [16.509795608443699, 38.511597042953852],
              [16.388458524239738, 38.368233890428996],
              [16.225990225051362, 38.326298798325396],
              [16.180745888568516, 38.245586165208806],
              [16.119049066091915, 38.240740553544185],
              [16.053239122116882, 38.211660101513679],
              [16.077917851107497, 38.164783812848874],
              [16.06352192586299, 38.125966833367329],
              [16.079974411856757, 38.117877363187674],
              [16.065578486612196, 38.069321723594435],
              [16.024447271627785, 38.033693756755369],
              [16.059408804364537, 38.025594073322132],
              [16.077917851107511, 37.989944828387941],
              [16.069691608110645, 37.964007218448018],
              [16.016221028630913, 37.936438465684851],
              [15.866092093937835, 37.968871218498734],
              [15.7673771779753, 37.962385813494507],
              [15.722132841492437, 37.991565624651194],
              [15.759150934978415, 38.027214081651529],
              [15.726245962990886, 38.051509907798582],
              [15.74681157048308, 38.069321723594435],
              [15.711850037746345, 38.087129203476778],
              [15.713906598495567, 38.11302325088873],
              [15.785886224718277, 38.166400738750518],
              [15.748868131232328, 38.182568025178121],
              [15.752981252730741, 38.208428222575137],
              [15.814678075207343, 38.231048361299237],
              [15.884601140680816, 38.31500443304914],
              [15.970976692148071, 38.356946061941265],
              [16.119049066091918, 38.37629554734346],
              [16.114935944593469, 38.437534783523027],
              [16.036786636123093, 38.52125172790133],
              [16.040899757621542, 38.582367991664547],
              [16.110822823095013, 38.588798260152004],
              [16.143727795082544, 38.611299665122075],
              [16.151954038079424, 38.646644761343168],
              [16.2301033465498, 38.714073368569608],
              [16.267121440035751, 38.775025448270284],
              [16.300026412023279, 38.890370857397819],
              [16.271234561534214, 38.954370847987384],
              [16.184859010066948, 38.989546231185408],
              [16.123162187590335, 39.047068259192692],
              [16.090257215602826, 39.225726271407602],
              [16.094370337101267, 39.330794509839869],
              [15.99976854263716, 39.499210525995451],
              [15.88800935814276, 39.593883935833539],
              [15.836843229948956, 39.721374328548237],
              [15.922761767916354, 39.76354347311905],
              [15.893512903927455, 39.801473636697267],
              [15.840499337947572, 39.80287805602989],
              [15.824046851953804, 39.816920671694461],
              [15.822218797954498, 39.837979216383012],
              [15.838671283948257, 39.842190150707623],
              [15.768485193915986, 39.936831633989563],
              [15.652037580652719, 40.078388612611739],
              [15.524245996067496, 40.084583684437114],
              [15.403594432113234, 40.011815852479351],
              [15.37800167612297, 40.01461605154774],
              [15.326816164142368, 40.042611723047614],
              [15.27928676016041, 40.095771840128464],
              [15.180571844197823, 40.148890462049636],
              [15.162291304204771, 40.210344377196662],
              [15.05992028024359, 40.185210866916343],
              [15.030671416254684, 40.221511835677866],
              [14.972173688276857, 40.249422429434055],
              [14.964861472279644, 40.302420859751869],
              [15.034327524253319, 40.369306859765672],
              [15.078200820236667, 40.386017999097092],
              [15.089169144232512, 40.466730065019533],
              [15.191540168193697, 40.447256710395251],
              [15.173259628200606, 40.477855162032185],
              [15.173259628200601, 40.55290135003137],
              [15.220789032182587, 40.544567032976538],
              [15.261777996005925, 40.573295263810245],
              [15.094842449791331, 40.607551249232209],
              [15.077757029476823, 40.623402818075625],
              [15.011313728253665, 40.627725320480828],
              [15.024802028012303, 40.65150627944729],
              [14.997461768600619, 40.683336871482886],
              [14.907277771301485, 40.664850880238035],
              [14.800031936675484, 40.716598738601789],
              [14.770783072686578, 40.707360997092202],
              [14.709847939376349, 40.722140768318546],
              [14.702535723379135, 40.749843995510425],
              [14.641600590068927, 40.810750483186176],
              [14.561634957475475, 40.840845715932105],
              [14.544549537160959, 40.871716385473107],
              [14.540101648206367, 40.900560260757096],
              [14.561166214099419, 40.930554428613867],
              [14.624538752742064, 40.947125579830114],
              [14.51485551278364, 40.987615335305485],
              [14.466107406135485, 41.035434829928093],
              [14.402734867492846, 41.048303378792887],
              [14.353986760844659, 41.09607881472904],
              [14.268677574210356, 41.096078814728948],
              [14.222366872894579, 41.130969675690849],
              [14.219929467562149, 41.193359664644753],
              [14.197992819570468, 41.213531943501827],
              [14.06881033695282, 41.20069575823036],
              [14.037124067631495, 41.226365610548704],
              [13.973751528988878, 41.239196759222018],
              [13.944502664999954, 41.274011466923341],
              [13.942065259667544, 41.310638479018642],
              [13.976188934321268, 41.334435008535344],
              [13.93962785433515, 41.341755269356661],
              [13.91037899034624, 41.376515272003886],
              [13.905111744865401, 41.426616032430019],
              [13.977906078513232, 41.462487435788368],
              [14.00704043835411, 41.451875036850332],
              [14.000706726984816, 41.430932162591063],
              [14.042388571469932, 41.392780398725996],
              [14.084769192623936, 41.400034062575926],
              [14.111440636398758, 41.386434003466363],
              [14.106754724633177, 41.418968046408992],
              [14.161431739584343, 41.400287734367872],
              [14.161431739584344, 41.414912621429018],
              [14.178493403794757, 41.414914981730547],
              [14.197992819570473, 41.350904438376048],
              [14.263802763545524, 41.323453074690796],
              [14.27355238487517, 41.288664739472331],
              [14.344237139515046, 41.253857845219784],
              [14.380798219501155, 41.165841991209263],
              [14.468544811467902, 41.162172094576803],
              [14.524605134113314, 41.184188391447194],
              [14.553853998102197, 41.215365478688888],
              [14.619663942077253, 41.222699105505697],
              [14.709847939376365, 41.180519522467939],
              [14.651350211398546, 41.105262418107337],
              [14.561166214099448, 41.05933156080939],
              [14.651350211398556, 41.02624146883538],
              [14.697660912714319, 41.064844958534003],
              [14.848780043323684, 41.063007210648074],
              [14.870716691315367, 40.987615335305485],
              [14.921902203295947, 41.013368606762839],
              [14.958463283282104, 40.967373563137059],
              [15.029148037921948, 40.934237265930378],
              [15.024273227257131, 40.834728612936118],
              [15.065709117908073, 40.8273516501648],
              [15.094957981896981, 40.853167428972228],
              [15.158330520539609, 40.849480076168142],
              [15.221703059182234, 40.823662861003733],
              [15.238672435103286, 40.79425014698915],
              [15.298179598433499, 40.787159735164586],
              [15.373934758940306, 40.812989757278139],
              [15.374368400441082, 40.813130459341451],
              [15.373637375221712, 40.813081696708316],
              [15.370799660543591, 40.812640545750732],
              [15.369590177069849, 40.812289084577301],
              [15.368438511048574, 40.811988410401888],
              [15.367227765800001, 40.811866500981672],
              [15.36645724780419, 40.812138704991071],
              [15.364324285053769, 40.813966511983672],
              [15.388970000118801, 40.819051586020819],
              [15.403594432113259, 40.821818389481116],
              [15.414562756109097, 40.813517632871608],
              [15.451123836095238, 40.810750483186176],
              [15.473060484086909, 40.813517632871608],
              [15.484028808082742, 40.816284667150491],
              [15.498653240077193, 40.821818389481138],
              [15.502309348075812, 40.824585077529605],
              [15.516933780070277, 40.832884449188178],
              [15.538870428061973, 40.841182782082569],
              [15.553494860056404, 40.84394866220309],
              [15.560807076053642, 40.8273516501648],
              [15.582743724045329, 40.816284667150505],
              [15.611992588034225, 40.810750483186162],
              [15.637585344024519, 40.802448341704682],
              [15.670490316012053, 40.794145161621067],
              [15.703395287999555, 40.794145161621081],
              [15.732644151988458, 40.796913003713193],
              [15.747268583982914, 40.791377204133703],
              [15.791141879966295, 40.791377204133703],
              [15.791141879966283, 40.802448341704768],
              [15.791141879966275, 40.821818389481152],
              [15.791141879966283, 40.832884449188363],
              [15.802110203962121, 40.838416786538659],
              [15.827702959952399, 40.838416786538708],
              [15.860607931939926, 40.827351650164793],
              [15.886200687930236, 40.821818389481152],
              [15.915449551919112, 40.819051586020819],
              [15.930073983913584, 40.802448341704689],
              [15.95201063190528, 40.769229390201836],
              [15.981259495894182, 40.758152714052713],
              [16.014164467881685, 40.749843995510375],
              [16.036101115873393, 40.730452947748866],
              [16.039757223871995, 40.705513294997559],
              [16.072662195859508, 40.694426005921883],
              [16.094598843851205, 40.691653895310807],
              [16.120191599841487, 40.683336871482886],
              [16.138472139834544, 40.661153066948472],
              [16.153096571828989, 40.641736183921509],
              [16.178689327819306, 40.636187465305007],
              [16.200625975810969, 40.61953854232312],
              [16.211594299806823, 40.591781114404654],
              [16.193313759813744, 40.572344056081462],
              [16.207938191808207, 40.564012159297846],
              [16.233530947798517, 40.547345253906116],
              [16.251811487791564, 40.536231678741174],
              [16.270092027784631, 40.525116259784213],
              [16.281060351780486, 40.483417019346277],
              [16.281060351780468, 40.475074060574272],
              [16.259123703788799, 40.461166825349387],
              [16.259123703788806, 40.436126545176997],
              [16.259123703788802, 40.422211247274056],
              [16.2627798117874, 40.411076935988106],
              [16.259123703788795, 40.391587457769795],
              [16.255467595790179, 40.380448079862575],
              [16.255467595790183, 40.349805292177628],
              [16.248155379792969, 40.324723559817237],
              [16.255467595790176, 40.313573130527267],
              [16.270092027784635, 40.29963250433984],
              [16.251811487791567, 40.271742620929331],
              [16.248155379792941, 40.260583445641636],
              [16.24449927179435, 40.255003167645341],
              [16.233530947798499, 40.246631887752407],
              [16.207938191808203, 40.213136414357152],
              [16.204282083809602, 40.210344377196655],
              [16.22256262380267, 40.17962437728869],
              [16.240843163795724, 40.165656140704932],
              [16.270092027784642, 40.146095779826503],
              [16.273748135783229, 40.146095779826446],
              [16.313965323767988, 40.154479481548663],
              [16.339558079758298, 40.174037427650063],
              [16.35418251175274, 40.204759957806807],
              [16.354182511752754, 40.218720143599612],
              [16.35418251175275, 40.23546857056364],
              [16.34321418775691, 40.257793364171278],
              [16.339558079758287, 40.277321518190789],
              [16.339558079758291, 40.294055448266874],
              [16.41999245572778, 40.288477931874439],
              [16.46020964371252, 40.266163263407933],
              [16.460209643712524, 40.25221285606564],
              [16.493114615700055, 40.235468570563633],
              [16.522363479688934, 40.218720143599612],
              [16.547956235679266, 40.19917507833734],
              [16.573548991669561, 40.19079689651776],
              [16.580861207666782, 40.174037427650049],
              [16.591829531662611, 40.151685029290988],
              [16.591829531662608, 40.137711043286018],
              [16.591829373498793, 40.13228005951391],
              [16.593657571636921, 40.131947734643958],
              [16.593657585661926, 40.130722972386856],
              [16.593786374544791, 40.130329064483306]
            ]
          ]
        ]
      }
    }
  ]
}
