{
  "type": "FeatureCollection",
  "name": "LI_outline",
  "crs": {
    "type": "name",
    "properties": { "name": "urn:ogc:def:crs:OGC:1.3:CRS84" }
  },
  "features": [
    {
      "type": "Feature",
      "properties": {
        "id": "LI",
        "aws": [
          {
            "name": "SLF",
            "url": [
              {
                "en": "https://whiterisk.ch/en/conditions"
              },
              {
                "de": "https://whiterisk.ch/de/conditions"
              },
              {
                "fr": "https://whiterisk.ch/fr/conditions"
              },
              {
                "it": "https://whiterisk.ch/it/conditions"
              }
            ]
          }
        ]
      },
      "geometry": {
        "type": "MultiPolygon",
        "coordinates": [
          [
            [
              [9.5308, 47.2707],
              [9.5674, 47.2413],
              [9.5517, 47.2238],
              [9.5586, 47.2242],
              [9.5692, 47.2194],
              [9.5848, 47.2046],
              [9.5726, 47.1908],
              [9.5735, 47.1764],
              [9.5647, 47.1703],
              [9.5794, 47.1711],
              [9.5968, 47.1629],
              [9.6062, 47.1487],
              [9.6149, 47.1478],
              [9.6206, 47.1515],
              [9.6248, 47.146],
              [9.6247, 47.1326],
              [9.6337, 47.1268],
              [9.6209, 47.1107],
              [9.6344, 47.1011],
              [9.6354, 47.0906],
              [9.6336, 47.0834],
              [9.6235, 47.0825],
              [9.6187, 47.0781],
              [9.6115, 47.0794],
              [9.6135, 47.0695],
              [9.6071, 47.0608],
              [9.6028, 47.0619],
              [9.5877, 47.0552],
              [9.5569, 47.0493],
              [9.552, 47.0579],
              [9.5398, 47.0651],
              [9.5305, 47.063],
              [9.5117, 47.0576],
              [9.5009, 47.0571],
              [9.4972, 47.0552],
              [9.4923, 47.0565],
              [9.4847, 47.0506],
              [9.4797, 47.0558],
              [9.4761, 47.0518],
              [9.4722, 47.0613],
              [9.4722, 47.0631],
              [9.473, 47.0644],
              [9.4749, 47.0659],
              [9.5122, 47.0854],
              [9.5144, 47.0867],
              [9.5156, 47.0884],
              [9.5195, 47.0972],
              [9.5203, 47.1002],
              [9.5201, 47.1034],
              [9.5172, 47.1151],
              [9.5152, 47.122],
              [9.5096, 47.139],
              [9.5037, 47.1472],
              [9.4994, 47.1518],
              [9.4954, 47.1569],
              [9.4862, 47.1783],
              [9.4876, 47.1903],
              [9.4893, 47.196],
              [9.4902, 47.1982],
              [9.4961, 47.2067],
              [9.4991, 47.2106],
              [9.4996, 47.2126],
              [9.5002, 47.2161],
              [9.5013, 47.22],
              [9.5027, 47.2228],
              [9.5043, 47.2249],
              [9.5104, 47.2318],
              [9.5212, 47.2459],
              [9.5291, 47.2621],
              [9.5298, 47.2694],
              [9.5308, 47.2707]
            ]
          ]
        ]
      }
    }
  ]
}
