[
  {
    "id": "AT-07-24",
    "elevation": "low",
    "threshold": 3400,
    "elevation line_visualization": 2000,
    "start_date": null,
    "end_date": "2022-10-01"
  },
  {
    "id": "AT-07-24",
    "elevation": "high",
    "threshold": 3400,
    "elevation line_visualization": 2000,
    "start_date": null,
    "end_date": "2022-10-01"
  },
  {
    "id": "AT-07-27",
    "elevation": "low",
    "threshold": 2700,
    "elevation line_visualization": 2000,
    "start_date": null,
    "end_date": null
  },
  {
    "id": "AT-07-27",
    "elevation": "high",
    "threshold": 2700,
    "elevation line_visualization": 2000,
    "start_date": null,
    "end_date": null
  },
  {
    "id": "AT-07-29",
    "elevation": "low",
    "threshold": 2500,
    "elevation line_visualization": 1900,
    "start_date": null,
    "end_date": null
  },
  {
    "id": "AT-07-29",
    "elevation": "high",
    "threshold": 2500,
    "elevation line_visualization": 1900,
    "start_date": null,
    "end_date": null
  },
  {
    "id": "AT-07-23",
    "elevation": "low",
    "threshold": 3200,
    "elevation line_visualization": 2000,
    "start_date": null,
    "end_date": null
  },
  {
    "id": "AT-07-23",
    "elevation": "high",
    "threshold": 3200,
    "elevation line_visualization": 2000,
    "start_date": null,
    "end_date": null
  },
  {
    "id": "AT-07-15",
    "elevation": "low",
    "threshold": 2600,
    "elevation line_visualization": 2000,
    "start_date": null,
    "end_date": null
  },
  {
    "id": "AT-07-15",
    "elevation": "high",
    "threshold": 2600,
    "elevation line_visualization": 2000,
    "start_date": null,
    "end_date": null
  },
  {
    "id": "AT-07-17-01",
    "elevation": "low",
    "threshold": 2400,
    "elevation line_visualization": 1700,
    "start_date": "2022-10-01",
    "end_date": null
  },
  {
    "id": "AT-07-17-02",
    "elevation": "low",
    "threshold": 2400,
    "elevation line_visualization": 1700,
    "start_date": "2022-10-01",
    "end_date": null
  },
  {
    "id": "AT-07-17",
    "elevation": "low",
    "threshold": 2400,
    "elevation line_visualization": 1700,
    "start_date": null,
    "end_date": "2022-10-01"
  },
  {
    "id": "AT-07-17-01",
    "elevation": "high",
    "threshold": 2400,
    "elevation line_visualization": 1700,
    "start_date": "2022-10-01",
    "end_date": null
  },
  {
    "id": "AT-07-17-02",
    "elevation": "high",
    "threshold": 2400,
    "elevation line_visualization": 1700,
    "start_date": "2022-10-01",
    "end_date": null
  },
  {
    "id": "AT-07-17",
    "elevation": "high",
    "threshold": 2400,
    "elevation line_visualization": 1700,
    "start_date": null,
    "end_date": "2022-10-01"
  },
  {
    "id": "AT-07-06",
    "elevation": "low",
    "threshold": 2200,
    "elevation line_visualization": 1600,
    "start_date": null,
    "end_date": null
  },
  {
    "id": "AT-07-06",
    "elevation": "high",
    "threshold": 2200,
    "elevation line_visualization": 1600,
    "start_date": null,
    "end_date": null
  },
  {
    "id": "AT-07-04-01",
    "elevation": "low",
    "threshold": 2500,
    "elevation line_visualization": 1700,
    "start_date": "2022-10-01",
    "end_date": null
  },
  {
    "id": "AT-07-04-02",
    "elevation": "low",
    "threshold": 2500,
    "elevation line_visualization": 1700,
    "start_date": "2022-10-01",
    "end_date": null
  },
  {
    "id": "AT-07-04",
    "elevation": "low",
    "threshold": 2500,
    "elevation line_visualization": 1700,
    "start_date": null,
    "end_date": "2022-10-01"
  },
  {
    "id": "AT-07-04-01",
    "elevation": "high",
    "threshold": 2500,
    "elevation line_visualization": 1700,
    "start_date": "2022-10-01",
    "end_date": null
  },
  {
    "id": "AT-07-04-02",
    "elevation": "high",
    "threshold": 2500,
    "elevation line_visualization": 1700,
    "start_date": "2022-10-01",
    "end_date": null
  },
  {
    "id": "AT-07-04",
    "elevation": "high",
    "threshold": 2500,
    "elevation line_visualization": 1700,
    "start_date": null,
    "end_date": "2022-10-01"
  },
  {
    "id": "AT-07-08",
    "elevation": "low",
    "threshold": 2600,
    "elevation line_visualization": 1900,
    "start_date": null,
    "end_date": null
  },
  {
    "id": "AT-07-08",
    "elevation": "high",
    "threshold": 2600,
    "elevation line_visualization": 1900,
    "start_date": null,
    "end_date": null
  },
  {
    "id": "AT-07-13",
    "elevation": "low",
    "threshold": 2800,
    "elevation line_visualization": 2000,
    "start_date": null,
    "end_date": null
  },
  {
    "id": "AT-07-13",
    "elevation": "high",
    "threshold": 2800,
    "elevation line_visualization": 2000,
    "start_date": null,
    "end_date": null
  },
  {
    "id": "AT-07-20",
    "elevation": "low",
    "threshold": 3400,
    "elevation line_visualization": 2000,
    "start_date": null,
    "end_date": null
  },
  {
    "id": "AT-07-20",
    "elevation": "high",
    "threshold": 3400,
    "elevation line_visualization": 2000,
    "start_date": null,
    "end_date": null
  },
  {
    "id": "AT-07-14-04",
    "elevation": "low",
    "threshold": 3200,
    "elevation line_visualization": 2000,
    "start_date": "2022-10-01",
    "end_date": null
  },
  {
    "id": "AT-07-14-05",
    "elevation": "low",
    "threshold": 3200,
    "elevation line_visualization": 2000,
    "start_date": "2022-10-01",
    "end_date": null
  },
  {
    "id": "AT-07-14-01",
    "elevation": "low",
    "threshold": 3200,
    "elevation line_visualization": 2000,
    "start_date": "2022-10-01",
    "end_date": null
  },
  {
    "id": "AT-07-14-03",
    "elevation": "low",
    "threshold": 3200,
    "elevation line_visualization": 2000,
    "start_date": "2022-10-01",
    "end_date": null
  },
  {
    "id": "AT-07-14-02",
    "elevation": "low",
    "threshold": 3200,
    "elevation line_visualization": 2000,
    "start_date": "2022-10-01",
    "end_date": null
  },
  {
    "id": "AT-07-14",
    "elevation": "low",
    "threshold": 3200,
    "elevation line_visualization": 2000,
    "start_date": null,
    "end_date": "2022-10-01"
  },
  {
    "id": "AT-07-14-04",
    "elevation": "high",
    "threshold": 3200,
    "elevation line_visualization": 2000,
    "start_date": "2022-10-01",
    "end_date": null
  },
  {
    "id": "AT-07-14-05",
    "elevation": "high",
    "threshold": 3200,
    "elevation line_visualization": 2000,
    "start_date": "2022-10-01",
    "end_date": null
  },
  {
    "id": "AT-07-14-01",
    "elevation": "high",
    "threshold": 3200,
    "elevation line_visualization": 2000,
    "start_date": "2022-10-01",
    "end_date": null
  },
  {
    "id": "AT-07-14-03",
    "elevation": "high",
    "threshold": 3200,
    "elevation line_visualization": 2000,
    "start_date": "2022-10-01",
    "end_date": null
  },
  {
    "id": "AT-07-14-02",
    "elevation": "high",
    "threshold": 3200,
    "elevation line_visualization": 2000,
    "start_date": "2022-10-01",
    "end_date": null
  },
  {
    "id": "AT-07-14",
    "elevation": "high",
    "threshold": 3200,
    "elevation line_visualization": 2000,
    "start_date": null,
    "end_date": "2022-10-01"
  },
  {
    "id": "AT-07-01",
    "elevation": "low",
    "threshold": 2400,
    "elevation line_visualization": 1850,
    "start_date": null,
    "end_date": null
  },
  {
    "id": "AT-07-01",
    "elevation": "high",
    "threshold": 2400,
    "elevation line_visualization": 1850,
    "start_date": null,
    "end_date": null
  },
  {
    "id": "AT-07-12",
    "elevation": "low",
    "threshold": 3000,
    "elevation line_visualization": 2050,
    "start_date": null,
    "end_date": null
  },
  {
    "id": "AT-07-12",
    "elevation": "high",
    "threshold": 3000,
    "elevation line_visualization": 2050,
    "start_date": null,
    "end_date": null
  },
  {
    "id": "AT-07-10",
    "elevation": "low",
    "threshold": 2800,
    "elevation line_visualization": 1900,
    "start_date": null,
    "end_date": null
  },
  {
    "id": "AT-07-10",
    "elevation": "high",
    "threshold": 2800,
    "elevation line_visualization": 1900,
    "start_date": null,
    "end_date": null
  },
  {
    "id": "AT-07-28",
    "elevation": "low",
    "threshold": 3000,
    "elevation line_visualization": 2100,
    "start_date": null,
    "end_date": null
  },
  {
    "id": "AT-07-28",
    "elevation": "high",
    "threshold": 3000,
    "elevation line_visualization": 2100,
    "start_date": null,
    "end_date": null
  },
  {
    "id": "AT-07-26",
    "elevation": "low",
    "threshold": 3400,
    "elevation line_visualization": 2100,
    "start_date": null,
    "end_date": null
  },
  {
    "id": "AT-07-26",
    "elevation": "high",
    "threshold": 3400,
    "elevation line_visualization": 2100,
    "start_date": null,
    "end_date": null
  },
  {
    "id": "AT-07-16",
    "elevation": "low",
    "threshold": 2600,
    "elevation line_visualization": 1900,
    "start_date": null,
    "end_date": null
  },
  {
    "id": "AT-07-16",
    "elevation": "high",
    "threshold": 2600,
    "elevation line_visualization": 1900,
    "start_date": null,
    "end_date": null
  },
  {
    "id": "AT-07-05",
    "elevation": "low",
    "threshold": 2000,
    "elevation line_visualization": 1600,
    "start_date": null,
    "end_date": null
  },
  {
    "id": "AT-07-05",
    "elevation": "high",
    "threshold": 2000,
    "elevation line_visualization": 1600,
    "start_date": null,
    "end_date": null
  },
  {
    "id": "AT-07-03",
    "elevation": "low",
    "threshold": 2500,
    "elevation line_visualization": 1800,
    "start_date": null,
    "end_date": null
  },
  {
    "id": "AT-07-03",
    "elevation": "high",
    "threshold": 2500,
    "elevation line_visualization": 1800,
    "start_date": null,
    "end_date": null
  },
  {
    "id": "AT-07-22",
    "elevation": "low",
    "threshold": 3200,
    "elevation line_visualization": 2050,
    "start_date": null,
    "end_date": null
  },
  {
    "id": "AT-07-22",
    "elevation": "high",
    "threshold": 3200,
    "elevation line_visualization": 2050,
    "start_date": null,
    "end_date": null
  },
  {
    "id": "AT-07-02-02",
    "elevation": "low",
    "threshold": 2600,
    "elevation line_visualization": 1850,
    "start_date": "2022-10-01",
    "end_date": null
  },
  {
    "id": "AT-07-02-01",
    "elevation": "low",
    "threshold": 2600,
    "elevation line_visualization": 1850,
    "start_date": "2022-10-01",
    "end_date": null
  },
  {
    "id": "AT-07-02",
    "elevation": "low",
    "threshold": 2600,
    "elevation line_visualization": 1850,
    "start_date": null,
    "end_date": "2022-10-01"
  },
  {
    "id": "AT-07-02-02",
    "elevation": "high",
    "threshold": 2600,
    "elevation line_visualization": 1850,
    "start_date": "2022-10-01",
    "end_date": null
  },
  {
    "id": "AT-07-02-01",
    "elevation": "high",
    "threshold": 2600,
    "elevation line_visualization": 1850,
    "start_date": "2022-10-01",
    "end_date": null
  },
  {
    "id": "AT-07-02",
    "elevation": "high",
    "threshold": 2600,
    "elevation line_visualization": 1850,
    "start_date": null,
    "end_date": "2022-10-01"
  },
  {
    "id": "AT-07-25",
    "elevation": "low",
    "threshold": 3000,
    "elevation line_visualization": 2000,
    "start_date": null,
    "end_date": "2022-10-01"
  },
  {
    "id": "AT-07-25",
    "elevation": "high",
    "threshold": 3000,
    "elevation line_visualization": 2000,
    "start_date": null,
    "end_date": "2022-10-01"
  },
  {
    "id": "AT-07-18",
    "elevation": "low",
    "threshold": 2000,
    "elevation line_visualization": 1600,
    "start_date": null,
    "end_date": null
  },
  {
    "id": "AT-07-18",
    "elevation": "high",
    "threshold": 2000,
    "elevation line_visualization": 1600,
    "start_date": null,
    "end_date": null
  },
  {
    "id": "AT-07-09",
    "elevation": "low",
    "threshold": 2700,
    "elevation line_visualization": 1900,
    "start_date": null,
    "end_date": null
  },
  {
    "id": "AT-07-09",
    "elevation": "high",
    "threshold": 2700,
    "elevation line_visualization": 1900,
    "start_date": null,
    "end_date": null
  },
  {
    "id": "AT-07-21",
    "elevation": "low",
    "threshold": 3200,
    "elevation line_visualization": 2000,
    "start_date": null,
    "end_date": null
  },
  {
    "id": "AT-07-21",
    "elevation": "high",
    "threshold": 3200,
    "elevation line_visualization": 2000,
    "start_date": null,
    "end_date": null
  },
  {
    "id": "AT-07-19",
    "elevation": "low",
    "threshold": 3200,
    "elevation line_visualization": 2100,
    "start_date": null,
    "end_date": null
  },
  {
    "id": "AT-07-19",
    "elevation": "high",
    "threshold": 3200,
    "elevation line_visualization": 2100,
    "start_date": null,
    "end_date": null
  },
  {
    "id": "AT-07-07",
    "elevation": "low",
    "threshold": 2600,
    "elevation line_visualization": 1900,
    "start_date": null,
    "end_date": null
  },
  {
    "id": "AT-07-07",
    "elevation": "high",
    "threshold": 2600,
    "elevation line_visualization": 1900,
    "start_date": null,
    "end_date": null
  },
  {
    "id": "AT-07-11",
    "elevation": "low",
    "threshold": 2800,
    "elevation line_visualization": 1900,
    "start_date": null,
    "end_date": null
  },
  {
    "id": "AT-07-11",
    "elevation": "high",
    "threshold": 2800,
    "elevation line_visualization": 1900,
    "start_date": null,
    "end_date": null
  },
  {
    "id": "AT-07-24",
    "elevation": "low",
    "threshold": 3400,
    "elevation line_visualization": 2000,
    "start_date": "2022-10-01",
    "end_date": null
  },
  {
    "id": "AT-07-24",
    "elevation": "high",
    "threshold": 3400,
    "elevation line_visualization": 2000,
    "start_date": "2022-10-01",
    "end_date": null
  },
  {
    "id": "AT-07-25",
    "elevation": "low",
    "threshold": 3000,
    "elevation line_visualization": 2000,
    "start_date": "2022-10-01",
    "end_date": null
  },
  {
    "id": "AT-07-25",
    "elevation": "high",
    "threshold": 3000,
    "elevation line_visualization": 2000,
    "start_date": "2022-10-01",
    "end_date": null
  }
]