[
  {
    "id": "AT-05-19",
    "elevation": "low",
    "elevation line_visualization": null,
    "threshold": null
  },
  {
    "id": "AT-05-17",
    "elevation": "low",
    "elevation line_visualization": null,
    "threshold": null
  },
  {
    "id": "AT-05-14",
    "elevation": "low",
    "elevation line_visualization": null,
    "threshold": null
  },
  {
    "id": "AT-05-09",
    "elevation": "low",
    "elevation line_visualization": null,
    "threshold": null
  },
  {
    "id": "AT-05-01",
    "elevation": "low",
    "elevation line_visualization": null,
    "threshold": null
  },
  {
    "id": "AT-05-02",
    "elevation": "low",
    "elevation line_visualization": null,
    "threshold": null
  },
  {
    "id": "AT-05-20",
    "elevation": "low",
    "elevation line_visualization": null,
    "threshold": null
  },
  {
    "id": "AT-05-16",
    "elevation": "low",
    "elevation line_visualization": null,
    "threshold": null
  },
  {
    "id": "AT-05-12",
    "elevation": "low",
    "elevation line_visualization": null,
    "threshold": null
  },
  {
    "id": "AT-05-03",
    "elevation": "low",
    "elevation line_visualization": null,
    "threshold": null
  },
  {
    "id": "AT-05-08",
    "elevation": "low",
    "elevation line_visualization": null,
    "threshold": null
  },
  {
    "id": "AT-05-04",
    "elevation": "low",
    "elevation line_visualization": null,
    "threshold": null
  },
  {
    "id": "AT-05-05",
    "elevation": "low",
    "elevation line_visualization": null,
    "threshold": null
  },
  {
    "id": "AT-05-10",
    "elevation": "low",
    "elevation line_visualization": null,
    "threshold": null
  },
  {
    "id": "AT-05-06",
    "elevation": "low",
    "elevation line_visualization": null,
    "threshold": null
  },
  {
    "id": "AT-05-07",
    "elevation": "low",
    "elevation line_visualization": null,
    "threshold": null
  },
  {
    "id": "AT-05-11",
    "elevation": "low",
    "elevation line_visualization": null,
    "threshold": null
  },
  {
    "id": "AT-05-15",
    "elevation": "low",
    "elevation line_visualization": null,
    "threshold": null
  },
  {
    "id": "AT-05-13",
    "elevation": "low",
    "elevation line_visualization": null,
    "threshold": null
  },
  {
    "id": "AT-05-18",
    "elevation": "low",
    "elevation line_visualization": null,
    "threshold": null
  },
  {
    "id": "AT-05-21",
    "elevation": "low",
    "elevation line_visualization": null,
    "threshold": null
  },
  {
    "id": "AT-05-19",
    "elevation": "high",
    "elevation line_visualization": null,
    "threshold": null
  },
  {
    "id": "AT-05-17",
    "elevation": "high",
    "elevation line_visualization": null,
    "threshold": null
  },
  {
    "id": "AT-05-14",
    "elevation": "high",
    "elevation line_visualization": null,
    "threshold": null
  },
  {
    "id": "AT-05-09",
    "elevation": "high",
    "elevation line_visualization": null,
    "threshold": null
  },
  {
    "id": "AT-05-01",
    "elevation": "high",
    "elevation line_visualization": null,
    "threshold": null
  },
  {
    "id": "AT-05-02",
    "elevation": "high",
    "elevation line_visualization": null,
    "threshold": null
  },
  {
    "id": "AT-05-20",
    "elevation": "high",
    "elevation line_visualization": null,
    "threshold": null
  },
  {
    "id": "AT-05-16",
    "elevation": "high",
    "elevation line_visualization": null,
    "threshold": null
  },
  {
    "id": "AT-05-12",
    "elevation": "high",
    "elevation line_visualization": null,
    "threshold": null
  },
  {
    "id": "AT-05-03",
    "elevation": "high",
    "elevation line_visualization": null,
    "threshold": null
  },
  {
    "id": "AT-05-08",
    "elevation": "high",
    "elevation line_visualization": null,
    "threshold": null
  },
  {
    "id": "AT-05-04",
    "elevation": "high",
    "elevation line_visualization": null,
    "threshold": null
  },
  {
    "id": "AT-05-05",
    "elevation": "high",
    "elevation line_visualization": null,
    "threshold": null
  },
  {
    "id": "AT-05-10",
    "elevation": "high",
    "elevation line_visualization": null,
    "threshold": null
  },
  {
    "id": "AT-05-06",
    "elevation": "high",
    "elevation line_visualization": null,
    "threshold": null
  },
  {
    "id": "AT-05-07",
    "elevation": "high",
    "elevation line_visualization": null,
    "threshold": null
  },
  {
    "id": "AT-05-11",
    "elevation": "high",
    "elevation line_visualization": null,
    "threshold": null
  },
  {
    "id": "AT-05-15",
    "elevation": "high",
    "elevation line_visualization": null,
    "threshold": null
  },
  {
    "id": "AT-05-13",
    "elevation": "high",
    "elevation line_visualization": null,
    "threshold": null
  },
  {
    "id": "AT-05-18",
    "elevation": "high",
    "elevation line_visualization": null,
    "threshold": null
  },
  {
    "id": "AT-05-21",
    "elevation": "high",
    "elevation line_visualization": null,
    "threshold": null
  }
]