[
  {
    "id": "ES-CT-RF",
    "elevation": "low_high"
  },
  {
    "id": "ES-CT-PA",
    "elevation": "low_high"
  },
  {
    "id": "ES-CT-PP",
    "elevation": "low_high"
  },
  {
    "id": "ES-CT-VN",
    "elevation": "low_high"
  },
  {
    "id": "ES-CT-TF",
    "elevation": "low_high"
  },
  {
    "id": "ES-CT-PR",
    "elevation": "low_high"
  },
  {
    "id": "ES-CT-L-04",
    "elevation": "low_high"
  }
]