[
  {
    "id": "GB-SCT-4",
    "elevation": "low_high"
  },
  {
    "id": "GB-SCT-7",
    "elevation": "low_high"
  },
  {
    "id": "GB-SCT-5",
    "elevation": "low_high"
  },
  {
    "id": "GB-SCT-2",
    "elevation": "low_high"
  },
  {
    "id": "GB-SCT-3",
    "elevation": "low_high"
  },
  {
    "id": "GB-SCT-6",
    "elevation": "low_high"
  }
]