[
  {
    "id": "IT-36-PN-02",
    "start_date": "2022-03-04",
    "end_date": null,
    "elevation": "low",
    "threshold": null,
    "elevation line_visualization": null
  },
  {
    "id": "IT-36-PN-01",
    "start_date": "2022-03-04",
    "end_date": null,
    "elevation": "low",
    "threshold": null,
    "elevation line_visualization": null
  },
  {
    "id": "IT-36-UD-02",
    "start_date": "2022-03-04",
    "end_date": null,
    "elevation": "low",
    "threshold": null,
    "elevation line_visualization": null
  },
  {
    "id": "IT-36-UD-05",
    "start_date": "2022-03-04",
    "end_date": null,
    "elevation": "low",
    "threshold": null,
    "elevation line_visualization": null
  },
  {
    "id": "IT-36-UD-04",
    "start_date": "2022-03-04",
    "end_date": null,
    "elevation": "low",
    "threshold": null,
    "elevation line_visualization": null
  },
  {
    "id": "IT-36-UD-01",
    "start_date": "2022-03-04",
    "end_date": null,
    "elevation": "low",
    "threshold": null,
    "elevation line_visualization": null
  },
  {
    "id": "IT-36-UD-03",
    "start_date": "2022-03-04",
    "end_date": null,
    "elevation": "low",
    "threshold": null,
    "elevation line_visualization": null
  },
  {
    "id": "IT-36-PN-02",
    "start_date": "2022-03-04",
    "end_date": null,
    "elevation": "high",
    "threshold": null,
    "elevation line_visualization": null
  },
  {
    "id": "IT-36-PN-01",
    "start_date": "2022-03-04",
    "end_date": null,
    "elevation": "high",
    "threshold": null,
    "elevation line_visualization": null
  },
  {
    "id": "IT-36-UD-02",
    "start_date": "2022-03-04",
    "end_date": null,
    "elevation": "high",
    "threshold": null,
    "elevation line_visualization": null
  },
  {
    "id": "IT-36-UD-05",
    "start_date": "2022-03-04",
    "end_date": null,
    "elevation": "high",
    "threshold": null,
    "elevation line_visualization": null
  },
  {
    "id": "IT-36-UD-04",
    "start_date": "2022-03-04",
    "end_date": null,
    "elevation": "high",
    "threshold": null,
    "elevation line_visualization": null
  },
  {
    "id": "IT-36-UD-01",
    "start_date": "2022-03-04",
    "end_date": null,
    "elevation": "high",
    "threshold": null,
    "elevation line_visualization": null
  },
  {
    "id": "IT-36-UD-03",
    "start_date": "2022-03-04",
    "end_date": null,
    "elevation": "high",
    "threshold": null,
    "elevation line_visualization": null
  },
  {
    "id": "IT-36-UD-01",
    "start_date": null,
    "end_date": "2022-03-04",
    "elevation": "low",
    "threshold": null,
    "elevation line_visualization": 1900
  },
  {
    "id": "IT-36-UD-02",
    "start_date": null,
    "end_date": "2022-03-04",
    "elevation": "low",
    "threshold": null,
    "elevation line_visualization": 1600
  },
  {
    "id": "IT-36-UD-03",
    "start_date": null,
    "end_date": "2022-03-04",
    "elevation": "low",
    "threshold": null,
    "elevation line_visualization": 1500
  },
  {
    "id": "IT-36-UD-04",
    "start_date": null,
    "end_date": "2022-03-04",
    "elevation": "low",
    "threshold": null,
    "elevation line_visualization": 1500
  },
  {
    "id": "IT-36-UD-05",
    "start_date": null,
    "end_date": "2022-03-04",
    "elevation": "low",
    "threshold": null,
    "elevation line_visualization": 1600
  },
  {
    "id": "IT-36-PN-01",
    "start_date": null,
    "end_date": "2022-03-04",
    "elevation": "low",
    "threshold": null,
    "elevation line_visualization": 1900
  },
  {
    "id": "IT-36-PN-02",
    "start_date": null,
    "end_date": "2022-03-04",
    "elevation": "low",
    "threshold": null,
    "elevation line_visualization": 1500
  },
  {
    "id": "IT-36-PN-01",
    "start_date": null,
    "end_date": "2022-03-04",
    "elevation": "high",
    "threshold": null,
    "elevation line_visualization": 1900
  },
  {
    "id": "IT-36-PN-02",
    "start_date": null,
    "end_date": "2022-03-04",
    "elevation": "high",
    "threshold": null,
    "elevation line_visualization": 1500
  },
  {
    "id": "IT-36-UD-01",
    "start_date": null,
    "end_date": "2022-03-04",
    "elevation": "high",
    "threshold": null,
    "elevation line_visualization": 1900
  },
  {
    "id": "IT-36-UD-02",
    "start_date": null,
    "end_date": "2022-03-04",
    "elevation": "high",
    "threshold": null,
    "elevation line_visualization": 1600
  },
  {
    "id": "IT-36-UD-03",
    "start_date": null,
    "end_date": "2022-03-04",
    "elevation": "high",
    "threshold": null,
    "elevation line_visualization": 1500
  },
  {
    "id": "IT-36-UD-04",
    "start_date": null,
    "end_date": "2022-03-04",
    "elevation": "high",
    "threshold": null,
    "elevation line_visualization": 1500
  },
  {
    "id": "IT-36-UD-05",
    "start_date": null,
    "end_date": "2022-03-04",
    "elevation": "high",
    "threshold": null,
    "elevation line_visualization": 1600
  }
]