{
"type": "FeatureCollection",
"name": "AT",
"crs": { "type": "name", "properties": { "name": "urn:ogc:def:crs:OGC:1.3:CRS84" } },
"features": [
{ "type": "Feature", "properties": { "ID": "AT"},"geometry": { "type": "MultiPolygon", "coordinates":[ [ [ [ 13.8400311, 48.7718564 ], [ 13.8359945, 48.7629392 ], [ 13.8209681, 48.7544336 ], [ 13.818025, 48.7313231 ], [ 13.8096339, 48.7291624 ], [ 13.793924, 48.7155693 ], [ 13.7939936, 48.7152818 ], [ 13.7943165, 48.7143236 ], [ 13.7948527, 48.7139645 ], [ 13.796282, 48.7129476 ], [ 13.7981617, 48.7120479 ], [ 13.7989648, 48.7113903 ], [ 13.799678, 48.7107331 ], [ 13.8003896, 48.7098975 ], [ 13.8017314, 48.7091783 ], [ 13.8029866, 48.7088164 ], [ 13.8046916, 48.7085121 ], [ 13.806309, 48.7084462 ], [ 13.807478, 48.708501 ], [ 13.8086454, 48.7083773 ], [ 13.8091836, 48.7082562 ], [ 13.8106163, 48.7076555 ], [ 13.8111501, 48.7070584 ], [ 13.8117693, 48.7059851 ], [ 13.8116707, 48.7050337 ], [ 13.8114816, 48.7040231 ], [ 13.8113834, 48.7031312 ], [ 13.8117369, 48.7024754 ], [ 13.8126296, 48.7018173 ], [ 13.8135655, 48.7015311 ], [ 13.8136154, 48.7015159 ], [ 13.8141634, 48.7013925 ], [ 13.8154988, 48.7010918 ], [ 13.8163372, 48.7009494 ], [ 13.8165756, 48.7009089 ], [ 13.8167073, 48.7008792 ], [ 13.8173827, 48.7007271 ], [ 13.8180978, 48.7003078 ], [ 13.8189022, 48.6998286 ], [ 13.820517, 48.6995244 ], [ 13.8224031, 48.6993977 ], [ 13.8248301, 48.6994471 ], [ 13.8278907, 48.6999697 ], [ 13.8320275, 48.7002498 ], [ 13.8349944, 48.7003562 ], [ 13.8355794, 48.7003649 ], [ 13.8356922, 48.7003666 ], [ 13.8372529, 48.7003195 ], [ 13.8372527, 48.7003192 ], [ 13.8337466, 48.6920398 ], [ 13.8170119, 48.6948268 ], [ 13.8141641, 48.6924556 ], [ 13.8134574, 48.6837806 ], [ 13.8198892, 48.6704541 ], [ 13.8176064, 48.658863 ], [ 13.8144215, 48.6493621 ], [ 13.8262006, 48.635257 ], [ 13.8257514, 48.6182904 ], [ 13.8160875, 48.6146709 ], [ 13.8084908, 48.5999454 ], [ 13.8014744, 48.5977258 ], [ 13.8071777, 48.5841057 ], [ 13.8009656, 48.5733036 ], [ 13.790409, 48.5717542 ], [ 13.7705373, 48.5535666 ], [ 13.7643368, 48.5604063 ], [ 13.7607088, 48.5656087 ], [ 13.7561638, 48.5648608 ], [ 13.7482095, 48.5564184 ], [ 13.7470939, 48.5524387 ], [ 13.7546564, 48.5513053 ], [ 13.7437091, 48.5442493 ], [ 13.748903, 48.5384126 ], [ 13.7477739, 48.5294151 ], [ 13.7332638, 48.5247538 ], [ 13.7266476, 48.5129148 ], [ 13.7248294, 48.5137826 ], [ 13.7221768, 48.5147691 ], [ 13.7175977, 48.515985 ], [ 13.7088033, 48.5177782 ], [ 13.7035225, 48.5192546 ], [ 13.6992254, 48.5209497 ], [ 13.6832221, 48.5277569 ], [ 13.677022, 48.5301227 ], [ 13.6664399, 48.5344444 ], [ 13.6646983, 48.5353089 ], [ 13.662387, 48.5368562 ], [ 13.6612487, 48.5374915 ], [ 13.6596666, 48.538745 ], [ 13.6584058, 48.5402571 ], [ 13.6559562, 48.5445728 ], [ 13.6542053, 48.5466357 ], [ 13.6540299, 48.5468973 ], [ 13.6530533, 48.5480249 ], [ 13.6514757, 48.5493409 ], [ 13.6504645, 48.5498981 ], [ 13.6488458, 48.5505616 ], [ 13.6411934, 48.5521656 ], [ 13.6323506, 48.5535982 ], [ 13.625763, 48.5550425 ], [ 13.623658, 48.555569 ], [ 13.6184601, 48.5568689 ], [ 13.6156098, 48.5580394 ], [ 13.6121646, 48.5594541 ], [ 13.6068758, 48.5627029 ], [ 13.6028731, 48.565187 ], [ 13.5990096, 48.5669091 ], [ 13.5958568, 48.5673921 ], [ 13.5932752, 48.5673978 ], [ 13.5906903, 48.5667371 ], [ 13.5881031, 48.5656004 ], [ 13.5857367, 48.5639578 ], [ 13.585369, 48.5637025 ], [ 13.58221, 48.5613979 ], [ 13.5803347, 48.5605719 ], [ 13.5784682, 48.5600998 ], [ 13.5755984, 48.5597249 ], [ 13.5735908, 48.559729 ], [ 13.5708697, 48.560496 ], [ 13.568865, 48.5611664 ], [ 13.5637125, 48.563461 ], [ 13.5564144, 48.5671874 ], [ 13.550693, 48.5704811 ], [ 13.5443471, 48.5748512 ], [ 13.5351174, 48.5806738 ], [ 13.5292477, 48.58392 ], [ 13.5259412, 48.5856349 ], [ 13.524737, 48.5862594 ], [ 13.5208697, 48.5880742 ], [ 13.5189347, 48.5886483 ], [ 13.5171425, 48.5890319 ], [ 13.5154203, 48.5892895 ], [ 13.5145127, 48.5894253 ], [ 13.512552, 48.5893244 ], [ 13.5102555, 48.5890899 ], [ 13.5079587, 48.5887601 ], [ 13.5063783, 48.5881437 ], [ 13.5056413, 48.5876332 ], [ 13.5049299, 48.5869672 ], [ 13.5040042, 48.5861006 ], [ 13.5025641, 48.5844369 ], [ 13.5006183, 48.5816316 ], [ 13.4998932, 48.580855 ], [ 13.5070466, 48.5761502 ], [ 13.5038692, 48.5722763 ], [ 13.4851238, 48.5615018 ], [ 13.4789274, 48.5645133 ], [ 13.4744748, 48.5614162 ], [ 13.4749212, 48.5561012 ], [ 13.4638488, 48.5541894 ], [ 13.4502303, 48.5641946 ], [ 13.4439787, 48.5608273 ], [ 13.439671, 48.558035 ], [ 13.438413, 48.5563703 ], [ 13.4377684, 48.5544919 ], [ 13.4382258, 48.5523844 ], [ 13.4392961, 48.5498253 ], [ 13.4399744, 48.5487058 ], [ 13.4399787, 48.5486988 ], [ 13.4411716, 48.54673 ], [ 13.4434056, 48.5438128 ], [ 13.4465352, 48.5408352 ], [ 13.4486788, 48.5377989 ], [ 13.4492106, 48.5351807 ], [ 13.4486701, 48.5338129 ], [ 13.4470539, 48.5320891 ], [ 13.4458606, 48.5306754 ], [ 13.4453477, 48.5300679 ], [ 13.4449869, 48.5288783 ], [ 13.445139, 48.5277341 ], [ 13.4464302, 48.5252359 ], [ 13.448252, 48.5228069 ], [ 13.452649, 48.5185904 ], [ 13.4553282, 48.515375 ], [ 13.4559672, 48.5128755 ], [ 13.4559599, 48.5097342 ], [ 13.4546603, 48.5053092 ], [ 13.4523989, 48.5017283 ], [ 13.4442771, 48.4853072 ], [ 13.4434467, 48.483867 ], [ 13.4423708, 48.4829161 ], [ 13.4403092, 48.4813116 ], [ 13.4391434, 48.4800632 ], [ 13.438637, 48.4791074 ], [ 13.4292548, 48.4624418 ], [ 13.4287259, 48.4612717 ], [ 13.4285476, 48.4606171 ], [ 13.4283683, 48.4592487 ], [ 13.4282709, 48.4568659 ], [ 13.4285476, 48.4548956 ], [ 13.4288831, 48.4536543 ], [ 13.4299172, 48.4513213 ], [ 13.4338783, 48.4451278 ], [ 13.4365773, 48.4405049 ], [ 13.4371611, 48.4390804 ], [ 13.4378915, 48.4364534 ], [ 13.4381755, 48.4346093 ], [ 13.4382573, 48.4325285 ], [ 13.4376668, 48.429916 ], [ 13.4358544, 48.4256744 ], [ 13.4303278, 48.4180864 ], [ 13.4276403, 48.4146615 ], [ 13.4255975, 48.4117358 ], [ 13.4233383, 48.4075251 ], [ 13.4217238, 48.4039565 ], [ 13.4200847, 48.400282 ], [ 13.419032, 48.3969615 ], [ 13.4185743, 48.3945443 ], [ 13.4182751, 48.3929638 ], [ 13.4175166, 48.3878237 ], [ 13.4165459, 48.3839689 ], [ 13.4143964, 48.3801863 ], [ 13.4120342, 48.3772605 ], [ 13.4091373, 48.3749063 ], [ 13.406606, 48.373367 ], [ 13.3850125, 48.3619958 ], [ 13.3831599, 48.3609077 ], [ 13.3745847, 48.3558705 ], [ 13.3441491, 48.3338994 ], [ 13.3418159, 48.3320561 ], [ 13.3299469, 48.3233791 ], [ 13.3212765, 48.3180233 ], [ 13.3159144, 48.3153177 ], [ 13.3050097, 48.3100947 ], [ 13.3015243, 48.3084878 ], [ 13.2915289, 48.3038785 ], [ 13.2769807, 48.29816 ], [ 13.2684231, 48.2957277 ], [ 13.262861, 48.2942964 ], [ 13.2576192, 48.2934361 ], [ 13.2534312, 48.2929245 ], [ 13.2434971, 48.2924976 ], [ 13.2330114, 48.2924887 ], [ 13.2222039, 48.2928357 ], [ 13.2111813, 48.2936098 ], [ 13.2024055, 48.294314 ], [ 13.1959054, 48.2945049 ], [ 13.1883875, 48.2946541 ], [ 13.1819451, 48.2943147 ], [ 13.175394, 48.2933975 ], [ 13.1683593, 48.2917742 ], [ 13.1636546, 48.2904513 ], [ 13.1421927, 48.2827993 ], [ 13.1270597, 48.2795182 ], [ 13.1226985, 48.2789085 ], [ 13.1216304, 48.278849 ], [ 13.097202, 48.2786045 ], [ 13.0916669, 48.278206 ], [ 13.0868647, 48.2775018 ], [ 13.0816663, 48.2763013 ], [ 13.0644048, 48.2705553 ], [ 13.0551111, 48.2662155 ], [ 13.0467884, 48.2633516 ], [ 13.0297637, 48.2591013 ], [ 13.0243161, 48.2574394 ], [ 13.0191965, 48.2553311 ], [ 13.0143684, 48.2522714 ], [ 13.0098283, 48.2488314 ], [ 13.0037387, 48.242626 ], [ 12.9986388, 48.2378511 ], [ 12.9874341, 48.2298209 ], [ 12.9750919, 48.2219765 ], [ 12.9677167, 48.2172884 ], [ 12.9610475, 48.2136493 ], [ 12.956645, 48.2118261 ], [ 12.9529698, 48.2105747 ], [ 12.9487817, 48.2097294 ], [ 12.944512, 48.2092867 ], [ 12.9390667, 48.2089112 ], [ 12.9334056, 48.2088203 ], [ 12.9297742, 48.2087363 ], [ 12.92594, 48.2083319 ], [ 12.8818164, 48.2029674 ], [ 12.8771293, 48.2024062 ], [ 12.8713236, 48.2012807 ], [ 12.8698718, 48.2007953 ], [ 12.8676977, 48.1997847 ], [ 12.8673002, 48.1994713 ], [ 12.8655733, 48.1978085 ], [ 12.8639197, 48.1955032 ], [ 12.8631018, 48.1937359 ], [ 12.8620591, 48.1903353 ], [ 12.8610613, 48.1880319 ], [ 12.8590688, 48.1841671 ], [ 12.8574118, 48.1814629 ], [ 12.8560909, 48.1796978 ], [ 12.8535647, 48.1769569 ], [ 12.8508447, 48.1728873 ], [ 12.8489507, 48.1699518 ], [ 12.8472371, 48.1678627 ], [ 12.8462733, 48.1671081 ], [ 12.8446795, 48.1663278 ], [ 12.8428167, 48.1657844 ], [ 12.8390845, 48.1654115 ], [ 12.8374869, 48.1650476 ], [ 12.8361573, 48.1645658 ], [ 12.8354521, 48.1639082 ], [ 12.8348398, 48.1628345 ], [ 12.8342431, 48.1601542 ], [ 12.8336418, 48.15795 ], [ 12.8328547, 48.1565779 ], [ 12.829852, 48.1544227 ], [ 12.8264874, 48.1529204 ], [ 12.8224685, 48.1521749 ], [ 12.8168932, 48.1519258 ], [ 12.811299, 48.1511271 ], [ 12.8048347, 48.1484794 ], [ 12.8009444, 48.1463194 ], [ 12.7992717, 48.144705 ], [ 12.7980436, 48.1430927 ], [ 12.7970977, 48.139994 ], [ 12.7952704, 48.1361772 ], [ 12.7925881, 48.1321653 ], [ 12.7918584, 48.1309248 ], [ 12.7906371, 48.1287173 ], [ 12.7894259, 48.1255578 ], [ 12.7882874, 48.1239458 ], [ 12.787405, 48.1233466 ], [ 12.7851873, 48.1229577 ], [ 12.7831429, 48.1229693 ], [ 12.7818079, 48.1231415 ], [ 12.779668, 48.1237858 ], [ 12.7776105, 48.1250255 ], [ 12.774935, 48.1263694 ], [ 12.7725182, 48.1274406 ], [ 12.7700238, 48.127964 ], [ 12.7672659, 48.1281886 ], [ 12.7640676, 48.1280539 ], [ 12.7623828, 48.1276885 ], [ 12.7607928, 48.126788 ], [ 12.7594735, 48.1255319 ], [ 12.7587777, 48.1241598 ], [ 12.7587053, 48.1226718 ], [ 12.7586994, 48.1208015 ], [ 12.7583822, 48.1197544 ], [ 12.7578623, 48.1185617 ], [ 12.7568111, 48.1171878 ], [ 12.7547893, 48.115214 ], [ 12.7521503, 48.1128205 ], [ 12.7506632, 48.1107303 ], [ 12.7501475, 48.1091805 ], [ 12.7496419, 48.1067382 ], [ 12.7494056, 48.1040592 ], [ 12.7498155, 48.0999836 ], [ 12.7507515, 48.0934024 ], [ 12.7520807, 48.0889342 ], [ 12.753836, 48.0844682 ], [ 12.7564508, 48.0793399 ], [ 12.759625, 48.074976 ], [ 12.7630701, 48.0717559 ], [ 12.7666568, 48.0685364 ], [ 12.7670897, 48.0682479 ], [ 12.7697785, 48.0659355 ], [ 12.8338762, 48.028398 ], [ 12.8490184, 48.0160619 ], [ 12.8524774, 48.0125203 ], [ 12.8564465, 48.0066681 ], [ 12.8585789, 48.0019395 ], [ 12.860504, 47.9963142 ], [ 12.8687205, 47.9716862 ], [ 12.8701681, 47.9683596 ], [ 12.8720517, 47.9658083 ], [ 12.8740204, 47.9636144 ], [ 12.8776708, 47.9616056 ], [ 12.8778744, 47.9615257 ], [ 12.8800713, 47.960663 ], [ 12.8830063, 47.9599634 ], [ 12.8896484, 47.9587091 ], [ 12.9033835, 47.9580421 ], [ 12.9080279, 47.9578162 ], [ 12.9100911, 47.9575564 ], [ 12.9120621, 47.9570757 ], [ 12.9156185, 47.9554747 ], [ 12.9184895, 47.9537861 ], [ 12.9199196, 47.9521845 ], [ 12.92051, 47.9507606 ], [ 12.9203564, 47.9485976 ], [ 12.9192935, 47.9453958 ], [ 12.9196725, 47.9430576 ], [ 12.9203593, 47.9414745 ], [ 12.9217872, 47.9401109 ], [ 12.9232093, 47.9394614 ], [ 12.9255142, 47.9391721 ], [ 12.9281705, 47.939241 ], [ 12.9317955, 47.9400273 ], [ 12.9340087, 47.9403167 ], [ 12.9350691, 47.9404553 ], [ 12.9363098, 47.9403406 ], [ 12.9374652, 47.939809 ], [ 12.9382663, 47.9392762 ], [ 12.9388958, 47.9380287 ], [ 12.9393125, 47.9357383 ], [ 12.9402611, 47.9331536 ], [ 12.9419372, 47.9290218 ], [ 12.9505525, 47.9167979 ], [ 12.9547977, 47.9121503 ], [ 12.9602651, 47.9067278 ], [ 12.9662094, 47.9008309 ], [ 12.9870857, 47.8692205 ], [ 13.0013493, 47.8544322 ], [ 13.0020443, 47.8538468 ], [ 13.0035445, 47.8525833 ], [ 13.0038361, 47.8507208 ], [ 13.0038461, 47.8491498 ], [ 13.0039667, 47.8468649 ], [ 13.0035524, 47.8452927 ], [ 13.0030955, 47.8442864 ], [ 13.0026108, 47.843219 ], [ 13.0016648, 47.8418594 ], [ 12.9995562, 47.8398538 ], [ 12.9959675, 47.8371296 ], [ 12.9924847, 47.834477 ], [ 12.9895967, 47.8318004 ], [ 12.9890061, 47.831253 ], [ 12.9859482, 47.8286015 ], [ 12.9845802, 47.8270263 ], [ 12.983741, 47.8256669 ], [ 12.9819561, 47.8230192 ], [ 12.9796467, 47.8195842 ], [ 12.9791914, 47.8189013 ], [ 12.9777216, 47.8166965 ], [ 12.9764982, 47.8148612 ], [ 12.9725062, 47.8095641 ], [ 12.9674616, 47.8033352 ], [ 12.9653579, 47.8010432 ], [ 12.9633572, 47.79918 ], [ 12.9631736, 47.7990301 ], [ 12.9620165, 47.7980854 ], [ 12.9617766, 47.7978895 ], [ 12.9615831, 47.7977536 ], [ 12.9585076, 47.7955936 ], [ 12.9545012, 47.7927239 ], [ 12.9519709, 47.7909301 ], [ 12.950076, 47.7892099 ], [ 12.9483128, 47.7875922 ], [ 12.9474444, 47.7868444 ], [ 12.9471488, 47.7867006 ], [ 12.9471358, 47.7866906 ], [ 12.9471262, 47.7866896 ], [ 12.9467053, 47.7864848 ], [ 12.9448022, 47.7859071 ], [ 12.9433247, 47.7851165 ], [ 12.9422721, 47.7841845 ], [ 12.9411173, 47.7827523 ], [ 12.9401789, 47.7807495 ], [ 12.9394469, 47.7794616 ], [ 12.938567, 47.7784528 ], [ 12.9385025, 47.7783789 ], [ 12.9368146, 47.7773101 ], [ 12.9338881, 47.7759388 ], [ 12.9331133, 47.7755291 ], [ 12.9313276, 47.7744344 ], [ 12.9296443, 47.7729287 ], [ 12.9291149, 47.7722096 ], [ 12.9283911, 47.7712264 ], [ 12.9276607, 47.7699708 ], [ 12.9422764, 47.7709887 ], [ 12.9434982, 47.7628981 ], [ 12.9351876, 47.747301 ], [ 12.918263, 47.7425547 ], [ 12.9046801, 47.7275206 ], [ 12.9052053, 47.7236012 ], [ 12.9247709, 47.7102808 ], [ 12.9461716, 47.7121364 ], [ 12.9554919, 47.7077874 ], [ 12.9871951, 47.7074026 ], [ 12.9949667, 47.7130384 ], [ 13.0022542, 47.7133654 ], [ 13.0105105, 47.7229229 ], [ 13.0179748, 47.7228627 ], [ 13.0265235, 47.7176068 ], [ 13.0452761, 47.7127182 ], [ 13.0608034, 47.6971428 ], [ 13.080664, 47.6868636 ], [ 13.076867, 47.6708546 ], [ 13.0800505, 47.6624974 ], [ 13.0896763, 47.6539829 ], [ 13.0885145, 47.6491327 ], [ 13.0982343, 47.6337823 ], [ 13.0958393, 47.6279311 ], [ 13.0799201, 47.618363 ], [ 13.0694668, 47.6048208 ], [ 13.0626089, 47.6014588 ], [ 13.0714972, 47.5898861 ], [ 13.0685134, 47.5858138 ], [ 13.0436668, 47.5833518 ], [ 13.0424318, 47.5736529 ], [ 13.0502079, 47.5636978 ], [ 13.0575381, 47.5621508 ], [ 13.0309478, 47.5325462 ], [ 13.0462418, 47.5238614 ], [ 13.0460877, 47.5204881 ], [ 13.0468232, 47.5147606 ], [ 13.0476372, 47.4921689 ], [ 13.0268876, 47.486682 ], [ 13.017818, 47.4746497 ], [ 13.0038935, 47.4633762 ], [ 12.9934812, 47.4716475 ], [ 12.9946694, 47.4786575 ], [ 12.9773931, 47.4848381 ], [ 12.9697181, 47.4742454 ], [ 12.9319391, 47.4877359 ], [ 12.9121171, 47.4956782 ], [ 12.8858281, 47.5125415 ], [ 12.8805964, 47.5218479 ], [ 12.8569807, 47.5270672 ], [ 12.8517143, 47.5307777 ], [ 12.8477085, 47.5459792 ], [ 12.8177237, 47.5448942 ], [ 12.8101954, 47.5472074 ], [ 12.7943123, 47.5570002 ], [ 12.7892238, 47.5658982 ], [ 12.7791304, 47.5791073 ], [ 12.7952564, 47.5930717 ], [ 12.7912939, 47.5982155 ], [ 12.8073556, 47.610262 ], [ 12.8132705, 47.61198 ], [ 12.82287, 47.6096038 ], [ 12.8244286, 47.6120932 ], [ 12.7897062, 47.6332133 ], [ 12.7808631, 47.6326671 ], [ 12.7585674, 47.6515347 ], [ 12.7606597, 47.6549091 ], [ 12.7754768, 47.6599049 ], [ 12.7782403, 47.6608363 ], [ 12.7818452, 47.6687557 ], [ 12.7788947, 47.6702566 ], [ 12.7759633, 47.6678736 ], [ 12.7737443, 47.6662441 ], [ 12.7736135, 47.6661481 ], [ 12.7716782, 47.6652245 ], [ 12.7704966, 47.6649901 ], [ 12.7688898, 47.6649822 ], [ 12.7678737, 47.6650915 ], [ 12.7665174, 47.6653704 ], [ 12.7653303, 47.6656502 ], [ 12.7642302, 47.6657019 ], [ 12.7632999, 47.6656973 ], [ 12.7623715, 47.6655212 ], [ 12.7613604, 47.6651734 ], [ 12.7589389, 47.6642012 ], [ 12.7569114, 47.6633667 ], [ 12.7457084, 47.6751958 ], [ 12.7318075, 47.6796563 ], [ 12.715253, 47.6762762 ], [ 12.7051137, 47.6811227 ], [ 12.6829856, 47.6826808 ], [ 12.6660785, 47.6810274 ], [ 12.648229, 47.6701017 ], [ 12.6456137, 47.6735397 ], [ 12.6301305, 47.6761978 ], [ 12.6169987, 47.6724286 ], [ 12.6048168, 47.673179 ], [ 12.5856371, 47.6511814 ], [ 12.5754357, 47.6322984 ], [ 12.5358778, 47.6365984 ], [ 12.5249492, 47.6307832 ], [ 12.512697, 47.6247146 ], [ 12.4991406, 47.6246887 ], [ 12.4914293, 47.6367564 ], [ 12.4657863, 47.6495612 ], [ 12.4524029, 47.6680948 ], [ 12.439099, 47.6759694 ], [ 12.4428168, 47.6922329 ], [ 12.4400424, 47.695548 ], [ 12.4293226, 47.6968219 ], [ 12.4005917, 47.6927867 ], [ 12.3800949, 47.6878036 ], [ 12.3691258, 47.6851365 ], [ 12.3640161, 47.6838932 ], [ 12.3532262, 47.6909693 ], [ 12.3390449, 47.6908986 ], [ 12.3350843, 47.6930794 ], [ 12.3338627, 47.6964746 ], [ 12.3123587, 47.6934759 ], [ 12.3057512, 47.6926105 ], [ 12.2847664, 47.689859 ], [ 12.2632277, 47.6781381 ], [ 12.2569714, 47.6792757 ], [ 12.2432793, 47.6920707 ], [ 12.2469951, 47.7112996 ], [ 12.2652566, 47.7325447 ], [ 12.2569034, 47.7432323 ], [ 12.2494829, 47.7416335 ], [ 12.2266174, 47.7182907 ], [ 12.2036123, 47.707273 ], [ 12.1963672, 47.7083164 ], [ 12.1843199, 47.700506 ], [ 12.1811129, 47.7005854 ], [ 12.1640739, 47.7003836 ], [ 12.164619, 47.6968684 ], [ 12.1656713, 47.6923795 ], [ 12.1671497, 47.6882349 ], [ 12.1682533, 47.685692 ], [ 12.1705644, 47.6816444 ], [ 12.1753417, 47.6760503 ], [ 12.1784866, 47.6725109 ], [ 12.1809952, 47.6690364 ], [ 12.1826359, 47.6665531 ], [ 12.1841765, 47.6626795 ], [ 12.1852191, 47.659651 ], [ 12.1866703, 47.6572137 ], [ 12.1898095, 47.6527688 ], [ 12.1928557, 47.6487995 ], [ 12.1958043, 47.6454855 ], [ 12.1991486, 47.6413639 ], [ 12.2015415, 47.636039 ], [ 12.2022768, 47.6334655 ], [ 12.2026707, 47.6298982 ], [ 12.204063, 47.6241267 ], [ 12.2062877, 47.6189347 ], [ 12.2080587, 47.6151667 ], [ 12.2081262, 47.6120247 ], [ 12.2073397, 47.6093029 ], [ 12.2058921, 47.6078602 ], [ 12.2038187, 47.6066173 ], [ 12.2011791, 47.6060282 ], [ 12.1978095, 47.6055663 ], [ 12.1942242, 47.6053165 ], [ 12.1892677, 47.6049366 ], [ 12.1866283, 47.604955 ], [ 12.1843117, 47.6046461 ], [ 12.1824221, 47.6041272 ], [ 12.1803372, 47.602892 ], [ 12.1778603, 47.6010815 ], [ 12.1813163, 47.6108122 ], [ 12.1787702, 47.6146991 ], [ 12.1619904, 47.6131884 ], [ 12.1493396, 47.608543 ], [ 12.1402583, 47.6055075 ], [ 12.1291834, 47.6059403 ], [ 12.1153834, 47.6114426 ], [ 12.0828132, 47.6096162 ], [ 12.0776527, 47.6134902 ], [ 12.0598352, 47.6176016 ], [ 12.0496589, 47.6148797 ], [ 12.0351036, 47.617153 ], [ 12.0280032, 47.6111539 ], [ 12.0214183, 47.6112045 ], [ 12.0085348, 47.6251862 ], [ 11.981316, 47.6189228 ], [ 11.9767174, 47.6146588 ], [ 11.9689095, 47.6171924 ], [ 11.9337502, 47.6127564 ], [ 11.9144994, 47.6138777 ], [ 11.9030212, 47.6084821 ], [ 11.8945515, 47.6083939 ], [ 11.8656272, 47.6016047 ], [ 11.8553449, 47.6021649 ], [ 11.8478171, 47.5825046 ], [ 11.8441962, 47.5812703 ], [ 11.8302531, 47.582018 ], [ 11.8285373, 47.5857281 ], [ 11.8170728, 47.5846262 ], [ 11.7750225, 47.5904235 ], [ 11.7475427, 47.5880306 ], [ 11.7003612, 47.589159 ], [ 11.6812226, 47.5837187 ], [ 11.6600318, 47.5837044 ], [ 11.6361683, 47.5949417 ], [ 11.630446, 47.5844315 ], [ 11.6326918, 47.5797663 ], [ 11.631199, 47.5803316 ], [ 11.6289768, 47.5811274 ], [ 11.6266696, 47.5819503 ], [ 11.6246305, 47.58232 ], [ 11.6226044, 47.5822897 ], [ 11.6214225, 47.5822721 ], [ 11.6196646, 47.5817887 ], [ 11.6174077, 47.5810691 ], [ 11.6157287, 47.5807583 ], [ 11.6143714, 47.5807692 ], [ 11.6112414, 47.581091 ], [ 11.6095396, 47.5812515 ], [ 11.6071231, 47.5815144 ], [ 11.6006757, 47.5677436 ], [ 11.5876199, 47.5552408 ], [ 11.5877208, 47.52545 ], [ 11.5728084, 47.5147196 ], [ 11.5329505, 47.5087924 ], [ 11.5189536, 47.5109252 ], [ 11.5057382, 47.5046569 ], [ 11.4813454, 47.5091395 ], [ 11.4494869, 47.5072046 ], [ 11.4473315, 47.5098636 ], [ 11.4455634, 47.5121205 ], [ 11.4438029, 47.5141632 ], [ 11.4428005, 47.5156468 ], [ 11.4418973, 47.5182332 ], [ 11.4366081, 47.5160985 ], [ 11.4134048, 47.4994452 ], [ 11.4099676, 47.494537 ], [ 11.407185, 47.490563 ], [ 11.3902867, 47.4821391 ], [ 11.3832963, 47.4724259 ], [ 11.3938887, 47.4661224 ], [ 11.4091468, 47.4669881 ], [ 11.412325, 47.4550406 ], [ 11.4211667, 47.4445505 ], [ 11.4016776, 47.448547 ], [ 11.3936141, 47.4458244 ], [ 11.3810064, 47.4492499 ], [ 11.364864, 47.4449075 ], [ 11.3574871, 47.4487605 ], [ 11.3379726, 47.4496522 ], [ 11.3317836, 47.4456223 ], [ 11.329705, 47.4380311 ], [ 11.321749, 47.43764 ], [ 11.3113163, 47.4301405 ], [ 11.3012293, 47.4313542 ], [ 11.2916987, 47.4278756 ], [ 11.2900987, 47.4075432 ], [ 11.2810736, 47.400746 ], [ 11.2711142, 47.3979045 ], [ 11.265851, 47.3979341 ], [ 11.2614248, 47.3979588 ], [ 11.2352182, 47.3981018 ], [ 11.2267422, 47.3950737 ], [ 11.2223779, 47.3970774 ], [ 11.2405376, 47.4194308 ], [ 11.2540113, 47.4275898 ], [ 11.2496048, 47.4325989 ], [ 11.2213885, 47.4305269 ], [ 11.2061494, 47.4339983 ], [ 11.1984493, 47.4276076 ], [ 11.1574492, 47.4213695 ], [ 11.1389878, 47.4135041 ], [ 11.1292082, 47.4125919 ], [ 11.1224896, 47.4072144 ], [ 11.1239934, 47.3987762 ], [ 11.1160262, 47.3957007 ], [ 11.0553328, 47.3957917 ], [ 11.0285582, 47.3934829 ], [ 11.0239295, 47.3971087 ], [ 11.0158654, 47.3963201 ], [ 11.0059982, 47.3943364 ], [ 10.9915594, 47.3964077 ], [ 10.977813, 47.3977989 ], [ 10.9701989, 47.4035617 ], [ 10.9716674, 47.4165956 ], [ 10.9847762, 47.4211634 ], [ 10.9835447, 47.429886 ], [ 10.9326651, 47.4679297 ], [ 10.9282972, 47.4723147 ], [ 10.9383922, 47.4792777 ], [ 10.9349019, 47.4826959 ], [ 10.9107466, 47.4856795 ], [ 10.8854264, 47.4790218 ], [ 10.8708593, 47.4816451 ], [ 10.8714785, 47.4968877 ], [ 10.8784086, 47.5035649 ], [ 10.9178736, 47.5134543 ], [ 10.9156685, 47.5193658 ], [ 10.9042533, 47.5184514 ], [ 10.8901292, 47.5376335 ], [ 10.8537442, 47.5343676 ], [ 10.8385206, 47.5256568 ], [ 10.8314186, 47.528719 ], [ 10.8128872, 47.5265939 ], [ 10.8125254, 47.5203621 ], [ 10.7952585, 47.5211882 ], [ 10.7772735, 47.5140363 ], [ 10.7638305, 47.5196458 ], [ 10.7650288, 47.524948 ], [ 10.7587586, 47.534523 ], [ 10.7404603, 47.5384118 ], [ 10.7189817, 47.5382155 ], [ 10.708156, 47.5437377 ], [ 10.6949426, 47.5442926 ], [ 10.6911294, 47.5592182 ], [ 10.6879381, 47.55844 ], [ 10.685589, 47.5579213 ], [ 10.683518, 47.5571231 ], [ 10.6814543, 47.5561822 ], [ 10.679947, 47.5557185 ], [ 10.6783046, 47.5554783 ], [ 10.6769054, 47.5589361 ], [ 10.6348661, 47.5592781 ], [ 10.6262388, 47.5610271 ], [ 10.6184723, 47.5672526 ], [ 10.6114199, 47.5655158 ], [ 10.5981786, 47.5697741 ], [ 10.5903436, 47.5600331 ], [ 10.580102, 47.5550186 ], [ 10.5814316, 47.546678 ], [ 10.5729372, 47.5335822 ], [ 10.5637878, 47.5338797 ], [ 10.5630134, 47.5360037 ], [ 10.5244277, 47.5352462 ], [ 10.4981996, 47.5390309 ], [ 10.4977176, 47.5391004 ], [ 10.4890346, 47.5403446 ], [ 10.4860468, 47.542336 ], [ 10.4858745, 47.5424508 ], [ 10.4840384, 47.5436745 ], [ 10.4564239, 47.5529009 ], [ 10.4539056, 47.5543701 ], [ 10.4537959, 47.5563714 ], [ 10.4634576, 47.5643938 ], [ 10.4659625, 47.5652946 ], [ 10.4680607, 47.5670241 ], [ 10.4699575, 47.5685873 ], [ 10.4718707, 47.570164 ], [ 10.4710849, 47.5798697 ], [ 10.4789825, 47.5805257 ], [ 10.4819843, 47.5844795 ], [ 10.4695351, 47.5872647 ], [ 10.456749, 47.5828988 ], [ 10.4352555, 47.5838638 ], [ 10.4293816, 47.5774648 ], [ 10.4331555, 47.5697176 ], [ 10.4452038, 47.5669546 ], [ 10.4511309, 47.5548514 ], [ 10.4394059, 47.524408 ], [ 10.4409664, 47.5146118 ], [ 10.4312556, 47.5039261 ], [ 10.4356328, 47.495306 ], [ 10.4444084, 47.4839471 ], [ 10.4515377, 47.4859188 ], [ 10.4633933, 47.4830012 ], [ 10.4680925, 47.4680292 ], [ 10.4657073, 47.4528854 ], [ 10.473134, 47.442929 ], [ 10.4766981, 47.4320863 ], [ 10.4581714, 47.428195 ], [ 10.4546903, 47.4185564 ], [ 10.4352623, 47.4111636 ], [ 10.4371228, 47.4070963 ], [ 10.4311265, 47.4028652 ], [ 10.434168, 47.3999123 ], [ 10.4291713, 47.390895 ], [ 10.4367407, 47.380383 ], [ 10.4302713, 47.3838695 ], [ 10.419426, 47.3843996 ], [ 10.4146634, 47.3789972 ], [ 10.3942538, 47.3755825 ], [ 10.3862776, 47.3564189 ], [ 10.3565542, 47.3365499 ], [ 10.3457942, 47.3213146 ], [ 10.3488094, 47.3174825 ], [ 10.3302933, 47.3046027 ], [ 10.3146096, 47.3062649 ], [ 10.303056, 47.2997589 ], [ 10.2957574, 47.2995139 ], [ 10.281912, 47.2883818 ], [ 10.2660622, 47.2881662 ], [ 10.2598849, 47.2817132 ], [ 10.2452314, 47.2786442 ], [ 10.2333912, 47.2707009 ], [ 10.2231254, 47.2758991 ], [ 10.2015796, 47.277162 ], [ 10.1788146, 47.2702072 ], [ 10.1743477, 47.2703089 ], [ 10.1725622, 47.2793282 ], [ 10.1797821, 47.2962033 ], [ 10.1898361, 47.2940576 ], [ 10.208704, 47.3044062 ], [ 10.2123915, 47.3108682 ], [ 10.2165452, 47.3103779 ], [ 10.2111155, 47.3191331 ], [ 10.1994568, 47.3264682 ], [ 10.2078155, 47.3327201 ], [ 10.2043789, 47.3367009 ], [ 10.2174998, 47.3506029 ], [ 10.2165518, 47.3542986 ], [ 10.2248278, 47.3588583 ], [ 10.2370706, 47.3737735 ], [ 10.2316846, 47.3789585 ], [ 10.2363006, 47.3818409 ], [ 10.2272009, 47.3892259 ], [ 10.212679, 47.3803786 ], [ 10.2000649, 47.3832788 ], [ 10.1952812, 47.3893443 ], [ 10.181842, 47.392439 ], [ 10.1824907, 47.3880056 ], [ 10.1694783, 47.3857927 ], [ 10.1692613, 47.3706545 ], [ 10.1657727, 47.3685717 ], [ 10.1418944, 47.3669957 ], [ 10.1195253, 47.3754913 ], [ 10.0998225, 47.3547471 ], [ 10.0978158, 47.3594381 ], [ 10.0834212, 47.3939283 ], [ 10.0852872, 47.3998417 ], [ 10.0690246, 47.4093392 ], [ 10.074774, 47.414866 ], [ 10.0951544, 47.4177258 ], [ 10.1044556, 47.4301573 ], [ 10.0934264, 47.4419533 ], [ 10.0913351, 47.4583186 ], [ 10.0884359, 47.4600755 ], [ 10.0702362, 47.4555285 ], [ 10.064532, 47.4636278 ], [ 10.0539987, 47.4665256 ], [ 10.047205, 47.4863055 ], [ 10.0369601, 47.4888606 ], [ 10.0108642, 47.4815132 ], [ 9.9993526, 47.482829 ], [ 9.987786, 47.4984086 ], [ 9.995402, 47.5028299 ], [ 9.9655937, 47.5231005 ], [ 9.9682878, 47.5252139 ], [ 9.966927, 47.5348823 ], [ 9.9696309, 47.5421101 ], [ 9.9682057, 47.5464401 ], [ 9.9590086, 47.543352 ], [ 9.956895, 47.5376848 ], [ 9.941354, 47.5381749 ], [ 9.9225853, 47.529861 ], [ 9.9145464, 47.5320713 ], [ 9.9068645, 47.5425482 ], [ 9.8809122, 47.5483125 ], [ 9.8756586, 47.5444598 ], [ 9.8784913, 47.5395153 ], [ 9.8744967, 47.5285262 ], [ 9.858472, 47.5339471 ], [ 9.8501655, 47.5417733 ], [ 9.8297487, 47.544599 ], [ 9.8201629, 47.5512078 ], [ 9.8259498, 47.5596387 ], [ 9.8209515, 47.5706884 ], [ 9.8275252, 47.5794601 ], [ 9.8205987, 47.5876768 ], [ 9.8000369, 47.596298 ], [ 9.7906895, 47.5937174 ], [ 9.7767622, 47.5955483 ], [ 9.7563967, 47.5794283 ], [ 9.7558348, 47.572545 ], [ 9.7478666, 47.5707954 ], [ 9.7472611, 47.5560417 ], [ 9.7418564, 47.5546106 ], [ 9.7359777, 47.547293 ], [ 9.7352736, 47.5461006 ], [ 9.736718, 47.5404265 ], [ 9.7362925, 47.5363618 ], [ 9.7353856, 47.5341886 ], [ 9.6709058, 47.5253934 ], [ 9.5505343, 47.5358882 ], [ 9.5616295, 47.501351 ], [ 9.5640858, 47.493937 ], [ 9.5831151, 47.4819661 ], [ 9.596628, 47.4626262 ], [ 9.6037118, 47.4625367 ], [ 9.6073565, 47.4704031 ], [ 9.6229731, 47.4573874 ], [ 9.6532469, 47.4545494 ], [ 9.6612943, 47.4503451 ], [ 9.6546609, 47.4457151 ], [ 9.6493068, 47.4408953 ], [ 9.6471434, 47.4386807 ], [ 9.6461267, 47.436646 ], [ 9.6456758, 47.4340575 ], [ 9.6461509, 47.4302834 ], [ 9.6474768, 47.4263937 ], [ 9.6500184, 47.4201838 ], [ 9.6511383, 47.4147145 ], [ 9.6515676, 47.4100809 ], [ 9.651801, 47.4059538 ], [ 9.6590904, 47.3988714 ], [ 9.6737475, 47.3912405 ], [ 9.6739938, 47.383918 ], [ 9.6706574, 47.3778747 ], [ 9.659598, 47.3697868 ], [ 9.6498047, 47.367426 ], [ 9.6244012, 47.3662457 ], [ 9.6193721, 47.3622117 ], [ 9.6139564, 47.3582647 ], [ 9.6077101, 47.3535923 ], [ 9.6029392, 47.3491464 ], [ 9.6001429, 47.3453012 ], [ 9.5982838, 47.341844 ], [ 9.5965336, 47.3377991 ], [ 9.5943113, 47.3311079 ], [ 9.5929251, 47.3259382 ], [ 9.5916043, 47.3223198 ], [ 9.5902162, 47.3196525 ], [ 9.5886105, 47.3179144 ], [ 9.5870926, 47.3167495 ], [ 9.5842684, 47.3145712 ], [ 9.5759575, 47.3094714 ], [ 9.567465, 47.3044841 ], [ 9.5600506, 47.3003659 ], [ 9.5568788, 47.2981754 ], [ 9.5554154, 47.2969603 ], [ 9.554029, 47.2951613 ], [ 9.5528012, 47.2927371 ], [ 9.5508511, 47.2869521 ], [ 9.548748, 47.2833071 ], [ 9.5457076, 47.2805248 ], [ 9.5417813, 47.2778916 ], [ 9.5368861, 47.2753452 ], [ 9.5338572, 47.2736354 ], [ 9.532362, 47.272513 ], [ 9.5317849, 47.2720171 ], [ 9.5307861, 47.2706602 ], [ 9.5673678, 47.2412918 ], [ 9.5516453, 47.2237532 ], [ 9.5585577, 47.2241692 ], [ 9.5692159, 47.2193925 ], [ 9.5848724, 47.2045468 ], [ 9.5726102, 47.1907938 ], [ 9.5734629, 47.1763985 ], [ 9.5646472, 47.1702771 ], [ 9.5794346, 47.1711221 ], [ 9.5967494, 47.1628699 ], [ 9.6061618, 47.1487274 ], [ 9.6148893, 47.1478113 ], [ 9.6205887, 47.1514808 ], [ 9.6248155, 47.1459842 ], [ 9.6247432, 47.1326263 ], [ 9.6336772, 47.1268079 ], [ 9.6208459, 47.1106725 ], [ 9.6344108, 47.1010956 ], [ 9.6353781, 47.0906223 ], [ 9.633563, 47.0834331 ], [ 9.6235537, 47.0825259 ], [ 9.6187007, 47.0781419 ], [ 9.6115335, 47.0794102 ], [ 9.6134585, 47.0694917 ], [ 9.6070869, 47.0607711 ], [ 9.6172398, 47.0536122 ], [ 9.6299039, 47.0514061 ], [ 9.6415165, 47.0540769 ], [ 9.6450887, 47.0597743 ], [ 9.658476, 47.0576415 ], [ 9.6774625, 47.0614044 ], [ 9.6818768, 47.0621043 ], [ 9.6838652, 47.057717 ], [ 9.6978678, 47.0523898 ], [ 9.7074586, 47.0538191 ], [ 9.7065972, 47.0487234 ], [ 9.7170787, 47.0447955 ], [ 9.7419589, 47.0427686 ], [ 9.7472698, 47.0372641 ], [ 9.7843099, 47.03833 ], [ 9.7929462, 47.0313641 ], [ 9.8360684, 47.0133456 ], [ 9.8616474, 47.0223145 ], [ 9.8768601, 47.021495 ], [ 9.881425, 47.018311 ], [ 9.8711155, 47.0135382 ], [ 9.8734125, 47.0064414 ], [ 9.8888053, 47.0008175 ], [ 9.8915608, 46.9888018 ], [ 9.8849097, 46.9856365 ], [ 9.8707769, 46.9631729 ], [ 9.8793076, 46.9565959 ], [ 9.8766634, 46.947788 ], [ 9.8806584, 46.9352016 ], [ 9.906438, 46.9252266 ], [ 9.9123393, 46.926139 ], [ 9.923035, 46.9182803 ], [ 9.9386298, 46.9131631 ], [ 9.9591797, 46.9160214 ], [ 9.9669902, 46.9122418 ], [ 9.9780451, 46.915848 ], [ 9.9820567, 46.9067033 ], [ 9.9902613, 46.9024287 ], [ 10.0055983, 46.8990107 ], [ 10.0180472, 46.9021403 ], [ 10.0323145, 46.8879577 ], [ 10.0520025, 46.876737 ], [ 10.050883, 46.8651753 ], [ 10.0549274, 46.861722 ], [ 10.0874795, 46.8612488 ], [ 10.0913981, 46.8589544 ], [ 10.0919304, 46.8514263 ], [ 10.1054021, 46.8408757 ], [ 10.1188783, 46.8441675 ], [ 10.1228352, 46.8480788 ], [ 10.1401441, 46.8474353 ], [ 10.1451402, 46.8508979 ], [ 10.1791159, 46.8542777 ], [ 10.193534, 46.8663145 ], [ 10.2033359, 46.8644372 ], [ 10.2325131, 46.8663475 ], [ 10.2344317, 46.8851584 ], [ 10.2257627, 46.8963315 ], [ 10.2322109, 46.9006371 ], [ 10.2370256, 46.9157626 ], [ 10.2420077, 46.9194548 ], [ 10.241566, 46.9316968 ], [ 10.2702099, 46.928119 ], [ 10.296897, 46.9200895 ], [ 10.3034186, 46.9254168 ], [ 10.3162861, 46.9253298 ], [ 10.3174397, 46.9306282 ], [ 10.3061411, 46.9406375 ], [ 10.3079368, 46.947861 ], [ 10.3279409, 46.9541609 ], [ 10.3298183, 46.9646225 ], [ 10.3495997, 46.9908517 ], [ 10.3721842, 46.9906577 ], [ 10.3892704, 47.0005279 ], [ 10.3987197, 46.9968261 ], [ 10.4022096, 46.9908064 ], [ 10.4268453, 46.9755248 ], [ 10.4240322, 46.9590209 ], [ 10.4565988, 46.9519388 ], [ 10.4784396, 46.9401392 ], [ 10.4916437, 46.9360091 ], [ 10.4902444, 46.934702 ], [ 10.4889037, 46.933239 ], [ 10.4879738, 46.9319006 ], [ 10.4874759, 46.9302872 ], [ 10.4873298, 46.9283396 ], [ 10.4872081, 46.9259352 ], [ 10.487114, 46.9230169 ], [ 10.4863502, 46.920139 ], [ 10.4857905, 46.9180766 ], [ 10.4856221, 46.91717 ], [ 10.4843654, 46.9145996 ], [ 10.4827464, 46.9128788 ], [ 10.4814822, 46.9121608 ], [ 10.4796867, 46.9105618 ], [ 10.4781615, 46.9075148 ], [ 10.4763646, 46.8995268 ], [ 10.47505, 46.8961401 ], [ 10.4740028, 46.8941372 ], [ 10.4713885, 46.890504 ], [ 10.4648175, 46.8841417 ], [ 10.4694525, 46.8797014 ], [ 10.4668619, 46.8634894 ], [ 10.4696906, 46.8547037 ], [ 10.4812672, 46.8588904 ], [ 10.4985292, 46.8472901 ], [ 10.520732, 46.8452775 ], [ 10.5524115, 46.8497826 ], [ 10.556634, 46.8466892 ], [ 10.5517865, 46.8410314 ], [ 10.5641617, 46.8410254 ], [ 10.5897159, 46.8502458 ], [ 10.5955987, 46.8575278 ], [ 10.60785, 46.858228 ], [ 10.6249709, 46.8645729 ], [ 10.6511583, 46.8662488 ], [ 10.6674129, 46.8755222 ], [ 10.671777, 46.8706252 ], [ 10.6908951, 46.8677697 ], [ 10.6968541, 46.8625429 ], [ 10.6932587, 46.8523534 ], [ 10.7035698, 46.8473373 ], [ 10.7167332, 46.8473213 ], [ 10.7226169, 46.8377845 ], [ 10.7557281, 46.8325855 ], [ 10.7639734, 46.822786 ], [ 10.7499128, 46.812655 ], [ 10.745895, 46.8046363 ], [ 10.7263789, 46.797895 ], [ 10.7299287, 46.7889143 ], [ 10.7578095, 46.7852979 ], [ 10.7789179, 46.791443 ], [ 10.78636, 46.7964964 ], [ 10.8140598, 46.7753977 ], [ 10.8259912, 46.774029 ], [ 10.8331503, 46.7811095 ], [ 10.8402947, 46.7819508 ], [ 10.8531023, 46.7738067 ], [ 10.8675048, 46.7724904 ], [ 10.8688282, 46.7659715 ], [ 10.8835799, 46.7631763 ], [ 10.8895204, 46.7642002 ], [ 10.8947757, 46.7698418 ], [ 10.9071464, 46.7684853 ], [ 10.9182692, 46.7752931 ], [ 10.9504772, 46.7751516 ], [ 10.9963375, 46.7671781 ], [ 11.0142066, 46.7723361 ], [ 11.0224195, 46.7654144 ], [ 11.0357523, 46.7931928 ], [ 11.0444121, 46.8013436 ], [ 11.0394841, 46.8051701 ], [ 11.0575424, 46.8095193 ], [ 11.0833928, 46.8228016 ], [ 11.0767518, 46.8354476 ], [ 11.0702772, 46.8383858 ], [ 11.0748316, 46.8435827 ], [ 11.0718808, 46.8569508 ], [ 11.0776416, 46.8591444 ], [ 11.0890502, 46.8788238 ], [ 11.1016184, 46.8899309 ], [ 11.0970454, 46.8913107 ], [ 11.0976929, 46.9138665 ], [ 11.109091, 46.915958 ], [ 11.1095128, 46.9261107 ], [ 11.1148415, 46.9313999 ], [ 11.1384761, 46.9277557 ], [ 11.166816, 46.9424585 ], [ 11.1682605, 46.9449939 ], [ 11.1624042, 46.9502354 ], [ 11.1644574, 46.9658184 ], [ 11.175354, 46.9626807 ], [ 11.1865173, 46.9698395 ], [ 11.1953496, 46.9707631 ], [ 11.2028384, 46.9680454 ], [ 11.2068587, 46.9625083 ], [ 11.2212676, 46.9693962 ], [ 11.2414121, 46.9701563 ], [ 11.2492259, 46.9744928 ], [ 11.2566112, 46.9744697 ], [ 11.2625645, 46.9805565 ], [ 11.2711868, 46.9798116 ], [ 11.2895736, 46.9856869 ], [ 11.3077276, 46.984302 ], [ 11.3207187, 46.992808 ], [ 11.3369617, 46.9848521 ], [ 11.345678, 46.990711 ], [ 11.3584444, 46.9907957 ], [ 11.3758957, 46.9796103 ], [ 11.3823279, 46.9704395 ], [ 11.401199, 46.9651743 ], [ 11.4250573, 46.9695284 ], [ 11.4348225, 46.9741035 ], [ 11.4427584, 46.9771937 ], [ 11.4529242, 46.9926566 ], [ 11.4694633, 46.9951838 ], [ 11.4706356, 47.0033578 ], [ 11.4786255, 47.0111492 ], [ 11.5125053, 47.005283 ], [ 11.5163101, 46.999523 ], [ 11.5329686, 46.9912633 ], [ 11.5377644, 46.9841158 ], [ 11.5778561, 46.9955167 ], [ 11.5811056, 47.0018322 ], [ 11.5898685, 47.0054515 ], [ 11.6022011, 47.0064943 ], [ 11.614618, 47.012698 ], [ 11.6270881, 47.0133406 ], [ 11.6350054, 47.0030414 ], [ 11.6643932, 46.991883 ], [ 11.6883459, 46.9955156 ], [ 11.7114677, 46.993306 ], [ 11.7243355, 46.9805033 ], [ 11.7273913, 46.9726403 ], [ 11.7468911, 46.9690556 ], [ 11.7651152, 46.9734081 ], [ 11.7703653, 46.9829854 ], [ 11.7816349, 46.9924327 ], [ 11.789337, 46.9899513 ], [ 11.8134415, 46.989769 ], [ 11.8361615, 46.9929985 ], [ 11.8450771, 47.001803 ], [ 11.8522848, 47.0002865 ], [ 11.8672473, 47.0113368 ], [ 11.8739322, 47.0102259 ], [ 11.8797139, 47.0162094 ], [ 11.8926889, 47.0164549 ], [ 11.8952858, 47.0206163 ], [ 11.9142366, 47.0286882 ], [ 11.9156175, 47.0326632 ], [ 11.9329105, 47.037473 ], [ 11.946378, 47.0331487 ], [ 11.9559877, 47.04262 ], [ 11.9686167, 47.0401809 ], [ 11.97937, 47.0494119 ], [ 11.986195, 47.0464883 ], [ 11.9983427, 47.0485467 ], [ 12.0210214, 47.0462638 ], [ 12.0303536, 47.0494111 ], [ 12.0355502, 47.057071 ], [ 12.0431505, 47.0600987 ], [ 12.0768294, 47.0575416 ], [ 12.0817928, 47.0692896 ], [ 12.0983043, 47.077727 ], [ 12.1191599, 47.0731742 ], [ 12.1341538, 47.0773804 ], [ 12.1364638, 47.0806517 ], [ 12.1514018, 47.0792152 ], [ 12.1862627, 47.0924247 ], [ 12.2277861, 47.081878 ], [ 12.2406881, 47.069175 ], [ 12.2168835, 47.0585553 ], [ 12.2164956, 47.045023 ], [ 12.2048451, 47.0265672 ], [ 12.1734989, 47.0234466 ], [ 12.1644534, 47.0184341 ], [ 12.1472924, 47.0247879 ], [ 12.1258869, 47.0127167 ], [ 12.121225, 47.0066135 ], [ 12.1308497, 46.9932224 ], [ 12.1276561, 46.9855968 ], [ 12.1382679, 46.9818942 ], [ 12.1371, 46.966518 ], [ 12.132307, 46.9628606 ], [ 12.1384873, 46.9567547 ], [ 12.1582171, 46.9503119 ], [ 12.1689087, 46.9370813 ], [ 12.1531714, 46.9163924 ], [ 12.1452678, 46.9146462 ], [ 12.1632439, 46.9072127 ], [ 12.1705439, 46.9101299 ], [ 12.1948052, 46.9037806 ], [ 12.2002758, 46.8964318 ], [ 12.1978134, 46.8931152 ], [ 12.2160911, 46.8742792 ], [ 12.2227675, 46.8799934 ], [ 12.232231, 46.8804089 ], [ 12.2365923, 46.8884748 ], [ 12.2422969, 46.8905623 ], [ 12.2737271, 46.883698 ], [ 12.2780661, 46.8778912 ], [ 12.2757765, 46.8729047 ], [ 12.2917827, 46.8653157 ], [ 12.2919335, 46.8500877 ], [ 12.2959113, 46.8437282 ], [ 12.3062035, 46.8402501 ], [ 12.3035872, 46.8324456 ], [ 12.2830697, 46.81523 ], [ 12.2897612, 46.8053154 ], [ 12.2877314, 46.7951498 ], [ 12.2803488, 46.7922305 ], [ 12.2837451, 46.783284 ], [ 12.3136203, 46.7837259 ], [ 12.3574811, 46.774853 ], [ 12.3702443, 46.7415559 ], [ 12.3776898, 46.7221119 ], [ 12.4148412, 46.7004679 ], [ 12.4273115, 46.6991193 ], [ 12.4281652, 46.6949881 ], [ 12.4424982, 46.6884172 ], [ 12.4464444, 46.6901119 ], [ 12.474185, 46.686816 ], [ 12.4799311, 46.6772428 ], [ 12.495974, 46.6768221 ], [ 12.5022657, 46.6807453 ], [ 12.5063483, 46.6778692 ], [ 12.5202648, 46.6771956 ], [ 12.551244, 46.6588812 ], [ 12.5692097, 46.6514108 ], [ 12.5765956, 46.6566685 ], [ 12.6013541, 46.6565965 ], [ 12.6125713, 46.6579723 ], [ 12.6187663, 46.6617804 ], [ 12.6311184, 46.6614255 ], [ 12.6324274, 46.6561711 ], [ 12.6419259, 46.6520551 ], [ 12.6588815, 46.6573923 ], [ 12.6906024, 46.6574317 ], [ 12.7015891, 46.6508003 ], [ 12.714685, 46.649091 ], [ 12.7310462, 46.6344887 ], [ 12.743657, 46.6372983 ], [ 12.7561406, 46.6472486 ], [ 12.7751903, 46.646795 ], [ 12.7951033, 46.642258 ], [ 12.8033165, 46.6331931 ], [ 12.8189045, 46.6281818 ], [ 12.8310739, 46.6310249 ], [ 12.8368851, 46.6267416 ], [ 12.8331048, 46.6119809 ], [ 12.8373587, 46.6078886 ], [ 12.8531464, 46.604223 ], [ 12.8658248, 46.6096823 ], [ 12.8900998, 46.6070178 ], [ 12.9285822, 46.6101299 ], [ 12.9478236, 46.6027305 ], [ 12.9572114, 46.6059825 ], [ 12.9876149, 46.5992063 ], [ 13.0021882, 46.6020926 ], [ 13.0078845, 46.5989604 ], [ 13.0215304, 46.6021114 ], [ 13.0341177, 46.5964241 ], [ 13.0455818, 46.5953292 ], [ 13.060789, 46.5971121 ], [ 13.0636982, 46.5999346 ], [ 13.0727608, 46.5988674 ], [ 13.0876171, 46.6007359 ], [ 13.1057488, 46.59373 ], [ 13.1088338, 46.5955175 ], [ 13.1438761, 46.5873777 ], [ 13.1684023, 46.5886937 ], [ 13.1685838, 46.5847898 ], [ 13.1931988, 46.5719859 ], [ 13.2179864, 46.5704491 ], [ 13.2327215, 46.5592007 ], [ 13.2323148, 46.5534969 ], [ 13.2405418, 46.5541968 ], [ 13.2529461, 46.5605755 ], [ 13.2619879, 46.5579101 ], [ 13.2692213, 46.5612609 ], [ 13.2845089, 46.5583993 ], [ 13.2949272, 46.5605445 ], [ 13.3109719, 46.5531725 ], [ 13.3203736, 46.5527963 ], [ 13.3430649, 46.5680992 ], [ 13.3643657, 46.570084 ], [ 13.3704293, 46.5671317 ], [ 13.3685809, 46.5738611 ], [ 13.3721456, 46.5792035 ], [ 13.408637, 46.5703792 ], [ 13.4076468, 46.5612941 ], [ 13.4233577, 46.5585756 ], [ 13.4742011, 46.5570773 ], [ 13.50451, 46.5661583 ], [ 13.5071783, 46.5560611 ], [ 13.5143666, 46.5490425 ], [ 13.5203958, 46.5467839 ], [ 13.5460292, 46.5535765 ], [ 13.5633902, 46.5515554 ], [ 13.5692846, 46.539489 ], [ 13.5760827, 46.5378917 ], [ 13.5924415, 46.5458984 ], [ 13.622162, 46.5421758 ], [ 13.6730987, 46.5232898 ], [ 13.6909132, 46.5210768 ], [ 13.7132664, 46.5225058 ], [ 13.7260246, 46.5233194 ], [ 13.7400522, 46.5168658 ], [ 13.7544731, 46.5179924 ], [ 13.7652643, 46.514795 ], [ 13.7763493, 46.5175505 ], [ 13.7799173, 46.5124182 ], [ 13.7943493, 46.5055693 ], [ 13.7987101, 46.5066851 ], [ 13.8147284, 46.5073571 ], [ 13.8315863, 46.518674 ], [ 13.8570196, 46.514099 ], [ 13.8791569, 46.5191867 ], [ 13.8821272, 46.5229959 ], [ 13.8967386, 46.5193539 ], [ 13.9201843, 46.5195153 ], [ 13.9280206, 46.5138977 ], [ 13.943161, 46.5114705 ], [ 13.9701306, 46.4967059 ], [ 13.9760352, 46.4981391 ], [ 14.0066204, 46.4810516 ], [ 14.0212777, 46.4815946 ], [ 14.0402913, 46.4927241 ], [ 14.0912678, 46.4857867 ], [ 14.1023837, 46.4788308 ], [ 14.1113834, 46.4789232 ], [ 14.1216379, 46.4766223 ], [ 14.1351696, 46.4589864 ], [ 14.1358405, 46.4505614 ], [ 14.1517315, 46.4409313 ], [ 14.1544544, 46.435919 ], [ 14.1758818, 46.4340367 ], [ 14.1908832, 46.4439739 ], [ 14.2073885, 46.4393065 ], [ 14.2190977, 46.4431928 ], [ 14.2278833, 46.4352892 ], [ 14.2384096, 46.4329306 ], [ 14.2831958, 46.4435256 ], [ 14.3017638, 46.4382249 ], [ 14.3104582, 46.4303064 ], [ 14.3325792, 46.4319149 ], [ 14.3437628, 46.4372238 ], [ 14.3568077, 46.4389881 ], [ 14.3819402, 46.4392379 ], [ 14.3982717, 46.4446289 ], [ 14.4297364, 46.4470672 ], [ 14.4352892, 46.4429657 ], [ 14.4385496, 46.4407482 ], [ 14.4301641, 46.4365916 ], [ 14.4418303, 46.4285811 ], [ 14.4426317, 46.4231845 ], [ 14.4765405, 46.4198107 ], [ 14.4795682, 46.4134293 ], [ 14.4921883, 46.4129964 ], [ 14.5055943, 46.4243752 ], [ 14.5219227, 46.4274638 ], [ 14.5298751, 46.4168825 ], [ 14.5400121, 46.4117565 ], [ 14.5413885, 46.4051477 ], [ 14.5538597, 46.3916922 ], [ 14.557092, 46.376904 ], [ 14.5652817, 46.3723001 ], [ 14.578559, 46.3772216 ], [ 14.5817327, 46.3813162 ], [ 14.5876401, 46.3963744 ], [ 14.5888336, 46.4144346 ], [ 14.5826243, 46.4181999 ], [ 14.5960737, 46.4368093 ], [ 14.6117047, 46.4397398 ], [ 14.6315385, 46.4392829 ], [ 14.6403672, 46.4428079 ], [ 14.6600584, 46.4444798 ], [ 14.6655393, 46.4493732 ], [ 14.6751098, 46.4506199 ], [ 14.683503, 46.4679558 ], [ 14.6929841, 46.4638764 ], [ 14.6995406, 46.4636815 ], [ 14.7022398, 46.4669688 ], [ 14.6976481, 46.4744452 ], [ 14.7023552, 46.4804256 ], [ 14.709342, 46.4806926 ], [ 14.714554, 46.4998907 ], [ 14.7225605, 46.4981474 ], [ 14.7306987, 46.4944924 ], [ 14.7384676, 46.5015388 ], [ 14.7484846, 46.4976593 ], [ 14.759066, 46.5042934 ], [ 14.7768821, 46.504529 ], [ 14.7842783, 46.4989929 ], [ 14.806107, 46.5075215 ], [ 14.8180812, 46.5089772 ], [ 14.8175831, 46.5208496 ], [ 14.8219941, 46.5244086 ], [ 14.8227248, 46.5344838 ], [ 14.83089, 46.539406 ], [ 14.8230739, 46.5429714 ], [ 14.8231264, 46.5458494 ], [ 14.8298635, 46.5485686 ], [ 14.8381849, 46.5583524 ], [ 14.8348838, 46.5631489 ], [ 14.8400607, 46.5726625 ], [ 14.8522895, 46.5820157 ], [ 14.8572856, 46.591643 ], [ 14.8662933, 46.59632 ], [ 14.8670919, 46.6044447 ], [ 14.8799833, 46.6114196 ], [ 14.8877264, 46.6132991 ], [ 14.9184745, 46.6021155 ], [ 14.9234242, 46.6050015 ], [ 14.9204378, 46.6164254 ], [ 14.9231338, 46.6206868 ], [ 14.9314364, 46.6151755 ], [ 14.9566654, 46.6329076 ], [ 14.9652901, 46.6288936 ], [ 14.9681037, 46.6270025 ], [ 14.9701899, 46.6249191 ], [ 14.9727998, 46.620624 ], [ 14.9741793, 46.6166684 ], [ 14.9758035, 46.6110252 ], [ 14.9777239, 46.6060444 ], [ 14.9792263, 46.6034076 ], [ 14.9799886, 46.6020697 ], [ 14.9963198, 46.6151714 ], [ 14.9948632, 46.6212716 ], [ 15.016163, 46.6404285 ], [ 15.0408627, 46.6518386 ], [ 15.0654907, 46.6517281 ], [ 15.0823866, 46.6453206 ], [ 15.0890887, 46.651493 ], [ 15.1104705, 46.6597573 ], [ 15.1284912, 46.6502065 ], [ 15.1336701, 46.6564321 ], [ 15.145384, 46.6596582 ], [ 15.162713, 46.6576603 ], [ 15.1684814, 46.6537163 ], [ 15.1812075, 46.6560675 ], [ 15.1968716, 46.6455375 ], [ 15.2049935, 46.6450154 ], [ 15.235483, 46.6391056 ], [ 15.2622111, 46.6447213 ], [ 15.2770083, 46.6434829 ], [ 15.2933857, 46.6524132 ], [ 15.3078105, 46.65231 ], [ 15.3188314, 46.6476947 ], [ 15.328333, 46.6530413 ], [ 15.3441674, 46.6508316 ], [ 15.3537323, 46.6550432 ], [ 15.3560179, 46.6514645 ], [ 15.3708369, 46.6497015 ], [ 15.3830966, 46.6515673 ], [ 15.4199563, 46.6550082 ], [ 15.4238976, 46.6474741 ], [ 15.4304151, 46.6467522 ], [ 15.433909, 46.6424438 ], [ 15.4396832, 46.6400155 ], [ 15.4495702, 46.6424314 ], [ 15.4568201, 46.63915 ], [ 15.4553438, 46.6303139 ], [ 15.4623989, 46.6260229 ], [ 15.4621919, 46.6153433 ], [ 15.4723067, 46.6122628 ], [ 15.4783228, 46.6131896 ], [ 15.4882679, 46.6208833 ], [ 15.4998592, 46.6184857 ], [ 15.5038119, 46.6144573 ], [ 15.5120228, 46.6170355 ], [ 15.5124995, 46.6226164 ], [ 15.520083, 46.6219241 ], [ 15.523917, 46.62483 ], [ 15.5369956, 46.6340528 ], [ 15.5451232, 46.6345771 ], [ 15.5510451, 46.6404922 ], [ 15.544081, 46.6460574 ], [ 15.5468618, 46.6488654 ], [ 15.5514369, 46.6477456 ], [ 15.5533335, 46.6511679 ], [ 15.5461066, 46.670216 ], [ 15.5600144, 46.6736216 ], [ 15.5702214, 46.6810218 ], [ 15.5894029, 46.6833705 ], [ 15.5904641, 46.6860492 ], [ 15.5987579, 46.6903759 ], [ 15.6087038, 46.6876599 ], [ 15.6043127, 46.6846365 ], [ 15.6055107, 46.6810998 ], [ 15.614281, 46.6820731 ], [ 15.6300272, 46.6804351 ], [ 15.6383544, 46.6914789 ], [ 15.6532873, 46.6911911 ], [ 15.6543404, 46.7000132 ], [ 15.6515102, 46.7038661 ], [ 15.6501625, 46.7057005 ], [ 15.6554262, 46.705623 ], [ 15.6607311, 46.7057997 ], [ 15.6663504, 46.7060411 ], [ 15.6715547, 46.7062909 ], [ 15.6749793, 46.70622 ], [ 15.677668, 46.7059499 ], [ 15.6809606, 46.7052385 ], [ 15.6845299, 46.7037353 ], [ 15.6901114, 46.700761 ], [ 15.6940794, 46.6988918 ], [ 15.6979813, 46.6978814 ], [ 15.7032507, 46.6972709 ], [ 15.7130789, 46.6964213 ], [ 15.7205657, 46.6960588 ], [ 15.7265995, 46.6965105 ], [ 15.7284676, 46.6968323 ], [ 15.7309096, 46.6975179 ], [ 15.7353065, 46.6988093 ], [ 15.7385551, 46.6994548 ], [ 15.7410498, 46.699613 ], [ 15.7438532, 46.6994848 ], [ 15.7480815, 46.6988229 ], [ 15.7524662, 46.6978481 ], [ 15.7542585, 46.697619 ], [ 15.7572673, 46.6975545 ], [ 15.7613461, 46.6981815 ], [ 15.7690955, 46.6995868 ], [ 15.7752036, 46.7015345 ], [ 15.77956, 46.7035767 ], [ 15.7848838, 46.706357 ], [ 15.7856851, 46.7067858 ], [ 15.7943082, 46.7113998 ], [ 15.7990257, 46.7136041 ], [ 15.8034492, 46.7153291 ], [ 15.8109468, 46.7171545 ], [ 15.8205715, 46.7193251 ], [ 15.8268546, 46.7203776 ], [ 15.8288098, 46.7206088 ], [ 15.8336458, 46.7211804 ], [ 15.835864, 46.7213475 ], [ 15.8409796, 46.7217326 ], [ 15.8495011, 46.7217577 ], [ 15.8561441, 46.7216097 ], [ 15.8619533, 46.7214084 ], [ 15.8702299, 46.7206514 ], [ 15.8733302, 46.720296 ], [ 15.877212, 46.7194213 ], [ 15.9087651, 46.711125 ], [ 15.9142467, 46.7089159 ], [ 15.9161674, 46.7079566 ], [ 15.9307061, 46.6991343 ], [ 15.9352469, 46.6955671 ], [ 15.9415423, 46.6915513 ], [ 15.9444953, 46.6899943 ], [ 15.9476835, 46.6885283 ], [ 15.9508051, 46.687658 ], [ 15.9554343, 46.6867646 ], [ 15.9602813, 46.6860803 ], [ 15.9660793, 46.685731 ], [ 15.9726032, 46.6853644 ], [ 15.9772742, 46.6853267 ], [ 15.9802715, 46.6850421 ], [ 15.983542, 46.6847065 ], [ 15.9860515, 46.6843349 ], [ 15.9895425, 46.6835382 ], [ 15.9941458, 46.6821436 ], [ 15.9980983, 46.6801925 ], [ 16.0016249, 46.6780368 ], [ 16.0037113, 46.6761671 ], [ 16.0046759, 46.6746775 ], [ 16.0052842, 46.6723048 ], [ 16.006418, 46.6700627 ], [ 16.0080737, 46.6678796 ], [ 16.0095541, 46.6663438 ], [ 16.0123643, 46.6644192 ], [ 16.0146023, 46.6635085 ], [ 16.0180736, 46.6623541 ], [ 16.0189717, 46.6621365 ], [ 16.0233036, 46.6610863 ], [ 16.0265709, 46.660008 ], [ 16.0304348, 46.658415 ], [ 16.0317329, 46.6577246 ], [ 16.0377982, 46.6544983 ], [ 16.0426028, 46.6864296 ], [ 16.0283517, 46.7006412 ], [ 16.0299741, 46.712007 ], [ 16.0213626, 46.7108591 ], [ 16.0167523, 46.7164237 ], [ 16.0039054, 46.7169178 ], [ 16.0040396, 46.7227833 ], [ 15.9935264, 46.7305335 ], [ 15.9855639, 46.7519457 ], [ 15.9891704, 46.759018 ], [ 15.9886553, 46.780057 ], [ 15.994024, 46.7923971 ], [ 15.9916902, 46.8052085 ], [ 15.9984277, 46.8086829 ], [ 15.9863073, 46.82715 ], [ 15.9975414, 46.8351808 ], [ 16.0068602, 46.8310249 ], [ 16.027917, 46.8412304 ], [ 16.0338864, 46.8356784 ], [ 16.0429152, 46.8409281 ], [ 16.0580048, 46.8383211 ], [ 16.0659279, 46.85025 ], [ 16.0716319, 46.8529079 ], [ 16.0792664, 46.8521517 ], [ 16.091652, 46.8649522 ], [ 16.0990933, 46.8607581 ], [ 16.110835, 46.8691294 ], [ 16.1190123, 46.8710053 ], [ 16.1241618, 46.8721863 ], [ 16.1307911, 46.8764798 ], [ 16.1364751, 46.8801603 ], [ 16.1386341, 46.8853184 ], [ 16.1456238, 46.8862659 ], [ 16.1485786, 46.8931342 ], [ 16.1581309, 46.8972151 ], [ 16.1625415, 46.9048769 ], [ 16.1712467, 46.9036755 ], [ 16.1788109, 46.9066365 ], [ 16.1896697, 46.9262507 ], [ 16.1958209, 46.9379109 ], [ 16.1971712, 46.9404698 ], [ 16.2020454, 46.9403706 ], [ 16.2041274, 46.9392416 ], [ 16.20458, 46.9389962 ], [ 16.2061155, 46.9396286 ], [ 16.208047, 46.940424 ], [ 16.216586, 46.9391088 ], [ 16.2166377, 46.9389228 ], [ 16.2174296, 46.9360763 ], [ 16.2186439, 46.9359736 ], [ 16.2200306, 46.9358907 ], [ 16.2212193, 46.9360034 ], [ 16.2226421, 46.9365866 ], [ 16.2236072, 46.9377056 ], [ 16.2240278, 46.9383305 ], [ 16.2243639, 46.9388298 ], [ 16.2250895, 46.9393831 ], [ 16.2257998, 46.9396509 ], [ 16.2273514, 46.9400402 ], [ 16.2297522, 46.9406936 ], [ 16.2314342, 46.9414924 ], [ 16.2326087, 46.9420501 ], [ 16.2344389, 46.9437186 ], [ 16.2346088, 46.9438651 ], [ 16.235182, 46.9443592 ], [ 16.236264, 46.945292 ], [ 16.2378444, 46.9462045 ], [ 16.2394787, 46.9468297 ], [ 16.2412313, 46.9470707 ], [ 16.2422024, 46.9471769 ], [ 16.2435263, 46.9475301 ], [ 16.2445223, 46.948249 ], [ 16.2453701, 46.9486442 ], [ 16.2462369, 46.9488697 ], [ 16.2469795, 46.949063 ], [ 16.2446171, 46.9521562 ], [ 16.2418827, 46.9565035 ], [ 16.2551739, 46.9643659 ], [ 16.2580814, 46.9643505 ], [ 16.2582636, 46.9642873 ], [ 16.2608411, 46.9636967 ], [ 16.2638651, 46.9629993 ], [ 16.2670593, 46.9622189 ], [ 16.2681382, 46.9617347 ], [ 16.2700633, 46.9628113 ], [ 16.2757963, 46.9634371 ], [ 16.2768432, 46.9697829 ], [ 16.2758582, 46.9842282 ], [ 16.289719, 47.0135171 ], [ 16.2984809, 47.0093377 ], [ 16.2987072, 47.0058116 ], [ 16.30242, 46.9983108 ], [ 16.3222455, 47.0026056 ], [ 16.3418101, 46.9958601 ], [ 16.3432706, 46.9987024 ], [ 16.3440338, 47.0039014 ], [ 16.3511356, 47.009433 ], [ 16.3602466, 47.0053206 ], [ 16.3675193, 47.0060114 ], [ 16.3729836, 46.9982921 ], [ 16.3864884, 47.0003827 ], [ 16.4122783, 47.0045691 ], [ 16.4198121, 46.9958835 ], [ 16.4318749, 46.9922582 ], [ 16.4452204, 46.9931547 ], [ 16.448002, 47.0033884 ], [ 16.4789565, 46.99399 ], [ 16.4867689, 46.9952573 ], [ 16.4892405, 46.9998957 ], [ 16.4960987, 46.9980604 ], [ 16.5042349, 47.0014847 ], [ 16.5122268, 47.0008522 ], [ 16.512144, 47.0035958 ], [ 16.5107995, 47.0038209 ], [ 16.5094433, 47.0039731 ], [ 16.5078816, 47.0044171 ], [ 16.5066059, 47.0049864 ], [ 16.5056865, 47.0057975 ], [ 16.504507, 47.0067034 ], [ 16.5018068, 47.0081511 ], [ 16.4992449, 47.0091184 ], [ 16.4975472, 47.0096231 ], [ 16.4963634, 47.0098658 ], [ 16.4948968, 47.01004 ], [ 16.4940645, 47.0101013 ], [ 16.4934024, 47.010215 ], [ 16.4927494, 47.0104809 ], [ 16.4922979, 47.0108557 ], [ 16.491839, 47.0115737 ], [ 16.4912664, 47.0122567 ], [ 16.4906236, 47.0126939 ], [ 16.490371, 47.0128463 ], [ 16.4897626, 47.0132134 ], [ 16.4887727, 47.0139081 ], [ 16.4875527, 47.0149522 ], [ 16.4869256, 47.0156558 ], [ 16.4857679, 47.0168125 ], [ 16.4845, 47.0179913 ], [ 16.4836584, 47.0193108 ], [ 16.4827868, 47.020593 ], [ 16.4822054, 47.0216003 ], [ 16.4821299, 47.0222952 ], [ 16.4776995, 47.0209951 ], [ 16.4753606, 47.0269706 ], [ 16.4636262, 47.0322463 ], [ 16.4481474, 47.022431 ], [ 16.4387567, 47.0296269 ], [ 16.4438303, 47.0343087 ], [ 16.4408614, 47.0364973 ], [ 16.4508675, 47.0397618 ], [ 16.4791912, 47.0474117 ], [ 16.5064649, 47.0495962 ], [ 16.5204646, 47.0565007 ], [ 16.5205624, 47.0617268 ], [ 16.5094942, 47.0664934 ], [ 16.495894, 47.0705788 ], [ 16.4874365, 47.0687374 ], [ 16.4826623, 47.075202 ], [ 16.4726818, 47.0751243 ], [ 16.4749734, 47.0853669 ], [ 16.4656317, 47.0891108 ], [ 16.4634989, 47.094825 ], [ 16.4643776, 47.0987546 ], [ 16.470264, 47.1023071 ], [ 16.4749287, 47.1050705 ], [ 16.475382, 47.1046854 ], [ 16.4763422, 47.103458 ], [ 16.4771472, 47.1019681 ], [ 16.4772082, 47.1016918 ], [ 16.4772894, 47.101324 ], [ 16.4845423, 47.1025091 ], [ 16.4822944, 47.1090506 ], [ 16.5002936, 47.1099168 ], [ 16.4991618, 47.1233928 ], [ 16.529276, 47.1273667 ], [ 16.5285878, 47.137451 ], [ 16.52231, 47.1403578 ], [ 16.516553, 47.149344 ], [ 16.4884806, 47.1487369 ], [ 16.4682935, 47.1428254 ], [ 16.4542916, 47.1423462 ], [ 16.4492371, 47.1520386 ], [ 16.4531257, 47.1577376 ], [ 16.4596466, 47.1590089 ], [ 16.4622148, 47.16246 ], [ 16.4617034, 47.1639114 ], [ 16.4612215, 47.1652788 ], [ 16.4607508, 47.1679602 ], [ 16.4606502, 47.1684487 ], [ 16.4635793, 47.1690627 ], [ 16.4594695, 47.1778719 ], [ 16.457084, 47.1778216 ], [ 16.4565708, 47.1788441 ], [ 16.4552011, 47.1816931 ], [ 16.4546736, 47.1828134 ], [ 16.4542692, 47.1836723 ], [ 16.4534461, 47.1851244 ], [ 16.4525363, 47.1862929 ], [ 16.4518121, 47.1870513 ], [ 16.4507125, 47.1882234 ], [ 16.4284077, 47.1847895 ], [ 16.4210522, 47.1971722 ], [ 16.4167431, 47.2048472 ], [ 16.4170715, 47.2053389 ], [ 16.4173675, 47.2059286 ], [ 16.4174078, 47.2060555 ], [ 16.4177955, 47.2072751 ], [ 16.4182892, 47.2085483 ], [ 16.4187522, 47.2098938 ], [ 16.419175, 47.2105495 ], [ 16.4196776, 47.2107742 ], [ 16.4200352, 47.2108305 ], [ 16.4200534, 47.2108334 ], [ 16.4207947, 47.2107439 ], [ 16.4213072, 47.2105395 ], [ 16.4215587, 47.2100562 ], [ 16.4215967, 47.2095071 ], [ 16.4216919, 47.2087422 ], [ 16.4221753, 47.2080381 ], [ 16.422685, 47.2077861 ], [ 16.4232855, 47.2076962 ], [ 16.4241609, 47.2079129 ], [ 16.4248913, 47.2081901 ], [ 16.425462, 47.20864 ], [ 16.4260441, 47.2090293 ], [ 16.427013, 47.2094557 ], [ 16.4283241, 47.2097537 ], [ 16.4296939, 47.2098595 ], [ 16.4310539, 47.2097987 ], [ 16.4320266, 47.209621 ], [ 16.436622, 47.2098602 ], [ 16.4366068, 47.2147551 ], [ 16.4396766, 47.217016 ], [ 16.4384395, 47.2216813 ], [ 16.4401206, 47.2272932 ], [ 16.4418336, 47.2485779 ], [ 16.4305291, 47.2503417 ], [ 16.4320926, 47.252976 ], [ 16.4467569, 47.2533495 ], [ 16.4691013, 47.2551248 ], [ 16.4799015, 47.2625504 ], [ 16.4786413, 47.2754142 ], [ 16.4802349, 47.2783895 ], [ 16.4897437, 47.2804099 ], [ 16.4831171, 47.2929033 ], [ 16.464734, 47.3340308 ], [ 16.4569401, 47.3393191 ], [ 16.4476784, 47.3398503 ], [ 16.4447153, 47.3466441 ], [ 16.4343382, 47.3526436 ], [ 16.4472261, 47.357534 ], [ 16.4528504, 47.3568988 ], [ 16.4575064, 47.3670308 ], [ 16.4512146, 47.377552 ], [ 16.4576794, 47.3848129 ], [ 16.4453553, 47.4067809 ], [ 16.4584862, 47.4130277 ], [ 16.4852018, 47.4090385 ], [ 16.4911015, 47.4057566 ], [ 16.4836338, 47.3978694 ], [ 16.4890681, 47.3943094 ], [ 16.4965574, 47.3961341 ], [ 16.4965088, 47.3889745 ], [ 16.5100842, 47.3969418 ], [ 16.5082425, 47.4048239 ], [ 16.513542, 47.4048878 ], [ 16.5167369, 47.4093798 ], [ 16.5397953, 47.4103036 ], [ 16.5459509, 47.4055165 ], [ 16.5746762, 47.4059732 ], [ 16.5745581, 47.4121615 ], [ 16.5822304, 47.4150864 ], [ 16.5875018, 47.4228233 ], [ 16.5876216, 47.4229991 ], [ 16.5879023, 47.4230418 ], [ 16.6035239, 47.4254186 ], [ 16.6114825, 47.4316508 ], [ 16.6200934, 47.4306673 ], [ 16.627314, 47.4420633 ], [ 16.6460317, 47.4461967 ], [ 16.6513243, 47.4488175 ], [ 16.6614823, 47.4551452 ], [ 16.6617599, 47.4553181 ], [ 16.6617967, 47.4578156 ], [ 16.6619201, 47.4661741 ], [ 16.670314, 47.4742719 ], [ 16.6525895, 47.5005586 ], [ 16.6625957, 47.5089314 ], [ 16.668947, 47.5035613 ], [ 16.6901384, 47.5105226 ], [ 16.6946877, 47.517695 ], [ 16.7052528, 47.5229591 ], [ 16.7027894, 47.5333645 ], [ 16.7141369, 47.5396954 ], [ 16.710351, 47.5434047 ], [ 16.6977346, 47.5457567 ], [ 16.6890713, 47.5593109 ], [ 16.6711519, 47.5601473 ], [ 16.6630738, 47.5687691 ], [ 16.6705186, 47.5712028 ], [ 16.6745964, 47.5791238 ], [ 16.6659857, 47.5965078 ], [ 16.6732065, 47.6048874 ], [ 16.6596503, 47.6062574 ], [ 16.65278, 47.6225831 ], [ 16.6355541, 47.6276482 ], [ 16.6188739, 47.6259904 ], [ 16.5905357, 47.6176473 ], [ 16.5724025, 47.6201416 ], [ 16.5488714, 47.6337867 ], [ 16.51457, 47.6462121 ], [ 16.5072385, 47.6386143 ], [ 16.4983523, 47.6395177 ], [ 16.4875533, 47.6419788 ], [ 16.4800167, 47.6501191 ], [ 16.4627157, 47.6514346 ], [ 16.4505463, 47.6560345 ], [ 16.4399653, 47.656962 ], [ 16.4217942, 47.6648915 ], [ 16.4215284, 47.6653865 ], [ 16.4433422, 47.6742094 ], [ 16.4473047, 47.6965108 ], [ 16.4541928, 47.6968367 ], [ 16.4614998, 47.6827622 ], [ 16.4745212, 47.6810744 ], [ 16.4759432, 47.6899049 ], [ 16.4847392, 47.6913779 ], [ 16.4867817, 47.6976262 ], [ 16.4935786, 47.6984894 ], [ 16.4999134, 47.7046233 ], [ 16.5171358, 47.7069269 ], [ 16.520766, 47.7122635 ], [ 16.5343268, 47.7107661 ], [ 16.5413884, 47.7139643 ], [ 16.5521516, 47.7224169 ], [ 16.5366259, 47.7369883 ], [ 16.5377052, 47.7402335 ], [ 16.5422592, 47.742159 ], [ 16.548891, 47.7433071 ], [ 16.5484579, 47.7515373 ], [ 16.56638, 47.7512689 ], [ 16.5878441, 47.7551993 ], [ 16.5907528, 47.7581157 ], [ 16.5988648, 47.7559749 ], [ 16.6087306, 47.760422 ], [ 16.6220133, 47.7574487 ], [ 16.6344022, 47.7595217 ], [ 16.6401382, 47.7481204 ], [ 16.6555034, 47.7420167 ], [ 16.6889713, 47.7386583 ], [ 16.7203118, 47.7355042 ], [ 16.7211344, 47.7223972 ], [ 16.739785, 47.6952433 ], [ 16.7488829, 47.6815849 ], [ 16.8164108, 47.6826256 ], [ 16.8285526, 47.6828085 ], [ 16.8389919, 47.704682 ], [ 16.8558214, 47.7114693 ], [ 16.8666389, 47.7217 ], [ 16.871467, 47.6900697 ], [ 16.8733527, 47.6883373 ], [ 16.8736571, 47.6883279 ], [ 16.8775656, 47.6882516 ], [ 16.8800012, 47.6882041 ], [ 16.8976501, 47.6877304 ], [ 16.9086525, 47.6876036 ], [ 16.9122544, 47.6876346 ], [ 16.9144877, 47.6877796 ], [ 16.9199246, 47.6883252 ], [ 16.9576854, 47.6927496 ], [ 16.9577267, 47.6927544 ], [ 16.9615905, 47.6932516 ], [ 16.9790318, 47.6954959 ], [ 16.9973385, 47.6978514 ], [ 17.0217417, 47.7010333 ], [ 17.0363923, 47.7029435 ], [ 17.0519414, 47.7045562 ], [ 17.0861133, 47.7069203 ], [ 17.0932567, 47.7072397 ], [ 17.0698399, 47.7266906 ], [ 17.0669302, 47.7682937 ], [ 17.0638975, 47.7776136 ], [ 17.0510435, 47.7937936 ], [ 17.0748872, 47.8083206 ], [ 17.0598824, 47.8199823 ], [ 17.061134, 47.8225916 ], [ 17.0467782, 47.8285004 ], [ 17.0514375, 47.8380951 ], [ 17.0101313, 47.8585902 ], [ 17.0178122, 47.868537 ], [ 17.0395363, 47.866814 ], [ 17.04868, 47.871803 ], [ 17.0776488, 47.8775467 ], [ 17.0851972, 47.8744668 ], [ 17.104292, 47.8992263 ], [ 17.0967872, 47.9063994 ], [ 17.1125211, 47.9272135 ], [ 17.0901425, 47.93427 ], [ 17.1012128, 47.9452685 ], [ 17.1168404, 47.960785 ], [ 17.0948938, 47.970816 ], [ 17.1607416, 48.0067054 ], [ 17.1438273, 48.0203789 ], [ 17.1311099, 48.0233276 ], [ 17.1267303, 48.0209745 ], [ 17.1103707, 48.0313658 ], [ 17.0902113, 48.019916 ], [ 17.0756101, 48.0272239 ], [ 17.0672874, 48.0312792 ], [ 17.0872567, 48.0453602 ], [ 17.0840275, 48.0502378 ], [ 17.0682875, 48.0554475 ], [ 17.0699048, 48.0569121 ], [ 17.0864184, 48.0652233 ], [ 17.0724326, 48.0705123 ], [ 17.0788091, 48.0781517 ], [ 17.071456, 48.0810679 ], [ 17.0748239, 48.0857228 ], [ 17.0931972, 48.0910712 ], [ 17.0879602, 48.0964658 ], [ 17.0928123, 48.0995636 ], [ 17.0775585, 48.1060035 ], [ 17.0666595, 48.1186191 ], [ 17.0623961, 48.1229989 ], [ 17.0691201, 48.1244852 ], [ 17.0584236, 48.1422532 ], [ 17.0549146, 48.1418782 ], [ 17.0491902, 48.1409892 ], [ 17.0422531, 48.1395669 ], [ 17.0389091, 48.1391018 ], [ 17.0348547, 48.1391596 ], [ 17.0314549, 48.1394109 ], [ 17.0282072, 48.1403007 ], [ 17.0251979, 48.1415402 ], [ 17.022843, 48.1429733 ], [ 17.0207214, 48.1446848 ], [ 17.0183354, 48.147191 ], [ 17.0158225, 48.1494153 ], [ 17.0129744, 48.1514357 ], [ 17.0057652, 48.1552381 ], [ 16.9993584, 48.1584634 ], [ 16.9955739, 48.1607067 ], [ 16.989235, 48.1647665 ], [ 16.9871381, 48.1660277 ], [ 16.9841407, 48.1678302 ], [ 16.9795933, 48.1705023 ], [ 16.9773716, 48.171597 ], [ 16.9768043, 48.1718764 ], [ 16.9746517, 48.1723242 ], [ 16.9746841, 48.1735434 ], [ 16.9748156, 48.1743604 ], [ 16.9751518, 48.1763633 ], [ 16.9758761, 48.1795811 ], [ 16.9759539, 48.1827239 ], [ 16.9755539, 48.1861675 ], [ 16.974785, 48.1894322 ], [ 16.9734404, 48.1926195 ], [ 16.9724079, 48.1951775 ], [ 16.9709686, 48.1980341 ], [ 16.9689322, 48.201529 ], [ 16.967309, 48.2048202 ], [ 16.9659736, 48.20815 ], [ 16.9637389, 48.214939 ], [ 16.9627822, 48.2176532 ], [ 16.9610446, 48.2218164 ], [ 16.9593414, 48.2243857 ], [ 16.9571296, 48.2270279 ], [ 16.9529196, 48.2304756 ], [ 16.949015, 48.2333991 ], [ 16.9477359, 48.2346969 ], [ 16.9465897, 48.2366767 ], [ 16.9463077, 48.2375432 ], [ 16.9463136, 48.2388583 ], [ 16.9467982, 48.2409018 ], [ 16.9479882, 48.2444674 ], [ 16.9500824, 48.2499491 ], [ 16.950921, 48.2521532 ], [ 16.9520239, 48.2544634 ], [ 16.953737, 48.2569261 ], [ 16.9549912, 48.2589457 ], [ 16.9563132, 48.2619353 ], [ 16.9562618, 48.2636524 ], [ 16.9552703, 48.2653987 ], [ 16.9534162, 48.2670575 ], [ 16.9509478, 48.2685067 ], [ 16.9481135, 48.269624 ], [ 16.9457483, 48.2700977 ], [ 16.9434273, 48.2703565 ], [ 16.938398, 48.2703256 ], [ 16.9330989, 48.2704896 ], [ 16.9290936, 48.2707849 ], [ 16.9266506, 48.271375 ], [ 16.9250905, 48.2721604 ], [ 16.9219665, 48.2745501 ], [ 16.9179309, 48.2781292 ], [ 16.9131026, 48.283162 ], [ 16.9089204, 48.2872217 ], [ 16.9038323, 48.2936915 ], [ 16.9006969, 48.2978727 ], [ 16.8983359, 48.3023337 ], [ 16.8966415, 48.3062571 ], [ 16.8957562, 48.3089645 ], [ 16.8951904, 48.3111261 ], [ 16.8952844, 48.3124931 ], [ 16.8961966, 48.3140734 ], [ 16.8972544, 48.3151727 ], [ 16.8994871, 48.3164743 ], [ 16.9027411, 48.3183403 ], [ 16.9060926, 48.3203222 ], [ 16.9070903, 48.3218403 ], [ 16.9074274, 48.3228425 ], [ 16.9070555, 48.323926 ], [ 16.9059102, 48.3254502 ], [ 16.9034197, 48.3268965 ], [ 16.898543, 48.3287135 ], [ 16.8893273, 48.3323901 ], [ 16.8818363, 48.3351795 ], [ 16.8766459, 48.33635 ], [ 16.8734853, 48.3371608 ], [ 16.8719496, 48.3382199 ], [ 16.8710501, 48.3394384 ], [ 16.8708679, 48.3406947 ], [ 16.8712854, 48.3415755 ], [ 16.8727972, 48.3427804 ], [ 16.8740172, 48.3436367 ], [ 16.8746171, 48.3445715 ], [ 16.8747713, 48.3455198 ], [ 16.8744189, 48.3469004 ], [ 16.8736733, 48.3477569 ], [ 16.8725466, 48.3482676 ], [ 16.8707795, 48.3485594 ], [ 16.867918, 48.3485271 ], [ 16.8634272, 48.3481867 ], [ 16.8587662, 48.3479704 ], [ 16.8533027, 48.3477781 ], [ 16.8494846, 48.3481315 ], [ 16.846939, 48.3488039 ], [ 16.845743, 48.3496142 ], [ 16.8446684, 48.3508973 ], [ 16.8439585, 48.3522886 ], [ 16.8430575, 48.3548172 ], [ 16.8416697, 48.3580752 ], [ 16.8406585, 48.3601384 ], [ 16.8401252, 48.3616094 ], [ 16.8397351, 48.3634508 ], [ 16.839746, 48.3648799 ], [ 16.8400995, 48.3662987 ], [ 16.8406082, 48.368742 ], [ 16.840549, 48.3704019 ], [ 16.8401511, 48.3721291 ], [ 16.8388304, 48.37417 ], [ 16.8366724, 48.3765219 ], [ 16.834875, 48.3787071 ], [ 16.8344596, 48.3791656 ], [ 16.8341085, 48.3803197 ], [ 16.8344973, 48.3813086 ], [ 16.8348716, 48.3820835 ], [ 16.8356597, 48.3826316 ], [ 16.8363263, 48.382969 ], [ 16.8373093, 48.3832253 ], [ 16.8393909, 48.3835741 ], [ 16.842213, 48.3835596 ], [ 16.8446894, 48.3833707 ], [ 16.8467453, 48.3833088 ], [ 16.8483883, 48.3834881 ], [ 16.8498794, 48.3839577 ], [ 16.8504205, 48.3843416 ], [ 16.8506422, 48.3850782 ], [ 16.8509532, 48.3871272 ], [ 16.8511982, 48.3882062 ], [ 16.8520856, 48.3898947 ], [ 16.8533312, 48.3918012 ], [ 16.8543862, 48.3934275 ], [ 16.8552487, 48.3956814 ], [ 16.8555888, 48.397222 ], [ 16.855425, 48.3985992 ], [ 16.8545016, 48.4001708 ], [ 16.8534963, 48.401802 ], [ 16.852545, 48.4034541 ], [ 16.8517113, 48.4058582 ], [ 16.8514069, 48.407697 ], [ 16.8516246, 48.4096344 ], [ 16.8523293, 48.4111569 ], [ 16.8534315, 48.41221 ], [ 16.8561193, 48.4138442 ], [ 16.8590566, 48.4153565 ], [ 16.8613084, 48.4168894 ], [ 16.8620953, 48.4183522 ], [ 16.8621848, 48.4196645 ], [ 16.8617483, 48.4208213 ], [ 16.8605298, 48.4224017 ], [ 16.8586307, 48.4242316 ], [ 16.8555088, 48.4275849 ], [ 16.8540624, 48.4303157 ], [ 16.852647, 48.433503 ], [ 16.8517772, 48.4358734 ], [ 16.8511396, 48.4385941 ], [ 16.8507937, 48.4403627 ], [ 16.8504267, 48.4425464 ], [ 16.8501139, 48.445529 ], [ 16.8504135, 48.4474067 ], [ 16.8510097, 48.4485894 ], [ 16.8515825, 48.4494298 ], [ 16.8529195, 48.4501328 ], [ 16.8543191, 48.4504909 ], [ 16.8563883, 48.4509297 ], [ 16.8590285, 48.4514923 ], [ 16.8601708, 48.4518581 ], [ 16.8610831, 48.452631 ], [ 16.8616522, 48.4534142 ], [ 16.8619213, 48.45458 ], [ 16.8615117, 48.4551337 ], [ 16.8608567, 48.4556109 ], [ 16.859796, 48.4564434 ], [ 16.8593319, 48.4572007 ], [ 16.859133, 48.4580643 ], [ 16.8591484, 48.4595504 ], [ 16.859581, 48.4608523 ], [ 16.8604388, 48.4620843 ], [ 16.8613668, 48.4630854 ], [ 16.8629032, 48.4641825 ], [ 16.8649388, 48.4650358 ], [ 16.8667834, 48.465609 ], [ 16.8688854, 48.4661743 ], [ 16.8704766, 48.4668123 ], [ 16.8718261, 48.4676862 ], [ 16.8732849, 48.4688999 ], [ 16.8752509, 48.4712417 ], [ 16.8768818, 48.473708 ], [ 16.8778416, 48.4751654 ], [ 16.8785907, 48.4760575 ], [ 16.8793379, 48.4765309 ], [ 16.8801715, 48.4768951 ], [ 16.8806607, 48.4769756 ], [ 16.8811353, 48.4769993 ], [ 16.8820168, 48.4768963 ], [ 16.8829632, 48.4764864 ], [ 16.8840773, 48.4760142 ], [ 16.8850706, 48.4758697 ], [ 16.88593, 48.4758626 ], [ 16.886718, 48.4760673 ], [ 16.8874346, 48.4764839 ], [ 16.8882047, 48.4772609 ], [ 16.8888267, 48.4783855 ], [ 16.8891094, 48.4795776 ], [ 16.8895152, 48.4807952 ], [ 16.8901626, 48.4818713 ], [ 16.8912261, 48.4827442 ], [ 16.8928978, 48.4841227 ], [ 16.8935972, 48.4849114 ], [ 16.8940105, 48.4857088 ], [ 16.8940662, 48.4865171 ], [ 16.8937577, 48.4872412 ], [ 16.8919052, 48.4884411 ], [ 16.8908978, 48.4894247 ], [ 16.8907585, 48.4905248 ], [ 16.8910031, 48.4919944 ], [ 16.8918816, 48.4933017 ], [ 16.8943018, 48.4951339 ], [ 16.8969302, 48.4968643 ], [ 16.8992851, 48.4977455 ], [ 16.9016072, 48.4981511 ], [ 16.9033242, 48.4980987 ], [ 16.9048035, 48.49772 ], [ 16.9061397, 48.4973456 ], [ 16.9075159, 48.4964833 ], [ 16.9085966, 48.4955553 ], [ 16.9097017, 48.4949497 ], [ 16.9112392, 48.4943785 ], [ 16.9123739, 48.4942009 ], [ 16.9137429, 48.4943019 ], [ 16.9143416, 48.4946647 ], [ 16.915048, 48.4955484 ], [ 16.9153319, 48.4965403 ], [ 16.9151545, 48.498118 ], [ 16.9147461, 48.4994646 ], [ 16.9139446, 48.5013474 ], [ 16.913602, 48.5036449 ], [ 16.9134322, 48.5063659 ], [ 16.9136619, 48.5086459 ], [ 16.9142782, 48.5102947 ], [ 16.9150597, 48.5112237 ], [ 16.9159646, 48.511863 ], [ 16.91766, 48.5125258 ], [ 16.9195796, 48.5132286 ], [ 16.9206996, 48.5139572 ], [ 16.9211554, 48.5143244 ], [ 16.9214846, 48.5149337 ], [ 16.921456, 48.515554 ], [ 16.9212178, 48.5163531 ], [ 16.9213512, 48.5178055 ], [ 16.9215026, 48.5186942 ], [ 16.9221743, 48.5193287 ], [ 16.9230207, 48.5198984 ], [ 16.9251418, 48.5205456 ], [ 16.9274871, 48.5209524 ], [ 16.9302853, 48.5212237 ], [ 16.9337139, 48.5215351 ], [ 16.9362479, 48.521874 ], [ 16.9385177, 48.5222806 ], [ 16.9399907, 48.5228307 ], [ 16.9406543, 48.5233463 ], [ 16.9411639, 48.524224 ], [ 16.9414412, 48.5257014 ], [ 16.9417129, 48.5269467 ], [ 16.9425409, 48.5285292 ], [ 16.9440764, 48.5299708 ], [ 16.9461011, 48.5319928 ], [ 16.947641, 48.5334938 ], [ 16.949277, 48.5353349 ], [ 16.950896, 48.5379673 ], [ 16.951684, 48.5392294 ], [ 16.9523972, 48.5409583 ], [ 16.9525821, 48.5420604 ], [ 16.9524961, 48.5431351 ], [ 16.9520683, 48.544249 ], [ 16.9515148, 48.5449522 ], [ 16.9501141, 48.5458531 ], [ 16.9488418, 48.5467802 ], [ 16.9478901, 48.547294 ], [ 16.9470828, 48.5480622 ], [ 16.9465883, 48.5488504 ], [ 16.9458097, 48.5507888 ], [ 16.9451641, 48.5526383 ], [ 16.9445065, 48.5543167 ], [ 16.9439389, 48.5565424 ], [ 16.9437667, 48.5585133 ], [ 16.9436827, 48.5597737 ], [ 16.9434227, 48.5609824 ], [ 16.942659, 48.5623782 ], [ 16.9416994, 48.5634369 ], [ 16.9402398, 48.5650538 ], [ 16.9384385, 48.5673109 ], [ 16.9371768, 48.569008 ], [ 16.9358369, 48.5707643 ], [ 16.9348667, 48.5729096 ], [ 16.9345484, 48.5745202 ], [ 16.9346656, 48.5774325 ], [ 16.935251, 48.5796443 ], [ 16.9359223, 48.5818534 ], [ 16.9367896, 48.5843996 ], [ 16.9373552, 48.5863261 ], [ 16.9374349, 48.5874671 ], [ 16.9372146, 48.5892463 ], [ 16.9368962, 48.590857 ], [ 16.9360516, 48.5935701 ], [ 16.9352069, 48.5962833 ], [ 16.9345992, 48.5983482 ], [ 16.934324, 48.5996836 ], [ 16.9344116, 48.6009388 ], [ 16.9345854, 48.6021912 ], [ 16.9349123, 48.6032789 ], [ 16.9358651, 48.6041077 ], [ 16.936809, 48.6047636 ], [ 16.9378258, 48.605179 ], [ 16.9387531, 48.6055971 ], [ 16.9395668, 48.6063165 ], [ 16.9401604, 48.6073182 ], [ 16.9408247, 48.6102139 ], [ 16.9407897, 48.611568 ], [ 16.9390865, 48.6163716 ], [ 16.9380049, 48.6177277 ], [ 16.9367766, 48.6186588 ], [ 16.9352718, 48.6194912 ], [ 16.933278, 48.6202671 ], [ 16.931049, 48.6206821 ], [ 16.9281523, 48.6209605 ], [ 16.9254632, 48.6210429 ], [ 16.9231166, 48.6214006 ], [ 16.9214279, 48.6219169 ], [ 16.9201892, 48.6227052 ], [ 16.9192831, 48.6236262 ], [ 16.9188661, 48.6246038 ], [ 16.9188354, 48.6257124 ], [ 16.9194362, 48.6273735 ], [ 16.9200411, 48.6283197 ], [ 16.9215564, 48.6299528 ], [ 16.9229104, 48.6315908 ], [ 16.9241792, 48.633553 ], [ 16.9250153, 48.6354926 ], [ 16.9257439, 48.6374356 ], [ 16.9261453, 48.6386556 ], [ 16.9262506, 48.6403208 ], [ 16.925848, 48.6417624 ], [ 16.9252135, 48.6429729 ], [ 16.9241444, 48.6439491 ], [ 16.9228152, 48.6446662 ], [ 16.9214985, 48.6453735 ], [ 16.9203319, 48.6461715 ], [ 16.919674, 48.6470492 ], [ 16.9191111, 48.6482575 ], [ 16.9189267, 48.6497401 ], [ 16.9188538, 48.6517909 ], [ 16.9188913, 48.653362 ], [ 16.9194741, 48.6555358 ], [ 16.9206356, 48.6587876 ], [ 16.92187, 48.6630853 ], [ 16.9224476, 48.6662121 ], [ 16.9226693, 48.6678287 ], [ 16.9227404, 48.668347 ], [ 16.9226278, 48.6698274 ], [ 16.9215269, 48.6715762 ], [ 16.9205651, 48.672225 ], [ 16.9186838, 48.6730469 ], [ 16.9161487, 48.6738845 ], [ 16.9143905, 48.6744622 ], [ 16.912101, 48.6756755 ], [ 16.9111002, 48.6768017 ], [ 16.9104198, 48.6778044 ], [ 16.9099897, 48.6794559 ], [ 16.9100591, 48.6804543 ], [ 16.9103637, 48.6817313 ], [ 16.9114557, 48.6839848 ], [ 16.9127136, 48.6855187 ], [ 16.9139815, 48.6871951 ], [ 16.9144885, 48.6882754 ], [ 16.9147082, 48.6893645 ], [ 16.9147059, 48.690365 ], [ 16.9147787, 48.6914109 ], [ 16.9147883, 48.6930365 ], [ 16.9150325, 48.6940234 ], [ 16.9153141, 48.6949677 ], [ 16.915756, 48.6961452 ], [ 16.9157769, 48.6974786 ], [ 16.9157404, 48.6979721 ], [ 16.9157027, 48.6984813 ], [ 16.9148949, 48.7003163 ], [ 16.9134217, 48.7029339 ], [ 16.9111393, 48.7063384 ], [ 16.9086832, 48.7093193 ], [ 16.9071533, 48.7111286 ], [ 16.9060642, 48.7130674 ], [ 16.9046587, 48.7156351 ], [ 16.9033828, 48.7169602 ], [ 16.9024232, 48.7176563 ], [ 16.9015024, 48.7178749 ], [ 16.9006501, 48.7180437 ], [ 16.8993569, 48.718083 ], [ 16.8981975, 48.7179752 ], [ 16.896806, 48.7176363 ], [ 16.8958133, 48.7174134 ], [ 16.895124, 48.7172586 ], [ 16.8936551, 48.7170407 ], [ 16.8922238, 48.7169654 ], [ 16.8907043, 48.7169755 ], [ 16.8874437, 48.7166959 ], [ 16.8799606, 48.7234126 ], [ 16.8697344, 48.7125975 ], [ 16.8413092, 48.7114666 ], [ 16.8341046, 48.7166781 ], [ 16.8236643, 48.7106977 ], [ 16.8050661, 48.7125729 ], [ 16.8002757, 48.7058844 ], [ 16.7920696, 48.711915 ], [ 16.7742175, 48.7122003 ], [ 16.7634697, 48.718733 ], [ 16.7606012, 48.7169538 ], [ 16.7531741, 48.7210457 ], [ 16.7473136, 48.7323434 ], [ 16.7397822, 48.7306344 ], [ 16.7251461, 48.7381756 ], [ 16.701031, 48.7367257 ], [ 16.6827971, 48.7283019 ], [ 16.6734605, 48.7407662 ], [ 16.681004, 48.7503302 ], [ 16.6773387, 48.7673277 ], [ 16.6747426, 48.7717323 ], [ 16.6650508, 48.7750155 ], [ 16.6638251, 48.7811071 ], [ 16.6538199, 48.7847408 ], [ 16.6345584, 48.7859344 ], [ 16.6275569, 48.7801612 ], [ 16.5932279, 48.7829134 ], [ 16.592991, 48.7871494 ], [ 16.5820205, 48.7922633 ], [ 16.5651774, 48.793575 ], [ 16.5406137, 48.814456 ], [ 16.533874, 48.8109251 ], [ 16.5188102, 48.7980995 ], [ 16.5161308, 48.8025283 ], [ 16.4828408, 48.8018399 ], [ 16.4786935, 48.8017535 ], [ 16.4664604, 48.808217 ], [ 16.4629866, 48.8095548 ], [ 16.4589949, 48.8079463 ], [ 16.460259, 48.8062265 ], [ 16.4613406, 48.8047548 ], [ 16.4585523, 48.8035923 ], [ 16.4526251, 48.801764 ], [ 16.4488565, 48.7971203 ], [ 16.4488171, 48.7970716 ], [ 16.4488074, 48.7969977 ], [ 16.448212, 48.792444 ], [ 16.4458387, 48.7898645 ], [ 16.4364079, 48.779611 ], [ 16.4373405, 48.7778718 ], [ 16.4379623, 48.7767124 ], [ 16.4374897, 48.7759563 ], [ 16.433892, 48.7701989 ], [ 16.4279529, 48.7674876 ], [ 16.4235871, 48.7659463 ], [ 16.415306, 48.7558048 ], [ 16.4102447, 48.7468086 ], [ 16.4084145, 48.7435546 ], [ 16.4045447, 48.7417712 ], [ 16.3950001, 48.7373716 ], [ 16.3890108, 48.7387741 ], [ 16.3852066, 48.7322185 ], [ 16.3845593, 48.7311028 ], [ 16.3771725, 48.7267222 ], [ 16.3745116, 48.7293097 ], [ 16.3737006, 48.7300983 ], [ 16.368975, 48.7293913 ], [ 16.3582299, 48.7277829 ], [ 16.3471226, 48.7335691 ], [ 16.3507493, 48.7379672 ], [ 16.3464569, 48.7398551 ], [ 16.3445168, 48.7407083 ], [ 16.343021, 48.7400245 ], [ 16.3419273, 48.7395244 ], [ 16.3413586, 48.7397944 ], [ 16.3370229, 48.7418525 ], [ 16.3352081, 48.7367714 ], [ 16.334786, 48.7355894 ], [ 16.3343732, 48.7334667 ], [ 16.3326737, 48.7331334 ], [ 16.3293184, 48.7324752 ], [ 16.329002, 48.7324131 ], [ 16.3289386, 48.7324584 ], [ 16.3277924, 48.7332774 ], [ 16.3140701, 48.7339904 ], [ 16.3120906, 48.7340931 ], [ 16.3093076, 48.7358937 ], [ 16.3047166, 48.7388637 ], [ 16.3038137, 48.7389552 ], [ 16.3009331, 48.739247 ], [ 16.2984529, 48.7394981 ], [ 16.2968269, 48.7378362 ], [ 16.2730848, 48.7412786 ], [ 16.2684486, 48.7415548 ], [ 16.2631116, 48.7371003 ], [ 16.2231498, 48.7398828 ], [ 16.1538471, 48.7487323 ], [ 16.1498433, 48.7431059 ], [ 16.1436052, 48.7444473 ], [ 16.1383967, 48.7426732 ], [ 16.1264941, 48.7458343 ], [ 16.1169025, 48.7483805 ], [ 16.1029383, 48.7453227 ], [ 16.0887302, 48.7477747 ], [ 16.0646908, 48.7550049 ], [ 15.9946898, 48.7794846 ], [ 15.9760346, 48.7915416 ], [ 15.956829, 48.8044371 ], [ 15.955349, 48.8064992 ], [ 15.956395, 48.81463 ], [ 15.9569092, 48.8151726 ], [ 15.9605589, 48.8190237 ], [ 15.9589705, 48.8205244 ], [ 15.9577227, 48.8215046 ], [ 15.9562393, 48.822109 ], [ 15.9541675, 48.8224884 ], [ 15.9520909, 48.8227727 ], [ 15.9500239, 48.8232472 ], [ 15.9489005, 48.8238435 ], [ 15.9480652, 48.8244334 ], [ 15.9473812, 48.8251628 ], [ 15.946834, 48.8257463 ], [ 15.9463589, 48.8263283 ], [ 15.9455114, 48.8266804 ], [ 15.9442965, 48.8268978 ], [ 15.9424957, 48.8269377 ], [ 15.9413311, 48.8267254 ], [ 15.940661, 48.8263117 ], [ 15.9400435, 48.8255523 ], [ 15.93976, 48.824189 ], [ 15.939575, 48.8233966 ], [ 15.9394836, 48.8230048 ], [ 15.9390631, 48.8218237 ], [ 15.9382994, 48.8209835 ], [ 15.9372597, 48.8203875 ], [ 15.9352837, 48.8198122 ], [ 15.9341265, 48.8197426 ], [ 15.9315553, 48.8202279 ], [ 15.9292265, 48.8212315 ], [ 15.9279013, 48.8221178 ], [ 15.9276923, 48.8223987 ], [ 15.9273305, 48.8226541 ], [ 15.9269194, 48.8234369 ], [ 15.9271025, 48.8252779 ], [ 15.9278229, 48.8270476 ], [ 15.9284173, 48.8281058 ], [ 15.9286544, 48.8292314 ], [ 15.9289217, 48.8309515 ], [ 15.9287428, 48.8321196 ], [ 15.927517, 48.8334822 ], [ 15.925863, 48.8346494 ], [ 15.9234825, 48.8357136 ], [ 15.9215282, 48.8362922 ], [ 15.9187573, 48.8367697 ], [ 15.9166049, 48.8369955 ], [ 15.9133598, 48.8369471 ], [ 15.9091, 48.8365646 ], [ 15.9069236, 48.8363146 ], [ 15.9051075, 48.8360567 ], [ 15.9037566, 48.8360862 ], [ 15.9022316, 48.8362385 ], [ 15.9007095, 48.8364502 ], [ 15.8996495, 48.8368899 ], [ 15.8987757, 48.8374446 ], [ 15.8981838, 48.8382312 ], [ 15.8983066, 48.8388832 ], [ 15.8987084, 48.8397077 ], [ 15.8994646, 48.8404054 ], [ 15.9001189, 48.8408673 ], [ 15.9009592, 48.8414442 ], [ 15.901088, 48.8422151 ], [ 15.9011356, 48.8431663 ], [ 15.9007984, 48.8436508 ], [ 15.9002943, 48.8443749 ], [ 15.8986512, 48.8457796 ], [ 15.8978643, 48.8462729 ], [ 15.8969814, 48.8466492 ], [ 15.895645, 48.8469758 ], [ 15.8946541, 48.8469974 ], [ 15.8934772, 48.8469039 ], [ 15.8910066, 48.8461191 ], [ 15.8883588, 48.8455271 ], [ 15.8869987, 48.8453781 ], [ 15.8857406, 48.8454648 ], [ 15.8842211, 48.8457358 ], [ 15.8829807, 48.8461793 ], [ 15.8819411, 48.847035 ], [ 15.8814538, 48.8481168 ], [ 15.8811584, 48.8494325 ], [ 15.8811997, 48.8502649 ], [ 15.8813457, 48.8509322 ], [ 15.881433, 48.8513311 ], [ 15.8814979, 48.8526391 ], [ 15.8814846, 48.8541867 ], [ 15.8808347, 48.8556292 ], [ 15.8796235, 48.8566671 ], [ 15.878656, 48.8571641 ], [ 15.8770638, 48.8577937 ], [ 15.8754449, 48.8578881 ], [ 15.8733668, 48.8578139 ], [ 15.8714453, 48.8572601 ], [ 15.8701457, 48.8565144 ], [ 15.8690146, 48.855527 ], [ 15.8682744, 48.8547554 ], [ 15.8680637, 48.8545357 ], [ 15.8673136, 48.8539567 ], [ 15.8657497, 48.8533356 ], [ 15.8636718, 48.8532612 ], [ 15.8602776, 48.8539292 ], [ 15.8568979, 48.8548944 ], [ 15.8529195, 48.8565269 ], [ 15.8494089, 48.8585064 ], [ 15.8473978, 48.8597991 ], [ 15.8460114, 48.8609594 ], [ 15.8454156, 48.8616863 ], [ 15.8453692, 48.86258 ], [ 15.8455872, 48.863349 ], [ 15.8459797, 48.8639953 ], [ 15.8471018, 48.8648046 ], [ 15.8484708, 48.8654805 ], [ 15.8484885, 48.8654892 ], [ 15.8493461, 48.8664231 ], [ 15.8495584, 48.8670732 ], [ 15.8494975, 48.8676697 ], [ 15.8489976, 48.8685135 ], [ 15.8482487, 48.8691477 ], [ 15.847082, 48.8699232 ], [ 15.8465925, 48.8705574 ], [ 15.8344346, 48.8722674 ], [ 15.8303357, 48.872013 ], [ 15.8249256, 48.8721556 ], [ 15.8122925, 48.8722293 ], [ 15.7792771, 48.8749169 ], [ 15.7648967, 48.8592001 ], [ 15.7536918, 48.8523365 ], [ 15.7096024, 48.8606484 ], [ 15.6921403, 48.855624 ], [ 15.6542312, 48.8826172 ], [ 15.645899, 48.8853929 ], [ 15.6450408, 48.8856787 ], [ 15.6393003, 48.8875905 ], [ 15.637544, 48.8876036 ], [ 15.636, 48.8876151 ], [ 15.636871, 48.8847968 ], [ 15.6301441, 48.8851428 ], [ 15.6124351, 48.8981437 ], [ 15.5871816, 48.8959503 ], [ 15.5774156, 48.8960482 ], [ 15.5599833, 48.9041602 ], [ 15.5415519, 48.9081478 ], [ 15.5133992, 48.9142319 ], [ 15.5062886, 48.9193159 ], [ 15.5022608, 48.9358861 ], [ 15.4769564, 48.944558 ], [ 15.4683938, 48.9518135 ], [ 15.4553954, 48.9456181 ], [ 15.4505259, 48.9500408 ], [ 15.4294486, 48.9513883 ], [ 15.4121308, 48.9568617 ], [ 15.4038954, 48.9635308 ], [ 15.3925041, 48.9657763 ], [ 15.3889975, 48.9728059 ], [ 15.3669226, 48.9820284 ], [ 15.3322658, 48.9846277 ], [ 15.3223224, 48.9764031 ], [ 15.3127209, 48.9809668 ], [ 15.3060452, 48.9780842 ], [ 15.2973271, 48.9808475 ], [ 15.2913764, 48.9845077 ], [ 15.2940092, 48.9892881 ], [ 15.2907203, 48.992325 ], [ 15.278193, 48.9947551 ], [ 15.2759732, 48.9860576 ], [ 15.2821202, 48.9809255 ], [ 15.2720947, 48.9666884 ], [ 15.2667919, 48.9668821 ], [ 15.2692788, 48.9584884 ], [ 15.2621921, 48.957856 ], [ 15.2619233, 48.953843 ], [ 15.2466766, 48.9592215 ], [ 15.2387101, 48.957626 ], [ 15.2246275, 48.9602612 ], [ 15.200236, 48.952524 ], [ 15.1894728, 48.9431641 ], [ 15.1766016, 48.9478018 ], [ 15.1602629, 48.9418452 ], [ 15.1550989, 48.9460727 ], [ 15.16957, 48.9624692 ], [ 15.1655128, 48.9700804 ], [ 15.1590459, 48.9721278 ], [ 15.159059, 48.9721555 ], [ 15.1630639, 48.975744 ], [ 15.1618177, 48.9779652 ], [ 15.1533096, 48.9784759 ], [ 15.1531384, 48.9786366 ], [ 15.1525032, 48.9790748 ], [ 15.1519781, 48.9795588 ], [ 15.1515966, 48.9800169 ], [ 15.1512681, 48.9805558 ], [ 15.151089, 48.9812154 ], [ 15.1510894, 48.9812851 ], [ 15.1510918, 48.9817008 ], [ 15.1512024, 48.9819656 ], [ 15.1516974, 48.9823475 ], [ 15.1521449, 48.9825991 ], [ 15.1522096, 48.9826355 ], [ 15.1536263, 48.9832103 ], [ 15.1550026, 48.983784 ], [ 15.1556498, 48.9841905 ], [ 15.1560303, 48.9847201 ], [ 15.1562321, 48.9853119 ], [ 15.1562132, 48.9863038 ], [ 15.1561228, 48.9878283 ], [ 15.1558777, 48.9890696 ], [ 15.1557975, 48.9908794 ], [ 15.1557003, 48.9922136 ], [ 15.1557447, 48.9934603 ], [ 15.1346909, 48.9990121 ], [ 15.1092889, 48.9993054 ], [ 15.1021352, 48.994243 ], [ 15.0645474, 48.9996482 ], [ 15.0668189, 49.009205 ], [ 15.0652392, 49.0143672 ], [ 15.0537214, 49.0156786 ], [ 15.0390625, 49.0121515 ], [ 15.021024, 49.0207151 ], [ 15.0031514, 49.0116076 ], [ 14.9960521, 49.0153378 ], [ 14.9905137, 49.0098151 ], [ 14.9993355, 49.0004487 ], [ 14.9950635, 48.9930977 ], [ 14.9976867, 48.992094 ], [ 14.9842479, 48.9867847 ], [ 14.9761769, 48.9710608 ], [ 14.9767777, 48.955502 ], [ 14.9866044, 48.9359243 ], [ 14.9792984, 48.9280062 ], [ 14.9900824, 48.915723 ], [ 14.991828, 48.8974435 ], [ 14.9876615, 48.8956682 ], [ 14.9888777, 48.8910156 ], [ 14.9836461, 48.890828 ], [ 14.9838235, 48.8746346 ], [ 14.9730963, 48.8745717 ], [ 14.9725363, 48.8585672 ], [ 14.9847394, 48.8421467 ], [ 14.9719763, 48.8420594 ], [ 14.967468, 48.8310077 ], [ 14.9697726, 48.8238951 ], [ 14.9582079, 48.8135507 ], [ 14.960594, 48.8044789 ], [ 14.9554248, 48.8013592 ], [ 14.9552706, 48.8005523 ], [ 14.95314, 48.7893986 ], [ 14.9735358, 48.783333 ], [ 14.9745027, 48.7825504 ], [ 14.9779978, 48.7797215 ], [ 14.97783, 48.7787048 ], [ 14.9775511, 48.7770145 ], [ 14.9792408, 48.7758009 ], [ 14.9784696, 48.7735106 ], [ 14.9783339, 48.7731072 ], [ 14.977321, 48.7720674 ], [ 14.9763396, 48.7706531 ], [ 14.9749401, 48.769673 ], [ 14.9734043, 48.7689328 ], [ 14.9717905, 48.7680033 ], [ 14.9694268, 48.7661322 ], [ 14.9670723, 48.7645465 ], [ 14.9652428, 48.7636198 ], [ 14.9641682, 48.7632718 ], [ 14.9621975, 48.762948 ], [ 14.9611029, 48.7624872 ], [ 14.9605076, 48.7618766 ], [ 14.9601237, 48.7611203 ], [ 14.960074, 48.7606407 ], [ 14.9600202, 48.7601221 ], [ 14.9595568, 48.7591289 ], [ 14.9584413, 48.758002 ], [ 14.956947, 48.7570733 ], [ 14.9523511, 48.7616651 ], [ 14.9400887, 48.7614182 ], [ 14.9318501, 48.7666239 ], [ 14.9176807, 48.7693278 ], [ 14.9064441, 48.7669228 ], [ 14.8986068, 48.771744 ], [ 14.8880025, 48.7700557 ], [ 14.8814693, 48.7800452 ], [ 14.8686113, 48.7809612 ], [ 14.8591427, 48.7757773 ], [ 14.851329, 48.7772961 ], [ 14.8428719, 48.7839671 ], [ 14.829366, 48.7806932 ], [ 14.8248349, 48.7839169 ], [ 14.8083207, 48.7785537 ], [ 14.806197, 48.7715216 ], [ 14.8121388, 48.7644401 ], [ 14.800489, 48.7474129 ], [ 14.8083245, 48.7340036 ], [ 14.7973443, 48.7304117 ], [ 14.7727752, 48.7111344 ], [ 14.7577388, 48.7094324 ], [ 14.7560821, 48.7031936 ], [ 14.7411182, 48.7015336 ], [ 14.7356855, 48.6981647 ], [ 14.7236417, 48.6756485 ], [ 14.7125168, 48.6500804 ], [ 14.7167956, 48.6450169 ], [ 14.7224416, 48.6383338 ], [ 14.7144174, 48.6172337 ], [ 14.7214432, 48.6023742 ], [ 14.7061593, 48.5912439 ], [ 14.7061555, 48.5850927 ], [ 14.7016155, 48.5826107 ], [ 14.6939027, 48.5856157 ], [ 14.6910843, 48.584138 ], [ 14.6634954, 48.5818425 ], [ 14.6576181, 48.5981512 ], [ 14.6475824, 48.6095612 ], [ 14.6307413, 48.6032677 ], [ 14.6269755, 48.6044882 ], [ 14.6256365, 48.6054639 ], [ 14.6242442, 48.6071928 ], [ 14.6220394, 48.6108822 ], [ 14.6195545, 48.6169873 ], [ 14.6194864, 48.6171135 ], [ 14.6175646, 48.6214325 ], [ 14.6167825, 48.6227465 ], [ 14.6159105, 48.6242114 ], [ 14.6143739, 48.6259417 ], [ 14.612677, 48.6270074 ], [ 14.6108271, 48.6276939 ], [ 14.6092549, 48.6279966 ], [ 14.6078564, 48.6280074 ], [ 14.607794, 48.6280078 ], [ 14.6046268, 48.6272596 ], [ 14.6045766, 48.6272404 ], [ 14.6020318, 48.6262661 ], [ 14.5986667, 48.623732 ], [ 14.5955739, 48.6212779 ], [ 14.5953851, 48.621128 ], [ 14.5925211, 48.6190381 ], [ 14.5917425, 48.6187396 ], [ 14.5910717, 48.6184825 ], [ 14.5877516, 48.6177564 ], [ 14.5853563, 48.6172552 ], [ 14.5847211, 48.6171223 ], [ 14.5812553, 48.6163024 ], [ 14.5792297, 48.6156575 ], [ 14.5768941, 48.6140639 ], [ 14.5735316, 48.6115664 ], [ 14.573231, 48.6113935 ], [ 14.5698927, 48.6094731 ], [ 14.5661157, 48.6076088 ], [ 14.5647968, 48.6064803 ], [ 14.5640453, 48.6050602 ], [ 14.5630241, 48.6043728 ], [ 14.5618692, 48.6040993 ], [ 14.5605788, 48.6041604 ], [ 14.5591433, 48.6045862 ], [ 14.5551313, 48.6059338 ], [ 14.5531166, 48.6072845 ], [ 14.5516467, 48.6088705 ], [ 14.5496979, 48.611461 ], [ 14.548083, 48.6131406 ], [ 14.5458841, 48.6141184 ], [ 14.5428843, 48.6147681 ], [ 14.5377954, 48.615106 ], [ 14.5323387, 48.6150667 ], [ 14.529034, 48.6149575 ], [ 14.5273877, 48.6151647 ], [ 14.5256644, 48.6156733 ], [ 14.5232646, 48.6169201 ], [ 14.5209278, 48.6183241 ], [ 14.5192902, 48.6189118 ], [ 14.5176227, 48.6194039 ], [ 14.5161451, 48.6195147 ], [ 14.5134166, 48.6194946 ], [ 14.5109675, 48.6191383 ], [ 14.5090144, 48.6184915 ], [ 14.5069863, 48.6177026 ], [ 14.5052562, 48.6173867 ], [ 14.5038925, 48.6174003 ], [ 14.5023718, 48.6178222 ], [ 14.4999762, 48.6188196 ], [ 14.4982097, 48.6200747 ], [ 14.4959611, 48.6222389 ], [ 14.4947911, 48.6244876 ], [ 14.4942592, 48.6271475 ], [ 14.4935889, 48.6284977 ], [ 14.4925473, 48.6300787 ], [ 14.4906473, 48.631811 ], [ 14.4877347, 48.63322 ], [ 14.4846708, 48.6342972 ], [ 14.4804106, 48.6364808 ], [ 14.4775058, 48.6382702 ], [ 14.4758838, 48.6396187 ], [ 14.4751193, 48.6407685 ], [ 14.4749829, 48.6419471 ], [ 14.4746682, 48.6431051 ], [ 14.4739753, 48.6442542 ], [ 14.4721544, 48.6463662 ], [ 14.4694773, 48.6491131 ], [ 14.4593662, 48.6436746 ], [ 14.4437675, 48.6437658 ], [ 14.4560488, 48.6254568 ], [ 14.4476837, 48.6204012 ], [ 14.4436259, 48.6040956 ], [ 14.4302662, 48.5888634 ], [ 14.4104191, 48.59325 ], [ 14.3864418, 48.5928057 ], [ 14.3881684, 48.5832486 ], [ 14.3938564, 48.5778367 ], [ 14.3794817, 48.5694966 ], [ 14.3685438, 48.570018 ], [ 14.366182, 48.5758214 ], [ 14.358302, 48.5748305 ], [ 14.3524781, 48.5689198 ], [ 14.3531526, 48.5626818 ], [ 14.3449468, 48.5602002 ], [ 14.3418727, 48.5547864 ], [ 14.3333636, 48.5519378 ], [ 14.3274434, 48.5539763 ], [ 14.3245551, 48.564244 ], [ 14.3165021, 48.5632787 ], [ 14.3046805, 48.5671648 ], [ 14.2792975, 48.574201 ], [ 14.271143, 48.581012 ], [ 14.2591088, 48.5818194 ], [ 14.2417264, 48.577641 ], [ 14.2216478, 48.5865113 ], [ 14.1835742, 48.5939111 ], [ 14.1636513, 48.5892807 ], [ 14.163407, 48.5917464 ], [ 14.1509724, 48.5948926 ], [ 14.1417353, 48.5937256 ], [ 14.130276, 48.597807 ], [ 14.1159099, 48.5893441 ], [ 14.095813, 48.592428 ], [ 14.097551, 48.5998175 ], [ 14.0775304, 48.6004062 ], [ 14.0681, 48.5995731 ], [ 14.0670017, 48.6062475 ], [ 14.0546746, 48.6042387 ], [ 14.0518997, 48.6093819 ], [ 14.0426058, 48.6129374 ], [ 14.0481025, 48.6277054 ], [ 14.0301975, 48.6268167 ], [ 14.0114315, 48.6396615 ], [ 14.0240019, 48.64608 ], [ 14.0258786, 48.6523368 ], [ 14.0415217, 48.6548408 ], [ 14.053533, 48.6528691 ], [ 14.0592634, 48.6597037 ], [ 14.0606589, 48.6737321 ], [ 14.0350184, 48.678261 ], [ 14.0249359, 48.6837446 ], [ 14.025815, 48.6894494 ], [ 14.0164535, 48.6922298 ], [ 14.0119669, 48.696977 ], [ 14.0087068, 48.7061779 ], [ 13.977206, 48.7109972 ], [ 13.956079, 48.714521 ], [ 13.9537225, 48.7207295 ], [ 13.9414654, 48.7219906 ], [ 13.9262724, 48.7349109 ], [ 13.8967437, 48.756793 ], [ 13.8772859, 48.7660671 ], [ 13.8576312, 48.7714632 ], [ 13.8400311, 48.7718564 ], [ 13.8400311, 48.7718564 ] ] ] ] } }
]
}