{
"type": "FeatureCollection",
"name": "CH",
"crs": { "type": "name", "properties": { "name": "urn:ogc:def:crs:OGC:1.3:CRS84" } },
"features": [
{ "type": "Feature", "properties": { "ID": "CH"},"geometry": { "type": "MultiPolygon", "coordinates": [ [ [ [ 9.65, 47.4202 ], [ 9.6475, 47.4264 ], [ 9.6462, 47.4303 ], [ 9.6457, 47.4341 ], [ 9.6461, 47.4367 ], [ 9.6471, 47.4387 ], [ 9.6493, 47.4409 ], [ 9.6547, 47.4457 ], [ 9.6613, 47.4504 ], [ 9.6532, 47.4545 ], [ 9.623, 47.4574 ], [ 9.6074, 47.4704 ], [ 9.6037, 47.4625 ], [ 9.5966, 47.4626 ], [ 9.5831, 47.482 ], [ 9.5641, 47.4939 ], [ 9.5616, 47.5014 ], [ 9.5587, 47.5419 ], [ 9.4956, 47.5515 ], [ 9.4489, 47.5833 ], [ 9.3947, 47.6203 ], [ 9.2566, 47.6587 ], [ 9.2148, 47.6551 ], [ 9.2084, 47.6553 ], [ 9.1883, 47.6571 ], [ 9.1822, 47.6559 ], [ 9.1708, 47.6553 ], [ 9.163, 47.6605 ], [ 9.1572, 47.6657 ], [ 9.1483, 47.6676 ], [ 9.1416, 47.6647 ], [ 9.1354, 47.6652 ], [ 9.1194, 47.6681 ], [ 9.0951, 47.6787 ], [ 9.0737, 47.679 ], [ 9.0577, 47.6841 ], [ 9.0216, 47.6864 ], [ 9.0102, 47.6841 ], [ 8.9809, 47.674 ], [ 8.9635, 47.6648 ], [ 8.943, 47.6572 ], [ 8.9003, 47.6484 ], [ 8.8946, 47.6484 ], [ 8.8832, 47.654 ], [ 8.8749, 47.6547 ], [ 8.875, 47.656 ], [ 8.8737, 47.6692 ], [ 8.8641, 47.6785 ], [ 8.8516, 47.6809 ], [ 8.8509, 47.6847 ], [ 8.8567, 47.6921 ], [ 8.8513, 47.6966 ], [ 8.8641, 47.6981 ], [ 8.8656, 47.6964 ], [ 8.8641, 47.6943 ], [ 8.8641, 47.6925 ], [ 8.875, 47.6955 ], [ 8.8707, 47.7015 ], [ 8.8728, 47.7041 ], [ 8.8714, 47.705 ], [ 8.8567, 47.7045 ], [ 8.8485, 47.7035 ], [ 8.8438, 47.7117 ], [ 8.834, 47.7141 ], [ 8.823, 47.7116 ], [ 8.82, 47.7136 ], [ 8.8246, 47.7182 ], [ 8.8186, 47.7183 ], [ 8.8126, 47.7234 ], [ 8.8059, 47.7247 ], [ 8.8116, 47.7296 ], [ 8.8064, 47.7383 ], [ 8.7973, 47.7348 ], [ 8.799, 47.7273 ], [ 8.7907, 47.7282 ], [ 8.771, 47.7184 ], [ 8.7695, 47.7067 ], [ 8.7934, 47.7044 ], [ 8.7984, 47.6978 ], [ 8.8089, 47.6935 ], [ 8.7974, 47.6888 ], [ 8.7938, 47.6807 ], [ 8.7957, 47.6756 ], [ 8.7849, 47.6768 ], [ 8.7574, 47.6893 ], [ 8.728, 47.6927 ], [ 8.7271, 47.6981 ], [ 8.7363, 47.7162 ], [ 8.7182, 47.7214 ], [ 8.7119, 47.7302 ], [ 8.715, 47.7384 ], [ 8.7237, 47.7451 ], [ 8.7397, 47.747 ], [ 8.7401, 47.7528 ], [ 8.7321, 47.7564 ], [ 8.7267, 47.7621 ], [ 8.7142, 47.765 ], [ 8.7056, 47.7628 ], [ 8.6954, 47.7564 ], [ 8.6922, 47.7564 ], [ 8.6884, 47.7593 ], [ 8.684, 47.7695 ], [ 8.6883, 47.7737 ], [ 8.6835, 47.7771 ], [ 8.6801, 47.786 ], [ 8.6681, 47.7879 ], [ 8.6587, 47.7919 ], [ 8.6594, 47.797 ], [ 8.6544, 47.7997 ], [ 8.65, 47.7982 ], [ 8.6464, 47.7931 ], [ 8.646, 47.7872 ], [ 8.6497, 47.7821 ], [ 8.6486, 47.7747 ], [ 8.6519, 47.7729 ], [ 8.6455, 47.765 ], [ 8.6332, 47.7601 ], [ 8.6282, 47.7594 ], [ 8.6199, 47.7673 ], [ 8.6225, 47.7765 ], [ 8.6177, 47.7802 ], [ 8.6156, 47.7857 ], [ 8.6216, 47.7937 ], [ 8.6138, 47.8011 ], [ 8.6016, 47.8027 ], [ 8.5929, 47.7995 ], [ 8.5873, 47.8021 ], [ 8.5766, 47.8001 ], [ 8.5725, 47.8056 ], [ 8.5665, 47.8074 ], [ 8.563, 47.8035 ], [ 8.5621, 47.7936 ], [ 8.5741, 47.7893 ], [ 8.5771, 47.7815 ], [ 8.5723, 47.7799 ], [ 8.5686, 47.7792 ], [ 8.5662, 47.778 ], [ 8.552, 47.7842 ], [ 8.5263, 47.7776 ], [ 8.5201, 47.7705 ], [ 8.5101, 47.7762 ], [ 8.4962, 47.7712 ], [ 8.4875, 47.7722 ], [ 8.4735, 47.7642 ], [ 8.4676, 47.7564 ], [ 8.4572, 47.7492 ], [ 8.4554, 47.7431 ], [ 8.4502, 47.7387 ], [ 8.4526, 47.7315 ], [ 8.457, 47.7292 ], [ 8.4552, 47.7226 ], [ 8.4447, 47.7223 ], [ 8.4406, 47.7182 ], [ 8.4355, 47.7173 ], [ 8.426, 47.7114 ], [ 8.4168, 47.71 ], [ 8.4051, 47.6978 ], [ 8.4136, 47.6928 ], [ 8.4207, 47.6839 ], [ 8.4064, 47.6755 ], [ 8.4116, 47.6674 ], [ 8.424, 47.6663 ], [ 8.4378, 47.6572 ], [ 8.4447, 47.6543 ], [ 8.449, 47.6547 ], [ 8.4577, 47.6533 ], [ 8.4662, 47.6562 ], [ 8.4651, 47.6454 ], [ 8.4735, 47.6383 ], [ 8.4752, 47.6401 ], [ 8.472, 47.6421 ], [ 8.477, 47.6452 ], [ 8.4735, 47.6483 ], [ 8.4756, 47.6497 ], [ 8.4907, 47.6428 ], [ 8.495, 47.6467 ], [ 8.5272, 47.6454 ], [ 8.5311, 47.6457 ], [ 8.5326, 47.6507 ], [ 8.527, 47.6604 ], [ 8.5329, 47.6619 ], [ 8.5391, 47.6593 ], [ 8.5408, 47.6643 ], [ 8.5472, 47.6671 ], [ 8.5637, 47.6699 ], [ 8.5657, 47.6653 ], [ 8.5771, 47.6621 ], [ 8.594, 47.6678 ], [ 8.5991, 47.6725 ], [ 8.6056, 47.6719 ], [ 8.6064, 47.669 ], [ 8.6091, 47.6638 ], [ 8.6145, 47.6615 ], [ 8.6268, 47.654 ], [ 8.6283, 47.6487 ], [ 8.6227, 47.6407 ], [ 8.6157, 47.6381 ], [ 8.6076, 47.6373 ], [ 8.6038, 47.6392 ], [ 8.6135, 47.6446 ], [ 8.6123, 47.6492 ], [ 8.6077, 47.6519 ], [ 8.5952, 47.6419 ], [ 8.5978, 47.6283 ], [ 8.6045, 47.6163 ], [ 8.6035, 47.6113 ], [ 8.5956, 47.6055 ], [ 8.5817, 47.5966 ], [ 8.5745, 47.5962 ], [ 8.5628, 47.5994 ], [ 8.5668, 47.6092 ], [ 8.5732, 47.6119 ], [ 8.5687, 47.6168 ], [ 8.5628, 47.6175 ], [ 8.5571, 47.6242 ], [ 8.543, 47.627 ], [ 8.5393, 47.6267 ], [ 8.5381, 47.6311 ], [ 8.5356, 47.631 ], [ 8.5316, 47.6321 ], [ 8.5296, 47.6318 ], [ 8.5272, 47.6318 ], [ 8.519, 47.6342 ], [ 8.5164, 47.632 ], [ 8.5137, 47.6237 ], [ 8.5078, 47.6229 ], [ 8.5072, 47.6178 ], [ 8.4942, 47.6147 ], [ 8.4847, 47.6147 ], [ 8.4793, 47.6143 ], [ 8.4778, 47.6107 ], [ 8.4664, 47.6033 ], [ 8.4566, 47.6024 ], [ 8.461, 47.5889 ], [ 8.4673, 47.5848 ], [ 8.487, 47.5874 ], [ 8.4945, 47.5812 ], [ 8.4869, 47.5777 ], [ 8.4838, 47.5773 ], [ 8.4768, 47.5775 ], [ 8.4641, 47.5722 ], [ 8.4552, 47.572 ], [ 8.4358, 47.567 ], [ 8.4264, 47.5675 ], [ 8.4163, 47.5707 ], [ 8.4, 47.5768 ], [ 8.3921, 47.575 ], [ 8.3835, 47.566 ], [ 8.3621, 47.5695 ], [ 8.3541, 47.5703 ], [ 8.3372, 47.5704 ], [ 8.3252, 47.5725 ], [ 8.3164, 47.5789 ], [ 8.298, 47.5894 ], [ 8.2954, 47.5946 ], [ 8.2971, 47.6053 ], [ 8.2885, 47.6103 ], [ 8.2795, 47.6114 ], [ 8.2655, 47.6098 ], [ 8.2611, 47.6135 ], [ 8.2541, 47.6148 ], [ 8.2373, 47.6118 ], [ 8.2286, 47.6056 ], [ 8.2241, 47.6069 ], [ 8.2213, 47.6155 ], [ 8.2153, 47.6194 ], [ 8.205, 47.6208 ], [ 8.1975, 47.6186 ], [ 8.191, 47.6129 ], [ 8.1845, 47.6048 ], [ 8.1754, 47.602 ], [ 8.166, 47.5949 ], [ 8.1592, 47.5941 ], [ 8.1499, 47.5954 ], [ 8.1395, 47.5912 ], [ 8.1364, 47.5846 ], [ 8.1261, 47.5833 ], [ 8.1105, 47.5828 ], [ 8.1034, 47.576 ], [ 8.101, 47.5657 ], [ 8.0972, 47.561 ], [ 8.0837, 47.5577 ], [ 8.0677, 47.5643 ], [ 8.0594, 47.5629 ], [ 8.046, 47.5553 ], [ 8.0369, 47.553 ], [ 8.0196, 47.5506 ], [ 8.0082, 47.5546 ], [ 8.0072, 47.555 ], [ 7.9992, 47.5564 ], [ 7.9771, 47.5554 ], [ 7.9647, 47.5572 ], [ 7.9554, 47.5568 ], [ 7.9484, 47.5456 ], [ 7.9405, 47.5445 ], [ 7.9166, 47.5483 ], [ 7.9085, 47.5554 ], [ 7.9112, 47.5687 ], [ 7.9065, 47.5769 ], [ 7.898, 47.5841 ], [ 7.8941, 47.5864 ], [ 7.8847, 47.5887 ], [ 7.8686, 47.5884 ], [ 7.8524, 47.5838 ], [ 7.8376, 47.5826 ], [ 7.8327, 47.5866 ], [ 7.824, 47.5877 ], [ 7.8184, 47.586 ], [ 7.8111, 47.57 ], [ 7.7948, 47.5573 ], [ 7.7602, 47.549 ], [ 7.7527, 47.545 ], [ 7.724, 47.5422 ], [ 7.7138, 47.5394 ], [ 7.697, 47.5332 ], [ 7.6862, 47.5325 ], [ 7.6753, 47.5336 ], [ 7.6675, 47.5364 ], [ 7.6612, 47.5444 ], [ 7.6502, 47.548 ], [ 7.6453, 47.5526 ], [ 7.6341, 47.5611 ], [ 7.6365, 47.5633 ], [ 7.6479, 47.5604 ], [ 7.6547, 47.5624 ], [ 7.668, 47.5655 ], [ 7.6759, 47.564 ], [ 7.6794, 47.5694 ], [ 7.6828, 47.5705 ], [ 7.6862, 47.5674 ], [ 7.6895, 47.5715 ], [ 7.6844, 47.5742 ], [ 7.68, 47.5828 ], [ 7.6725, 47.5852 ], [ 7.6721, 47.5873 ], [ 7.6837, 47.596 ], [ 7.6899, 47.5977 ], [ 7.6934, 47.6006 ], [ 7.6825, 47.598 ], [ 7.673, 47.5921 ], [ 7.649, 47.5962 ], [ 7.6441, 47.5957 ], [ 7.642, 47.5913 ], [ 7.6245, 47.5794 ], [ 7.6191, 47.5773 ], [ 7.6056, 47.5781 ], [ 7.6035, 47.5852 ], [ 7.589, 47.5899 ], [ 7.5845, 47.5765 ], [ 7.5748, 47.5761 ], [ 7.5669, 47.577 ], [ 7.5585, 47.5729 ], [ 7.5552, 47.5646 ], [ 7.5518, 47.5634 ], [ 7.5272, 47.5524 ], [ 7.5192, 47.5464 ], [ 7.5079, 47.5448 ], [ 7.5045, 47.543 ], [ 7.4992, 47.5398 ], [ 7.4982, 47.5366 ], [ 7.499, 47.5352 ], [ 7.5037, 47.5286 ], [ 7.51, 47.529 ], [ 7.5162, 47.5326 ], [ 7.5195, 47.5339 ], [ 7.5274, 47.5318 ], [ 7.5315, 47.5277 ], [ 7.5239, 47.5152 ], [ 7.5149, 47.5168 ], [ 7.5046, 47.5148 ], [ 7.4978, 47.5212 ], [ 7.4995, 47.5163 ], [ 7.509, 47.5093 ], [ 7.5109, 47.5026 ], [ 7.51, 47.4968 ], [ 7.4975, 47.4893 ], [ 7.4876, 47.4823 ], [ 7.476, 47.48 ], [ 7.4709, 47.4804 ], [ 7.4621, 47.4891 ], [ 7.457, 47.4887 ], [ 7.4546, 47.4894 ], [ 7.4348, 47.498 ], [ 7.4212, 47.4802 ], [ 7.43, 47.4818 ], [ 7.4558, 47.4728 ], [ 7.445, 47.4617 ], [ 7.4301, 47.4593 ], [ 7.4279, 47.4571 ], [ 7.4285, 47.4535 ], [ 7.4233, 47.4508 ], [ 7.4237, 47.449 ], [ 7.4201, 47.4453 ], [ 7.4139, 47.442 ], [ 7.4066, 47.4402 ], [ 7.4028, 47.4379 ], [ 7.403, 47.4355 ], [ 7.4004, 47.4354 ], [ 7.3809, 47.4319 ], [ 7.3528, 47.4344 ], [ 7.3374, 47.4409 ], [ 7.3265, 47.4399 ], [ 7.3246, 47.439 ], [ 7.3039, 47.4384 ], [ 7.292, 47.4336 ], [ 7.2832, 47.4345 ], [ 7.2705, 47.4273 ], [ 7.2456, 47.4203 ], [ 7.245, 47.4261 ], [ 7.2385, 47.4296 ], [ 7.2359, 47.4369 ], [ 7.2258, 47.4395 ], [ 7.2062, 47.4349 ], [ 7.1969, 47.4356 ], [ 7.1897, 47.4394 ], [ 7.1704, 47.4435 ], [ 7.1729, 47.4465 ], [ 7.1783, 47.4581 ], [ 7.1776, 47.4597 ], [ 7.179, 47.4611 ], [ 7.1792, 47.4629 ], [ 7.1788, 47.4642 ], [ 7.1783, 47.4688 ], [ 7.1912, 47.4877 ], [ 7.2023, 47.4917 ], [ 7.1985, 47.4937 ], [ 7.1712, 47.4896 ], [ 7.1594, 47.4908 ], [ 7.1498, 47.4973 ], [ 7.1304, 47.503 ], [ 7.1119, 47.4951 ], [ 7.1004, 47.4943 ], [ 7.0967, 47.4951 ], [ 7.0749, 47.4882 ], [ 7.0704, 47.4923 ], [ 7.0629, 47.4945 ], [ 7.037, 47.4975 ], [ 7.0362, 47.499 ], [ 7.0272, 47.5013 ], [ 7.0244, 47.5042 ], [ 7.0057, 47.5011 ], [ 6.9829, 47.4943 ], [ 6.9883, 47.4871 ], [ 6.9885, 47.473 ], [ 6.9929, 47.4712 ], [ 6.991, 47.4681 ], [ 6.9918, 47.4664 ], [ 7.0004, 47.4669 ], [ 6.9998, 47.4643 ], [ 7.0011, 47.4618 ], [ 6.9979, 47.4581 ], [ 7.0009, 47.4539 ], [ 6.9952, 47.4496 ], [ 6.9703, 47.4471 ], [ 6.9662, 47.4377 ], [ 6.9637, 47.4357 ], [ 6.9578, 47.4337 ], [ 6.9546, 47.4351 ], [ 6.9392, 47.4337 ], [ 6.9416, 47.4164 ], [ 6.9386, 47.4065 ], [ 6.9173, 47.4055 ], [ 6.9155, 47.3982 ], [ 6.9095, 47.3962 ], [ 6.9116, 47.3904 ], [ 6.9137, 47.3895 ], [ 6.9119, 47.3862 ], [ 6.9052, 47.3829 ], [ 6.895, 47.3817 ], [ 6.8842, 47.3728 ], [ 6.8798, 47.3524 ], [ 6.901, 47.3588 ], [ 6.9211, 47.3556 ], [ 6.9353, 47.3576 ], [ 6.9745, 47.3603 ], [ 7.0023, 47.366 ], [ 7.0123, 47.3728 ], [ 7.0337, 47.3679 ], [ 7.0353, 47.364 ], [ 7.0435, 47.3636 ], [ 7.0488, 47.3612 ], [ 7.0521, 47.3528 ], [ 7.0508, 47.3477 ], [ 7.0607, 47.3437 ], [ 7.0529, 47.3369 ], [ 7.0554, 47.3338 ], [ 7.0462, 47.3273 ], [ 7.0344, 47.3284 ], [ 7.0265, 47.3263 ], [ 7.0097, 47.3244 ], [ 7.0157, 47.3139 ], [ 7.0074, 47.3013 ], [ 6.9958, 47.2964 ], [ 6.9777, 47.296 ], [ 6.9735, 47.292 ], [ 6.9471, 47.2909 ], [ 6.9446, 47.2889 ], [ 6.9416, 47.2851 ], [ 6.9514, 47.269 ], [ 6.9472, 47.2523 ], [ 6.9551, 47.2432 ], [ 6.9441, 47.2382 ], [ 6.9423, 47.2346 ], [ 6.9287, 47.2284 ], [ 6.9221, 47.2218 ], [ 6.8931, 47.2078 ], [ 6.8802, 47.1997 ], [ 6.8731, 47.1857 ], [ 6.8671, 47.1844 ], [ 6.8614, 47.1794 ], [ 6.8419, 47.1708 ], [ 6.8457, 47.1665 ], [ 6.8589, 47.1653 ], [ 6.8491, 47.1564 ], [ 6.8265, 47.1442 ], [ 6.8247, 47.1419 ], [ 6.8204, 47.1403 ], [ 6.8175, 47.1375 ], [ 6.8092, 47.135 ], [ 6.8046, 47.1305 ], [ 6.7924, 47.127 ], [ 6.7899, 47.126 ], [ 6.7789, 47.1235 ], [ 6.7753, 47.1211 ], [ 6.7702, 47.1212 ], [ 6.7651, 47.1203 ], [ 6.7524, 47.1146 ], [ 6.7478, 47.1103 ], [ 6.7441, 47.1096 ], [ 6.7405, 47.1074 ], [ 6.7458, 47.0967 ], [ 6.739, 47.0905 ], [ 6.7257, 47.0912 ], [ 6.7161, 47.0881 ], [ 6.7043, 47.0819 ], [ 6.7066, 47.0787 ], [ 6.7053, 47.0744 ], [ 6.6926, 47.0669 ], [ 6.7011, 47.0594 ], [ 6.7197, 47.0523 ], [ 6.6968, 47.0375 ], [ 6.6865, 47.0374 ], [ 6.6779, 47.0352 ], [ 6.6576, 47.0254 ], [ 6.6422, 47.0048 ], [ 6.6337, 46.9985 ], [ 6.6168, 46.9918 ], [ 6.5961, 46.9925 ], [ 6.5635, 46.9796 ], [ 6.5194, 46.9708 ], [ 6.5066, 46.9666 ], [ 6.4967, 46.9742 ], [ 6.4813, 46.9641 ], [ 6.4725, 46.9569 ], [ 6.4703, 46.9537 ], [ 6.4621, 46.9471 ], [ 6.4595, 46.9431 ], [ 6.4447, 46.9334 ], [ 6.4327, 46.9285 ], [ 6.4358, 46.9216 ], [ 6.4412, 46.9178 ], [ 6.4474, 46.9111 ], [ 6.4639, 46.891 ], [ 6.4628, 46.8755 ], [ 6.46, 46.8516 ], [ 6.4425, 46.8319 ], [ 6.4396, 46.8241 ], [ 6.4407, 46.8163 ], [ 6.431, 46.8123 ], [ 6.4346, 46.802 ], [ 6.4377, 46.7999 ], [ 6.4417, 46.7978 ], [ 6.4576, 46.7883 ], [ 6.4517, 46.774 ], [ 6.4389, 46.7664 ], [ 6.438, 46.7636 ], [ 6.4394, 46.7626 ], [ 6.4276, 46.7557 ], [ 6.4171, 46.7528 ], [ 6.4001, 46.7502 ], [ 6.3942, 46.7475 ], [ 6.3895, 46.7436 ], [ 6.3912, 46.738 ], [ 6.3855, 46.7321 ], [ 6.3718, 46.7305 ], [ 6.3707, 46.7243 ], [ 6.3651, 46.7224 ], [ 6.3602, 46.7231 ], [ 6.3574, 46.7199 ], [ 6.3542, 46.7184 ], [ 6.3524, 46.7151 ], [ 6.349, 46.7143 ], [ 6.342, 46.7104 ], [ 6.3278, 46.7062 ], [ 6.3241, 46.706 ], [ 6.2982, 46.6945 ], [ 6.2958, 46.6944 ], [ 6.2831, 46.6905 ], [ 6.2779, 46.6866 ], [ 6.2705, 46.6832 ], [ 6.2688, 46.6777 ], [ 6.2573, 46.6698 ], [ 6.2348, 46.6556 ], [ 6.2274, 46.6483 ], [ 6.2194, 46.6449 ], [ 6.2171, 46.6434 ], [ 6.2171, 46.6419 ], [ 6.2128, 46.6406 ], [ 6.1821, 46.6212 ], [ 6.1751, 46.614 ], [ 6.1661, 46.6104 ], [ 6.1612, 46.6099 ], [ 6.1538, 46.6038 ], [ 6.1491, 46.6024 ], [ 6.1423, 46.5983 ], [ 6.1388, 46.5971 ], [ 6.1261, 46.5895 ], [ 6.1217, 46.584 ], [ 6.111, 46.5767 ], [ 6.1565, 46.5453 ], [ 6.1499, 46.5401 ], [ 6.1523, 46.5359 ], [ 6.1455, 46.5294 ], [ 6.1367, 46.5297 ], [ 6.1208, 46.5169 ], [ 6.113, 46.5099 ], [ 6.0971, 46.4816 ], [ 6.0736, 46.4653 ], [ 6.0758, 46.4533 ], [ 6.0862, 46.4431 ], [ 6.0854, 46.4406 ], [ 6.0749, 46.4318 ], [ 6.074, 46.4284 ], [ 6.0703, 46.4249 ], [ 6.064, 46.4162 ], [ 6.0968, 46.4088 ], [ 6.1053, 46.4003 ], [ 6.1175, 46.3978 ], [ 6.1494, 46.378 ], [ 6.1549, 46.3777 ], [ 6.1586, 46.3795 ], [ 6.1701, 46.3664 ], [ 6.1609, 46.3589 ], [ 6.158, 46.351 ], [ 6.1488, 46.3429 ], [ 6.1389, 46.3389 ], [ 6.1392, 46.3346 ], [ 6.1377, 46.3331 ], [ 6.1256, 46.3172 ], [ 6.1244, 46.3173 ], [ 6.1191, 46.3077 ], [ 6.1211, 46.2972 ], [ 6.1024, 46.2849 ], [ 6.1043, 46.2785 ], [ 6.112, 46.2732 ], [ 6.1115, 46.2696 ], [ 6.116, 46.2657 ], [ 6.1201, 46.2611 ], [ 6.1236, 46.2506 ], [ 6.11, 46.2407 ], [ 6.1018, 46.2375 ], [ 6.0881, 46.247 ], [ 6.0694, 46.2416 ], [ 6.0608, 46.2448 ], [ 6.0463, 46.2314 ], [ 6.0424, 46.2331 ], [ 6.0337, 46.2384 ], [ 6.0252, 46.2332 ], [ 6.0192, 46.2317 ], [ 6.0167, 46.2318 ], [ 6.0021, 46.2208 ], [ 5.9926, 46.2219 ], [ 5.9924, 46.216 ], [ 5.98, 46.2168 ], [ 5.9744, 46.2148 ], [ 5.9699, 46.2071 ], [ 5.9718, 46.2023 ], [ 5.9642, 46.198 ], [ 5.9637, 46.197 ], [ 5.9915, 46.1868 ], [ 5.9944, 46.1831 ], [ 5.9923, 46.1769 ], [ 5.9883, 46.1717 ], [ 5.9822, 46.1722 ], [ 5.9762, 46.1603 ], [ 5.9651, 46.1452 ], [ 5.9655, 46.1374 ], [ 5.9561, 46.1321 ], [ 5.9573, 46.128 ], [ 5.9758, 46.1328 ], [ 5.9822, 46.1371 ], [ 5.9827, 46.1421 ], [ 5.9938, 46.1441 ], [ 6.0244, 46.1407 ], [ 6.0351, 46.1369 ], [ 6.0478, 46.1409 ], [ 6.0524, 46.1508 ], [ 6.0746, 46.1493 ], [ 6.0918, 46.1517 ], [ 6.0994, 46.1444 ], [ 6.1266, 46.1405 ], [ 6.1355, 46.1412 ], [ 6.1416, 46.1461 ], [ 6.1467, 46.1459 ], [ 6.1529, 46.1516 ], [ 6.1754, 46.1581 ], [ 6.1882, 46.1665 ], [ 6.1861, 46.1782 ], [ 6.1992, 46.1847 ], [ 6.207, 46.1919 ], [ 6.2142, 46.1938 ], [ 6.2238, 46.2014 ], [ 6.2301, 46.2036 ], [ 6.2341, 46.2058 ], [ 6.2424, 46.2051 ], [ 6.245, 46.2066 ], [ 6.2494, 46.2058 ], [ 6.2633, 46.2125 ], [ 6.2764, 46.2152 ], [ 6.2945, 46.2249 ], [ 6.3094, 46.2433 ], [ 6.3069, 46.2518 ], [ 6.3085, 46.255 ], [ 6.2952, 46.256 ], [ 6.2941, 46.2583 ], [ 6.2965, 46.2637 ], [ 6.2949, 46.2646 ], [ 6.2834, 46.2544 ], [ 6.2677, 46.2483 ], [ 6.25, 46.2623 ], [ 6.2385, 46.2766 ], [ 6.2387, 46.282 ], [ 6.2443, 46.2851 ], [ 6.2513, 46.2884 ], [ 6.2519, 46.2917 ], [ 6.2477, 46.3018 ], [ 6.2414, 46.3046 ], [ 6.2195, 46.3119 ], [ 6.253, 46.3604 ], [ 6.3352, 46.4037 ], [ 6.4256, 46.4158 ], [ 6.5191, 46.4564 ], [ 6.6819, 46.4543 ], [ 6.8211, 46.4272 ], [ 6.8022, 46.3874 ], [ 6.8058, 46.38 ], [ 6.7918, 46.3676 ], [ 6.7798, 46.366 ], [ 6.7726, 46.3618 ], [ 6.7708, 46.3547 ], [ 6.7747, 46.3473 ], [ 6.7791, 46.3441 ], [ 6.7854, 46.3331 ], [ 6.7969, 46.3317 ], [ 6.8006, 46.3205 ], [ 6.8079, 46.32 ], [ 6.8193, 46.3153 ], [ 6.8214, 46.3131 ], [ 6.8248, 46.3119 ], [ 6.83, 46.3061 ], [ 6.8282, 46.3028 ], [ 6.8287, 46.3011 ], [ 6.8305, 46.2998 ], [ 6.8343, 46.2998 ], [ 6.836, 46.2975 ], [ 6.8398, 46.295 ], [ 6.8435, 46.2943 ], [ 6.8453, 46.2912 ], [ 6.8471, 46.29 ], [ 6.8509, 46.2902 ], [ 6.8545, 46.2918 ], [ 6.8589, 46.2904 ], [ 6.8642, 46.2803 ], [ 6.8594, 46.2735 ], [ 6.8594, 46.2654 ], [ 6.8545, 46.2589 ], [ 6.8534, 46.2534 ], [ 6.8401, 46.2477 ], [ 6.8323, 46.236 ], [ 6.8207, 46.23 ], [ 6.8217, 46.2235 ], [ 6.8197, 46.2213 ], [ 6.8166, 46.2199 ], [ 6.8133, 46.2151 ], [ 6.8101, 46.2139 ], [ 6.8101, 46.2122 ], [ 6.8084, 46.2111 ], [ 6.8036, 46.2031 ], [ 6.807, 46.1965 ], [ 6.8124, 46.1814 ], [ 6.8073, 46.1778 ], [ 6.8056, 46.1728 ], [ 6.7923, 46.1632 ], [ 6.7928, 46.1598 ], [ 6.7904, 46.1543 ], [ 6.7983, 46.1371 ], [ 6.8072, 46.1358 ], [ 6.8152, 46.1293 ], [ 6.8193, 46.1311 ], [ 6.8391, 46.1326 ], [ 6.8415, 46.132 ], [ 6.8445, 46.1287 ], [ 6.8527, 46.1265 ], [ 6.8757, 46.1255 ], [ 6.8824, 46.1234 ], [ 6.89, 46.125 ], [ 6.8995, 46.1241 ], [ 6.894, 46.1135 ], [ 6.8944, 46.1074 ], [ 6.8836, 46.0949 ], [ 6.8912, 46.0848 ], [ 6.889, 46.0784 ], [ 6.8915, 46.0739 ], [ 6.8879, 46.0732 ], [ 6.8843, 46.0706 ], [ 6.8808, 46.0695 ], [ 6.8731, 46.0556 ], [ 6.8726, 46.052 ], [ 6.8779, 46.0468 ], [ 6.8903, 46.0433 ], [ 6.8948, 46.0478 ], [ 6.9091, 46.0512 ], [ 6.9235, 46.064 ], [ 6.933, 46.0661 ], [ 6.9368, 46.0639 ], [ 6.9363, 46.0553 ], [ 6.943, 46.0514 ], [ 6.9497, 46.0517 ], [ 6.9629, 46.0305 ], [ 6.9669, 46.0303 ], [ 6.9803, 46.0202 ], [ 6.9863, 46.0046 ], [ 6.9971, 45.9999 ], [ 7.0051, 46.0007 ], [ 7.0088, 45.9985 ], [ 7.0126, 45.9879 ], [ 7.0222, 45.9805 ], [ 7.0217, 45.9772 ], [ 7.0112, 45.9731 ], [ 7.0097, 45.9692 ], [ 7.0189, 45.9602 ], [ 7.0367, 45.9545 ], [ 7.0360376, 45.9383885 ], [ 7.0449, 45.9224 ], [ 7.0619, 45.912 ], [ 7.0647, 45.9003 ], [ 7.0759, 45.8948 ], [ 7.0807, 45.8852 ], [ 7.0939, 45.8767 ], [ 7.0931, 45.872 ], [ 7.1012, 45.8593 ], [ 7.1181, 45.8598 ], [ 7.1312, 45.8671 ], [ 7.1363, 45.8728 ], [ 7.1535, 45.8792 ], [ 7.1626, 45.8771 ], [ 7.163, 45.8709 ], [ 7.1733, 45.8641 ], [ 7.1906, 45.8587 ], [ 7.1999, 45.8629 ], [ 7.198, 45.8694 ], [ 7.1998, 45.8745 ], [ 7.2149, 45.8839 ], [ 7.2176, 45.8888 ], [ 7.2291, 45.8915 ], [ 7.2411, 45.8903 ], [ 7.2487, 45.8927 ], [ 7.2531, 45.8885 ], [ 7.2574, 45.889 ], [ 7.2694, 45.8984 ], [ 7.2767, 45.9013 ], [ 7.2858, 45.9155 ], [ 7.2944, 45.9218 ], [ 7.302, 45.9176 ], [ 7.3155, 45.9161 ], [ 7.3187, 45.9119 ], [ 7.3234, 45.9105 ], [ 7.3453, 45.9144 ], [ 7.3556, 45.9104 ], [ 7.3605, 45.9041 ], [ 7.374, 45.9004 ], [ 7.3825, 45.897 ], [ 7.3868, 45.8975 ], [ 7.3953, 45.9032 ], [ 7.4008, 45.9105 ], [ 7.4114, 45.9092 ], [ 7.4285, 45.9164 ], [ 7.4448, 45.9311 ], [ 7.4554, 45.9327 ], [ 7.4602, 45.9354 ], [ 7.4727, 45.9352 ], [ 7.4724, 45.9476 ], [ 7.4874, 45.9558 ], [ 7.4935, 45.9562 ], [ 7.4988, 45.9617 ], [ 7.5078, 45.9585 ], [ 7.5167, 45.962 ], [ 7.5275, 45.9569 ], [ 7.5402, 45.9559 ], [ 7.546, 45.9617 ], [ 7.542, 45.9757 ], [ 7.5468, 45.9843 ], [ 7.5514, 45.9864 ], [ 7.5747, 45.9876 ], [ 7.5792, 45.9846 ], [ 7.5845, 45.9722 ], [ 7.6104, 45.9694 ], [ 7.6195, 45.9721 ], [ 7.6379, 45.9705 ], [ 7.6399, 45.9705 ], [ 7.6578, 45.9762 ], [ 7.6651, 45.9752 ], [ 7.6766, 45.9647 ], [ 7.6802, 45.9577 ], [ 7.698, 45.9543 ], [ 7.7087, 45.9484 ], [ 7.7079, 45.9353 ], [ 7.7131, 45.9287 ], [ 7.7212, 45.9239 ], [ 7.7351, 45.924 ], [ 7.7497, 45.9404 ], [ 7.7685, 45.937 ], [ 7.7896, 45.9255 ], [ 7.7995, 45.9171 ], [ 7.8208, 45.9266 ], [ 7.8373, 45.922 ], [ 7.8582, 45.9204 ], [ 7.8641, 45.9168 ], [ 7.8728, 45.9208 ], [ 7.8771, 45.927 ], [ 7.869, 45.9377 ], [ 7.8705, 45.9462 ], [ 7.8769, 45.9499 ], [ 7.8759, 45.9578 ], [ 7.8815, 45.9647 ], [ 7.8779, 45.9731 ], [ 7.8937, 45.979 ], [ 7.9087, 45.9969 ], [ 7.9585, 45.9963 ], [ 7.9764, 45.9991 ], [ 7.9891, 45.9959 ], [ 8.0014, 46.0115 ], [ 8.0124, 46.012 ], [ 8.0115, 46.0195 ], [ 8.0167, 46.0253 ], [ 8.0132, 46.0317 ], [ 8.0225, 46.0388 ], [ 8.0346, 46.0443 ], [ 8.0224, 46.0696 ], [ 8.0348, 46.1008 ], [ 8.0557, 46.1017 ], [ 8.0669, 46.1054 ], [ 8.082, 46.1058 ], [ 8.1082, 46.1116 ], [ 8.1138, 46.1185 ], [ 8.1168, 46.1307 ], [ 8.1273, 46.1356 ], [ 8.1431, 46.1365 ], [ 8.1496, 46.1406 ], [ 8.1544, 46.1473 ], [ 8.1497, 46.1582 ], [ 8.1507, 46.1638 ], [ 8.159, 46.1739 ], [ 8.1653, 46.1769 ], [ 8.1645, 46.1829 ], [ 8.1533, 46.1921 ], [ 8.1513, 46.2023 ], [ 8.1436, 46.212 ], [ 8.1389, 46.2262 ], [ 8.1257, 46.2293 ], [ 8.121, 46.2351 ], [ 8.1139, 46.2379 ], [ 8.1102, 46.2487 ], [ 8.1016, 46.2495 ], [ 8.1001, 46.2522 ], [ 8.0877, 46.2542 ], [ 8.0813, 46.2603 ], [ 8.0855, 46.2626 ], [ 8.0868, 46.2665 ], [ 8.0972, 46.2717 ], [ 8.1056, 46.279 ], [ 8.1148, 46.2825 ], [ 8.1221, 46.2926 ], [ 8.1411, 46.3019 ], [ 8.1614, 46.2962 ], [ 8.1789, 46.2977 ], [ 8.1929, 46.3035 ], [ 8.1962, 46.3023 ], [ 8.1988, 46.3022 ], [ 8.2115, 46.3096 ], [ 8.2155, 46.3198 ], [ 8.2239, 46.3252 ], [ 8.2226, 46.3304 ], [ 8.2253, 46.3346 ], [ 8.2353, 46.34 ], [ 8.2488, 46.3408 ], [ 8.2534, 46.3461 ], [ 8.2617, 46.3464 ], [ 8.261, 46.3487 ], [ 8.2653, 46.3527 ], [ 8.2616, 46.3609 ], [ 8.2636, 46.3635 ], [ 8.2724, 46.3664 ], [ 8.2839, 46.3643 ], [ 8.2999, 46.3737 ], [ 8.3123, 46.3772 ], [ 8.3187, 46.3861 ], [ 8.3147, 46.39 ], [ 8.3168, 46.395 ], [ 8.3143, 46.3998 ], [ 8.3095, 46.4032 ], [ 8.3041, 46.4026 ], [ 8.2889, 46.4081 ], [ 8.2979, 46.4139 ], [ 8.3075, 46.4259 ], [ 8.3142, 46.4239 ], [ 8.3245, 46.4257 ], [ 8.3637, 46.4505 ], [ 8.373, 46.4527 ], [ 8.3799, 46.451 ], [ 8.3847, 46.4522 ], [ 8.3929, 46.4522 ], [ 8.4083, 46.4585 ], [ 8.4396, 46.4641 ], [ 8.4494, 46.4619 ], [ 8.4542, 46.4545 ], [ 8.462, 46.4507 ], [ 8.4658, 46.4426 ], [ 8.4583, 46.4354 ], [ 8.4601, 46.4289 ], [ 8.4572, 46.4231 ], [ 8.4675, 46.4123 ], [ 8.4637, 46.404 ], [ 8.4702, 46.3962 ], [ 8.4616, 46.3872 ], [ 8.4657, 46.3808 ], [ 8.4688, 46.3621 ], [ 8.4621, 46.3531 ], [ 8.4644, 46.3447 ], [ 8.464, 46.333 ], [ 8.4533, 46.3217 ], [ 8.4437, 46.3195 ], [ 8.4405, 46.3041 ], [ 8.4277, 46.2983 ], [ 8.4359, 46.2863 ], [ 8.4498, 46.2739 ], [ 8.455, 46.2652 ], [ 8.4432, 46.2548 ], [ 8.4445, 46.2489 ], [ 8.4473, 46.2479 ], [ 8.4502, 46.2482 ], [ 8.4537, 46.2475 ], [ 8.459, 46.246 ], [ 8.4608, 46.2448 ], [ 8.4641, 46.2446 ], [ 8.4687, 46.2329 ], [ 8.4929, 46.2289 ], [ 8.5123, 46.221 ], [ 8.5272, 46.2201 ], [ 8.5321, 46.2177 ], [ 8.5368, 46.2037 ], [ 8.5425, 46.1974 ], [ 8.5526, 46.1923 ], [ 8.5553, 46.1861 ], [ 8.5639, 46.1833 ], [ 8.5697, 46.1771 ], [ 8.5751, 46.1637 ], [ 8.5861, 46.1619 ], [ 8.5896, 46.1566 ], [ 8.6027391, 46.1547743 ], [ 8.5935, 46.1437 ], [ 8.6093, 46.1327 ], [ 8.6112, 46.1245 ], [ 8.6138, 46.1217 ], [ 8.6342, 46.1224 ], [ 8.6402, 46.1228 ], [ 8.6455, 46.1236 ], [ 8.648, 46.1233 ], [ 8.6479, 46.1225 ], [ 8.6589, 46.1126 ], [ 8.6701, 46.1094 ], [ 8.6782, 46.1102 ], [ 8.6858, 46.1026 ], [ 8.698, 46.1016 ], [ 8.7139, 46.0973 ], [ 8.7181, 46.1017 ], [ 8.7244, 46.1103 ], [ 8.7423, 46.1222 ], [ 8.7558, 46.1049 ], [ 8.7608, 46.1015 ], [ 8.7835, 46.0944 ], [ 8.7988, 46.0949 ], [ 8.8079, 46.1004 ], [ 8.8475, 46.0758 ], [ 8.8521, 46.0756 ], [ 8.8542, 46.0686 ], [ 8.8546, 46.0616 ], [ 8.8442, 46.0485 ], [ 8.8345, 46.0514 ], [ 8.8304, 46.0474 ], [ 8.8288, 46.0465 ], [ 8.8319, 46.0457 ], [ 8.8354, 46.0438 ], [ 8.8327, 46.0406 ], [ 8.83, 46.0416 ], [ 8.8282, 46.0342 ], [ 8.8271, 46.0323 ], [ 8.8197, 46.0255 ], [ 8.8064, 46.0217 ], [ 8.7931, 46.0081 ], [ 8.7859, 45.9891 ], [ 8.7956, 45.9916 ], [ 8.8128, 45.9903 ], [ 8.8219, 45.9873 ], [ 8.8236, 45.9877 ], [ 8.8311, 45.9875 ], [ 8.8382, 45.9841 ], [ 8.8468, 45.9762 ], [ 8.8495, 45.973 ], [ 8.8601, 45.9665 ], [ 8.8691, 45.9609 ], [ 8.8826, 45.957 ], [ 8.8928, 45.9586 ], [ 8.8966, 45.955 ], [ 8.8984, 45.9454 ], [ 8.893, 45.9341 ], [ 8.8982, 45.9257 ], [ 8.9061, 45.9191 ], [ 8.9163, 45.9145 ], [ 8.9203, 45.909 ], [ 8.9248, 45.9037 ], [ 8.9249, 45.9009 ], [ 8.9234, 45.8988 ], [ 8.9219, 45.8952 ], [ 8.9241, 45.8922 ], [ 8.9318, 45.8849 ], [ 8.9338, 45.8703 ], [ 8.9367, 45.8681 ], [ 8.9418, 45.8696 ], [ 8.9439, 45.8683 ], [ 8.9394, 45.8637 ], [ 8.9314, 45.8598 ], [ 8.9142, 45.8422 ], [ 8.9121, 45.8304 ], [ 8.9149, 45.8319 ], [ 8.9205, 45.8342 ], [ 8.9237, 45.8341 ], [ 8.9266, 45.8333 ], [ 8.929, 45.8334 ], [ 8.9342, 45.8393 ], [ 8.9488, 45.8434 ], [ 8.9532, 45.8423 ], [ 8.9558, 45.8429 ], [ 8.9623, 45.8379 ], [ 8.97, 45.8324 ], [ 8.9863, 45.8379 ], [ 8.9921, 45.8349 ], [ 8.9975, 45.8349 ], [ 8.9941, 45.8262 ], [ 8.9946, 45.8226 ], [ 9.0068, 45.8198 ], [ 9.0159, 45.8184 ], [ 9.0213, 45.8207 ], [ 9.0345, 45.823 ], [ 9.0318, 45.8251 ], [ 9.0371, 45.8354 ], [ 9.0354, 45.8397 ], [ 9.0386, 45.842 ], [ 9.0407, 45.8458 ], [ 9.0508, 45.8522 ], [ 9.0514, 45.8555 ], [ 9.0494, 45.862 ], [ 9.0558, 45.8739 ], [ 9.0663, 45.876 ], [ 9.0778, 45.8851 ], [ 9.0781, 45.8912 ], [ 9.0877, 45.897 ], [ 9.089, 45.9006 ], [ 9.0868, 45.9022 ], [ 9.0769, 45.8993 ], [ 9.0763, 45.9034 ], [ 9.0765, 45.9108 ], [ 9.0682, 45.9129 ], [ 9.06, 45.9164 ], [ 9.0591, 45.9204 ], [ 9.0495, 45.9212 ], [ 9.0425, 45.9269 ], [ 9.0298, 45.9265 ], [ 9.0262, 45.9287 ], [ 9.0229, 45.929 ], [ 9.0194, 45.9284 ], [ 9.022, 45.9381 ], [ 9.0122, 45.9438 ], [ 9.0164, 45.9491 ], [ 9.0136, 45.9601 ], [ 8.9937, 45.967 ], [ 8.9901, 45.9699 ], [ 8.9911, 45.9716 ], [ 8.9953, 45.9733 ], [ 8.9961, 45.98 ], [ 9.0076, 45.9808 ], [ 9.0123, 45.9879 ], [ 9.0196, 45.9884 ], [ 9.0237, 45.9925 ], [ 9.0285, 45.9936 ], [ 9.0245, 46.0008 ], [ 9.0225, 46.0169 ], [ 9.0081, 46.0295 ], [ 9.0178, 46.0498 ], [ 9.0504, 46.062 ], [ 9.0623, 46.0611 ], [ 9.0783, 46.0653 ], [ 9.0788, 46.0743 ], [ 9.0894, 46.0857 ], [ 9.0725, 46.1181 ], [ 9.0769, 46.1201 ], [ 9.0787, 46.1212 ], [ 9.0986, 46.1268 ], [ 9.1049, 46.1317 ], [ 9.1171, 46.1354 ], [ 9.1215, 46.1348 ], [ 9.1344, 46.1526 ], [ 9.1556, 46.1621 ], [ 9.1594, 46.1696 ], [ 9.1704, 46.1717 ], [ 9.1728, 46.1709 ], [ 9.1835, 46.1705 ], [ 9.1934, 46.1785 ], [ 9.1981, 46.187 ], [ 9.1952, 46.1929 ], [ 9.2022, 46.2083 ], [ 9.2084, 46.2101 ], [ 9.218, 46.2139 ], [ 9.2224, 46.2238 ], [ 9.2209, 46.2289 ], [ 9.2248, 46.2297 ], [ 9.2355, 46.2334 ], [ 9.2398, 46.2323 ], [ 9.2464, 46.232 ], [ 9.2485, 46.2338 ], [ 9.2484, 46.2475 ], [ 9.2521, 46.2674 ], [ 9.2577, 46.2708 ], [ 9.26, 46.2785 ], [ 9.2846, 46.2974 ], [ 9.2823, 46.3088 ], [ 9.2853, 46.3144 ], [ 9.2941, 46.3174 ], [ 9.3001, 46.3265 ], [ 9.2927, 46.335 ], [ 9.2994, 46.3434 ], [ 9.2967, 46.3545 ], [ 9.2832, 46.3581 ], [ 9.2761, 46.3678 ], [ 9.2762, 46.3737 ], [ 9.2835, 46.3863 ], [ 9.2762, 46.3938 ], [ 9.2817, 46.4067 ], [ 9.2804, 46.4123 ], [ 9.2745, 46.4188 ], [ 9.2652, 46.42 ], [ 9.2498, 46.4314 ], [ 9.2474, 46.4458 ], [ 9.2519, 46.4489 ], [ 9.2683, 46.4529 ], [ 9.2763, 46.4599 ], [ 9.2741, 46.4671 ], [ 9.2772, 46.4777 ], [ 9.2752, 46.4837 ], [ 9.2827, 46.4967 ], [ 9.2927, 46.4977 ], [ 9.3132, 46.5042 ], [ 9.3547, 46.5048 ], [ 9.3623, 46.5095 ], [ 9.3734, 46.5036 ], [ 9.3689, 46.495 ], [ 9.3711, 46.4902 ], [ 9.3858, 46.4813 ], [ 9.3905, 46.4733 ], [ 9.4108, 46.4668 ], [ 9.4236, 46.4764 ], [ 9.4256, 46.4888 ], [ 9.4341, 46.4975 ], [ 9.459, 46.5081 ], [ 9.4643, 46.5078 ], [ 9.4615, 46.5045 ], [ 9.461, 46.4848 ], [ 9.4507, 46.4843 ], [ 9.4496, 46.4817 ], [ 9.4516, 46.4802 ], [ 9.4623, 46.4805 ], [ 9.465, 46.4695 ], [ 9.4591, 46.4604 ], [ 9.4603, 46.4428 ], [ 9.4546, 46.4221 ], [ 9.4563, 46.4159 ], [ 9.4613, 46.4115 ], [ 9.4679, 46.3895 ], [ 9.4623, 46.3828 ], [ 9.4617, 46.3761 ], [ 9.4873, 46.3662 ], [ 9.4954, 46.3642 ], [ 9.5079, 46.3511 ], [ 9.512, 46.3372 ], [ 9.5196, 46.3262 ], [ 9.5345, 46.3117 ], [ 9.5496, 46.3023 ], [ 9.5587, 46.306 ], [ 9.583, 46.2943 ], [ 9.6092, 46.2943 ], [ 9.6188, 46.2879 ], [ 9.6382, 46.2864 ], [ 9.6611, 46.2963 ], [ 9.6686, 46.2969 ], [ 9.6763, 46.3024 ], [ 9.6882, 46.2943 ], [ 9.7025, 46.2912 ], [ 9.7141, 46.2927 ], [ 9.7177, 46.3043 ], [ 9.7256, 46.3131 ], [ 9.7254, 46.3195 ], [ 9.7178, 46.324 ], [ 9.7265, 46.3333 ], [ 9.7239, 46.3405 ], [ 9.7265, 46.3438 ], [ 9.7359, 46.3499 ], [ 9.7432, 46.3512 ], [ 9.7703, 46.336 ], [ 9.7782, 46.3357 ], [ 9.7846, 46.3409 ], [ 9.8024, 46.3445 ], [ 9.8213, 46.3519 ], [ 9.8321, 46.361 ], [ 9.8499, 46.3641 ], [ 9.8696, 46.3632 ], [ 9.8845, 46.3729 ], [ 9.9078, 46.3805 ], [ 9.9165, 46.3715 ], [ 9.9213, 46.3706 ], [ 9.9257, 46.3666 ], [ 9.9368, 46.3755 ], [ 9.9521, 46.3788 ], [ 9.9592, 46.3781 ], [ 9.9568, 46.3729 ], [ 9.9644, 46.3642 ], [ 9.9856, 46.3523 ], [ 9.9959, 46.3507 ], [ 9.9955, 46.3426 ], [ 9.9861, 46.3343 ], [ 9.9811, 46.3237 ], [ 9.9997, 46.3123 ], [ 9.9971, 46.3072 ], [ 9.9999, 46.3024 ], [ 9.9924, 46.2951 ], [ 9.9959, 46.2857 ], [ 10.0006, 46.2829 ], [ 10.0294, 46.2772 ], [ 10.044444, 46.2705495 ], [ 10.0536, 46.2665 ], [ 10.0606, 46.2482 ], [ 10.0543, 46.2418 ], [ 10.0526, 46.2353 ], [ 10.0446, 46.2305 ], [ 10.0495, 46.2274 ], [ 10.052, 46.2275 ], [ 10.0562, 46.2252 ], [ 10.0586, 46.225 ], [ 10.0631, 46.2202 ], [ 10.0662, 46.2197 ], [ 10.0669, 46.218 ], [ 10.0706, 46.2171 ], [ 10.0834, 46.2262 ], [ 10.1014, 46.2278 ], [ 10.1232, 46.2242 ], [ 10.1356, 46.2263 ], [ 10.1455, 46.2307 ], [ 10.1516, 46.2399 ], [ 10.1736, 46.2539 ], [ 10.1765, 46.2583 ], [ 10.1634, 46.2744 ], [ 10.1616, 46.2825 ], [ 10.1547, 46.2858 ], [ 10.1535, 46.2929 ], [ 10.1375, 46.3011 ], [ 10.1388, 46.303 ], [ 10.1383, 46.3046 ], [ 10.1161, 46.315 ], [ 10.1051, 46.3333 ], [ 10.1061, 46.3412 ], [ 10.1094, 46.3521 ], [ 10.1289, 46.3615 ], [ 10.1266, 46.3697 ], [ 10.1288, 46.3783 ], [ 10.1438, 46.3863 ], [ 10.159, 46.3858 ], [ 10.1634, 46.3904 ], [ 10.1626, 46.4032 ], [ 10.1655, 46.4088 ], [ 10.1596, 46.4154 ], [ 10.1497, 46.4136 ], [ 10.1428, 46.4277 ], [ 10.1309, 46.4315 ], [ 10.1212, 46.4297 ], [ 10.1167, 46.4266 ], [ 10.1079, 46.4276 ], [ 10.0991, 46.4215 ], [ 10.0819, 46.4197 ], [ 10.0766, 46.428 ], [ 10.065, 46.4263 ], [ 10.0613, 46.4279 ], [ 10.0564, 46.4401 ], [ 10.0423, 46.4424 ], [ 10.0401, 46.4465 ], [ 10.0426, 46.453 ], [ 10.0533, 46.4633 ], [ 10.0511, 46.4719 ], [ 10.0452, 46.477 ], [ 10.0435, 46.4813 ], [ 10.0476, 46.4874 ], [ 10.0453, 46.4926 ], [ 10.0481, 46.4996 ], [ 10.0427, 46.5087 ], [ 10.0511, 46.5134 ], [ 10.0538, 46.5209 ], [ 10.0522, 46.532 ], [ 10.0442, 46.538 ], [ 10.0468, 46.544 ], [ 10.0613, 46.5462 ], [ 10.0683, 46.5514 ], [ 10.072, 46.559 ], [ 10.0842, 46.5665 ], [ 10.0794, 46.5746 ], [ 10.096, 46.5786 ], [ 10.1006, 46.5844 ], [ 10.0975, 46.5946 ], [ 10.1021, 46.6107 ], [ 10.117, 46.6064 ], [ 10.1293, 46.6059 ], [ 10.1386, 46.6106 ], [ 10.1891, 46.6272 ], [ 10.2151, 46.6176 ], [ 10.2243, 46.6289 ], [ 10.2382, 46.6347 ], [ 10.2449, 46.6221 ], [ 10.258, 46.6104 ], [ 10.2416, 46.5916 ], [ 10.2464, 46.5746 ], [ 10.2537, 46.5719 ], [ 10.2673, 46.5772 ], [ 10.273, 46.5734 ], [ 10.286, 46.5699 ], [ 10.2953, 46.5581 ], [ 10.2946, 46.5514 ], [ 10.2971, 46.5497 ], [ 10.3116, 46.5473 ], [ 10.3255, 46.5511 ], [ 10.3398, 46.5433 ], [ 10.3491, 46.5491 ], [ 10.3523, 46.5551 ], [ 10.3619, 46.5555 ], [ 10.3968, 46.5444 ], [ 10.4183, 46.5506 ], [ 10.4336, 46.5413 ], [ 10.4377, 46.5371 ], [ 10.4531216, 46.5326543 ], [ 10.458407, 46.5402937 ], [ 10.4682922, 46.542428 ], [ 10.4763111, 46.5552279 ], [ 10.4751929, 46.5653779 ], [ 10.4843584, 46.5781172 ], [ 10.4869275, 46.589335 ], [ 10.4850037, 46.6049338 ], [ 10.4898206, 46.6122392 ], [ 10.4891835, 46.6162796 ], [ 10.467077, 46.6298501 ], [ 10.4441662, 46.6410571 ], [ 10.4034901, 46.635361 ], [ 10.3908751, 46.6571882 ], [ 10.3888659, 46.6749008 ], [ 10.3846548, 46.6852569 ], [ 10.3904694, 46.6886319 ], [ 10.403243, 46.7061107 ], [ 10.4140194, 46.7085342 ], [ 10.4169575, 46.7157284 ], [ 10.4152405, 46.7205155 ], [ 10.4007941, 46.7337324 ], [ 10.436993, 46.752012 ], [ 10.4413932, 46.7561183 ], [ 10.4413867, 46.7702491 ], [ 10.4231879, 46.7881033 ], [ 10.428436, 46.7968148 ], [ 10.4467859, 46.8028316 ], [ 10.4588245, 46.8218917 ], [ 10.4579248, 46.8273843 ], [ 10.4648911, 46.8349102 ], [ 10.4642359, 46.8393172 ], [ 10.4709222, 46.8486422 ], [ 10.4697, 46.8547 ], [ 10.4669, 46.8635 ], [ 10.4695, 46.8797 ], [ 10.4648, 46.8841 ], [ 10.4714, 46.8905 ], [ 10.474, 46.8941 ], [ 10.475, 46.8961 ], [ 10.4764, 46.8995 ], [ 10.4782, 46.9075 ], [ 10.4797, 46.9106 ], [ 10.4815, 46.9122 ], [ 10.4827, 46.9129 ], [ 10.4844, 46.9146 ], [ 10.4856, 46.9172 ], [ 10.4863, 46.9201 ], [ 10.4871, 46.923 ], [ 10.4873, 46.9283 ], [ 10.4875, 46.9303 ], [ 10.488, 46.9319 ], [ 10.4889, 46.9332 ], [ 10.4902, 46.9347 ], [ 10.4916, 46.936 ], [ 10.4784, 46.9401 ], [ 10.4566, 46.9519 ], [ 10.424, 46.959 ], [ 10.4268, 46.9755 ], [ 10.4163, 46.9821 ], [ 10.4022, 46.9908 ], [ 10.3987, 46.9968 ], [ 10.3893, 47.0005 ], [ 10.3722, 46.9907 ], [ 10.3496, 46.9909 ], [ 10.3298, 46.9646 ], [ 10.3279, 46.9542 ], [ 10.3079, 46.9479 ], [ 10.3061, 46.9406 ], [ 10.3174, 46.9306 ], [ 10.3163, 46.9253 ], [ 10.3034, 46.9254 ], [ 10.2969, 46.9201 ], [ 10.2702, 46.9281 ], [ 10.2628, 46.929 ], [ 10.2416, 46.9317 ], [ 10.242, 46.9194 ], [ 10.237, 46.9158 ], [ 10.2322, 46.9006 ], [ 10.2258, 46.8963 ], [ 10.2344, 46.8852 ], [ 10.2325, 46.8663 ], [ 10.2033, 46.8644 ], [ 10.1935, 46.8663 ], [ 10.1791, 46.8543 ], [ 10.1451, 46.8509 ], [ 10.1401, 46.8474 ], [ 10.1228, 46.8481 ], [ 10.1189, 46.8442 ], [ 10.1054, 46.8409 ], [ 10.09614, 46.8481262 ], [ 10.0919, 46.8514 ], [ 10.0914, 46.859 ], [ 10.0875, 46.8612 ], [ 10.0549, 46.8617 ], [ 10.0509, 46.8652 ], [ 10.052, 46.8767 ], [ 10.0323, 46.888 ], [ 10.0181, 46.9021 ], [ 10.0056, 46.899 ], [ 9.9903, 46.9024 ], [ 9.9821, 46.9067 ], [ 9.978, 46.9158 ], [ 9.967, 46.9122 ], [ 9.9592, 46.916 ], [ 9.9386, 46.9132 ], [ 9.923, 46.9183 ], [ 9.9123, 46.9261 ], [ 9.9064, 46.9252 ], [ 9.8807, 46.9352 ], [ 9.8767, 46.9478 ], [ 9.8793, 46.9566 ], [ 9.8708, 46.9632 ], [ 9.8849, 46.9856 ], [ 9.8916, 46.9888 ], [ 9.8888, 47.0008 ], [ 9.8734, 47.0064 ], [ 9.8711, 47.0135 ], [ 9.8814, 47.0183 ], [ 9.8769, 47.0215 ], [ 9.8616, 47.0223 ], [ 9.8361, 47.0134 ], [ 9.7929, 47.0314 ], [ 9.7843, 47.0383 ], [ 9.7473, 47.0373 ], [ 9.742, 47.0428 ], [ 9.7171, 47.0448 ], [ 9.7066, 47.0487 ], [ 9.7075, 47.0538 ], [ 9.6979, 47.0524 ], [ 9.6839, 47.0577 ], [ 9.6819, 47.0621 ], [ 9.6775, 47.0614 ], [ 9.6585, 47.0576 ], [ 9.6451, 47.0598 ], [ 9.6415, 47.0541 ], [ 9.6299, 47.0514 ], [ 9.6172, 47.0536 ], [ 9.6071, 47.0608 ], [ 9.6135, 47.0695 ], [ 9.6115, 47.0794 ], [ 9.6187, 47.0781 ], [ 9.6235, 47.0825 ], [ 9.6269, 47.0828 ], [ 9.6336, 47.0834 ], [ 9.6354, 47.0906 ], [ 9.6344, 47.1011 ], [ 9.6316, 47.1031 ], [ 9.6209, 47.1107 ], [ 9.6337, 47.1268 ], [ 9.6247, 47.1326 ], [ 9.6248, 47.146 ], [ 9.6206, 47.1515 ], [ 9.6149, 47.1478 ], [ 9.6062, 47.1487 ], [ 9.5968, 47.1629 ], [ 9.5794, 47.1711 ], [ 9.5647, 47.1703 ], [ 9.5735, 47.1764 ], [ 9.5726, 47.1908 ], [ 9.5849, 47.2045 ], [ 9.5849, 47.2046 ], [ 9.5847, 47.2047 ], [ 9.5692, 47.2194 ], [ 9.5586, 47.2242 ], [ 9.5517, 47.2238 ], [ 9.5674, 47.2413 ], [ 9.5308, 47.2707 ], [ 9.5318, 47.272 ], [ 9.5324, 47.2725 ], [ 9.5339, 47.2736 ], [ 9.5369, 47.2754 ], [ 9.5418, 47.2779 ], [ 9.5457, 47.2805 ], [ 9.5488, 47.2833 ], [ 9.5509, 47.2869 ], [ 9.5528, 47.2927 ], [ 9.554, 47.2952 ], [ 9.5554, 47.297 ], [ 9.5569, 47.2982 ], [ 9.5601, 47.3004 ], [ 9.5675, 47.3045 ], [ 9.576, 47.3095 ], [ 9.5843, 47.3146 ], [ 9.5871, 47.3167 ], [ 9.5886, 47.3179 ], [ 9.5902, 47.3197 ], [ 9.5916, 47.3223 ], [ 9.5929, 47.3259 ], [ 9.5943, 47.3311 ], [ 9.5965, 47.3378 ], [ 9.5983, 47.3418 ], [ 9.6001, 47.3453 ], [ 9.6029, 47.3492 ], [ 9.6077, 47.3536 ], [ 9.614, 47.3583 ], [ 9.6194, 47.3622 ], [ 9.6244, 47.3663 ], [ 9.6498, 47.3674 ], [ 9.6596, 47.3698 ], [ 9.6707, 47.3779 ], [ 9.674, 47.3839 ], [ 9.6738, 47.3912 ], [ 9.6591, 47.3989 ], [ 9.6518, 47.4059 ], [ 9.6516, 47.4101 ], [ 9.6511, 47.4147 ], [ 9.65, 47.4202 ] ] ] ] } }
]
}